<svg xmlns="http://www.w3.org/2000/svg" width="48" height="48">
<defs>
  <path
     d="M 24 2 C 11.856 2 2 11.856002 2 24 C 2 36.143997 11.856 46 24 46 C 36.144001 46 46 36.143997 46 24 C 46 11.856002 36.144001 2 24 2 z M 24 14.71875 C 29.119529 14.71875 33.28125 18.880467 33.28125 24 C 33.28125 29.119529 29.119529 33.28125 24 33.28125 C 18.880471 33.28125 14.71875 29.119529 14.71875 24 C 14.71875 18.880467 18.880471 14.71875 24 14.71875 z M 24 16.03125 C 19.594823 16.03125 16.03125 19.594823 16.03125 24 C 16.03125 28.405177 19.594823 31.96875 24 31.96875 C 28.405176 31.96875 31.96875 28.405177 31.96875 24 C 31.96875 19.594823 28.405176 16.03125 24 16.03125 z M 24 17.96875 C 27.333647 17.96875 30.03125 20.666353 30.03125 24 C 30.03125 27.333647 27.333647 30.03125 24 30.03125 C 20.666353 30.03125 17.96875 27.333647 17.96875 24 C 17.96875 20.666353 20.666353 17.96875 24 17.96875 z M 22 35.59375 C 22.263427 35.593754 22.518022 35.616733 22.75 35.6875 C 22.983937 35.75631 23.201794 35.860426 23.40625 36 L 23.40625 36.625 C 23.205726 36.438244 22.97804 36.311151 22.75 36.21875 C 22.523919 36.12636 22.286813 36.062504 22.03125 36.0625 C 21.52798 36.062504 21.142359 36.222609 20.875 36.53125 C 20.607637 36.837932 20.499999 37.293099 20.5 37.875 C 20.499999 38.45494 20.607637 38.878856 20.875 39.1875 C 21.142359 39.49418 21.52798 39.656251 22.03125 39.65625 C 22.286813 39.656251 22.523919 39.623645 22.75 39.53125 C 22.97804 39.43885 23.205726 39.280511 23.40625 39.09375 L 23.40625 39.71875 C 23.197862 39.860294 22.983938 39.960479 22.75 40.03125 C 22.518022 40.10202 22.259495 40.15625 22 40.15625 C 21.333562 40.15625 20.820847 39.938192 20.4375 39.53125 C 20.054151 39.122346 19.84375 38.580756 19.84375 37.875 C 19.84375 37.167283 20.054151 36.594442 20.4375 36.1875 C 20.820847 35.778598 21.333562 35.593754 22 35.59375 z M 24.34375 35.65625 L 25.5625 35.65625 C 26.415693 35.656254 27.038421 35.831678 27.4375 36.1875 C 27.836572 36.541363 28.031246 37.088851 28.03125 37.84375 C 28.031246 38.602585 27.838538 39.175424 27.4375 39.53125 C 27.036455 39.887077 26.411761 40.0625 25.5625 40.0625 L 24.34375 40.0625 L 24.34375 35.65625 z M 24.9375 36.15625 L 24.9375 39.5625 L 25.65625 39.5625 C 26.263707 39.562501 26.687625 39.431475 26.96875 39.15625 C 27.251835 38.881027 27.406247 38.43745 27.40625 37.84375 C 27.406247 37.253985 27.251835 36.835762 26.96875 36.5625 C 26.687625 36.287279 26.263707 36.156254 25.65625 36.15625 L 24.9375 36.15625 z "
     id="path-main" />
</defs>
<acyl-settings>
<linearGradient
     id="linearGradient4321">
    <stop
       style="stop-color:#FF6100;stop-opacity:1.0;"
       offset="0.0"
       id="stop1" />
  </linearGradient>
<linearGradient
     inkscape:collect="always"
     xlink:href="#linearGradient4321"
     id="acyl_gradient"
     x1="50.0%"
     y1="0.0%"
     x2="50.0%"
     y2="100.0%" />
<filter id="filter1111" x="-50%" y="-50%" width="200%" height="200%">
	<feImage
	id="feImage2"
	xlink:href="#1"
	result="result1" />
	<feComposite
	id="feComposite3633"
	in="result1"
	in2="SourceAlpha"
	operator="out" />
</filter>
<defs>
<use id="1" transform="translate(22.5,22.5) scale(1) translate(-22.5,-22.5)" style="stroke-opacity:1;stroke:url(#acyl_gradient);stroke-width:4" xlink:href="#path-main" />
</defs>
<use id="2" transform="translate(22.5,22.5) scale(1) translate(-22.5,-22.5)" style="fill:url(#acyl_gradient);filter:url(#filter1111)" xlink:href="#path-main" />
</acyl-settings>
</svg>
