<svg xmlns="http://www.w3.org/2000/svg" width="48" height="48">
<defs>
    <path
         d="m 11.420213,6.875 c -2.3374492,0 -4.2420215,1.304813 -4.2420215,2.925532 l 31.5372345,0 C 38.715426,8.179813 36.810852,6.875 34.473404,6.875 l -23.053191,0 z M 7.8803191,10.56117 C 4.6150646,10.56117 2,12.820025 2,15.62234 l 0,17.757979 c 0,2.802315 2.6150646,5.061169 5.8803191,5.06117 l 15.0664899,0 0,1.082447 c -0.562819,0.249406 -1.033005,0.711713 -1.257979,1.287234 l -17.9335109,0 c -0.029239,-0.0014 -0.058527,-0.0014 -0.087766,0 -0.5170325,0.02424 -0.9018955,0.477648 -0.8776596,0.994681 0.024236,0.517035 0.4483931,0.901895 0.9654255,0.87766 l 18.021277,0 c 0.380318,0.778442 1.182166,1.316488 2.106383,1.316489 0.924217,2e-6 1.726065,-0.538049 2.106383,-1.316489 l 17.992021,0 c 0.337616,0.0048 0.648947,-0.17647 0.819149,-0.468085 0.1702,-0.291614 0.170201,-0.644556 0,-0.936171 C 44.630329,40.987643 44.319,40.806396 43.981383,40.81117 l -17.904255,0 c -0.224972,-0.575519 -0.695159,-1.03783 -1.257979,-1.287234 l 0,-1.082447 15.300532,0 C 43.384935,38.441489 46,36.182634 46,33.380319 L 46,15.62234 c 0,-2.802315 -2.615065,-5.06117 -5.880319,-5.06117 l -32.2393619,0 z m 6.3484039,2.428192 c 2e-6,0 4.871717,3.997867 9.332447,0.263298 3.371486,1.504201 5.295996,2.521657 9.18617,-0.175532 0.259343,7.365397 0.38032,12.284726 0.38032,14.013298 -3e-6,1.780418 -0.869739,3.062525 -4.300532,5.06117 -3.66318,2.134021 -4.607636,2.453331 -5.178192,3.335106 -0.622428,-0.881777 -4.341487,-2.93201 -6.260638,-4.125 -1.91916,-1.192987 -3.247341,-3.062318 -3.247341,-4.359042 2e-6,-1.296727 0.08777,-13.909562 0.08777,-14.013298 z"
       id="path-main" />
</defs>
<acyl-settings>
<linearGradient
     id="linearGradient4321">
    <stop
       style="stop-color:#FF6100;stop-opacity:1.0;"
       offset="0.0"
       id="stop1" />
  </linearGradient>
<linearGradient
     inkscape:collect="always"
     xlink:href="#linearGradient4321"
     id="acyl_gradient"
     x1="50.0%"
     y1="0.0%"
     x2="50.0%"
     y2="100.0%" />
<filter id="filter1111" x="-50%" y="-50%" width="200%" height="200%">
	<feImage
	id="feImage2"
	xlink:href="#1"
	result="result1" />
	<feComposite
	id="feComposite3633"
	in="result1"
	in2="SourceAlpha"
	operator="out" />
</filter>
<defs>
<use id="1" transform="translate(22.5,22.5) scale(1) translate(-22.5,-22.5)" style="stroke-opacity:1;stroke:url(#acyl_gradient);stroke-width:4" xlink:href="#path-main" />
</defs>
<use id="2" transform="translate(22.5,22.5) scale(1) translate(-22.5,-22.5)" style="fill:url(#acyl_gradient);filter:url(#filter1111)" xlink:href="#path-main" />
</acyl-settings>
</svg>
