<svg xmlns="http://www.w3.org/2000/svg" width="48" height="48">
<defs>
<defs
     id="defs4">
  </defs>
  <path
     id="path-main"
     d="m 10.243154,2.4160677 0,14.2062863 C 7.3699646,15.742603 2,15.957816 2,18.75622 c 0,1.770391 2.0229697,2.883831 4.7061977,2.776949 2.4584565,-0.09793 5.5656383,-1.309692 5.5538983,-2.396946 L 12.37702,6.1868721 C 14.460008,6.3011342 15.441274,9.2812292 18.690925,12.03308 15.369042,7.8306752 16.533571,2.3716094 10.243154,2.4160677 z M 28.454093,10.0746 c -7.098376,0.335361 -13.487253,5.164109 -15.404759,12.3355 -1.746464,6.531692 0.690155,13.196403 5.670822,17.187853 -0.08816,0.29672 -0.170814,0.596481 -0.263079,0.876931 -0.200341,0.608958 -0.434862,1.159489 -0.730776,1.549245 -0.295915,0.389756 -0.60929,0.607462 -1.11078,0.701545 C 15.589694,42.91813 14.640726,42.320221 13.546262,41.439508 12.451797,40.558795 11.316657,39.432431 9.7754571,39.24718 8.4277913,39.085191 7.488306,39.407749 6.852353,39.831801 6.2163999,40.255853 5.8590249,40.648572 5.6246492,40.737963 l 0.4969277,1.315397 c 0.7204579,-0.274784 1.0909636,-0.766227 1.5200142,-1.052317 0.4290506,-0.28609 0.9115767,-0.509356 1.9877108,-0.380004 0.8826001,0.106088 1.8943111,0.978062 3.0400281,1.900018 1.145718,0.921956 2.517504,1.9251 4.20927,1.607707 0.857311,-0.160838 1.535367,-0.66114 1.987711,-1.256935 0.452344,-0.595794 0.713404,-1.283717 0.935394,-1.958479 0.05255,-0.159721 0.09989,-0.281912 0.146155,-0.438466 1.494162,0.989643 3.165504,1.76883 4.998508,2.25079 8.935581,2.349471 18.121703,-2.919161 20.49096,-11.78011 2.369262,-8.860941 -2.961454,-17.9661 -11.897034,-20.315574 -0.03491,-0.0092 -0.08201,-0.02028 -0.116924,-0.02923 -1.669205,-0.427677 -3.33119,-0.6035488 -4.969277,-0.526159 z m -3.186184,2.660025 c 0.455755,-0.02874 0.909951,0.01425 1.344628,0.116924 0.0138,0.0033 0.0447,-0.0034 0.05846,0 1.396863,0.343603 2.598611,1.345766 3.156953,2.776949 0.910415,2.333652 -0.248255,4.943402 -2.601563,5.846209 -2.353302,0.902808 -5.023489,-0.238685 -5.933901,-2.572332 -0.910411,-2.333644 0.277492,-4.97263 2.630793,-5.875439 0.447925,-0.17184 0.888874,-0.263566 1.344628,-0.292311 z m 11.897034,3.040029 c 0.342772,0.0028 0.689364,0.03866 1.023087,0.116924 0.01051,0.0024 0.01874,-0.0025 0.02923,0 0.934114,0.225995 1.802001,0.753355 2.455407,1.549245 1.59307,1.940448 1.313715,4.792604 -0.643082,6.372367 -1.956788,1.579762 -4.837762,1.29736 -6.43083,-0.643083 -1.593062,-1.940446 -1.313712,-4.792604 0.643083,-6.372367 0.858891,-0.693396 1.894791,-1.031538 2.923104,-1.023086 z m -18.357094,6.927757 c 0.461328,-0.02517 0.917901,0.01349 1.344628,0.116924 0.02844,0.0069 0.05944,0.02179 0.08769,0.02923 1.862687,0.489716 3.279238,2.111139 3.390801,4.121577 0.138647,2.498418 -1.777504,4.656404 -4.296963,4.793891 -2.519458,0.137488 -4.68448,-1.798547 -4.823122,-4.296964 -0.138648,-2.498409 1.777501,-4.627175 4.296963,-4.764659 z m 10.464713,2.163097 c 0.116936,0.0015 0.232515,0.0044 0.350773,0.02923 0.0267,0.0058 0.06103,0.02223 0.08769,0.02923 0.975601,0.256524 1.544847,1.254108 1.286166,2.221559 -0.258674,0.967447 -1.245967,1.542684 -2.22156,1.286166 -0.9756,-0.256518 -1.574075,-1.254114 -1.315396,-2.221559 0.219296,-0.820157 0.993772,-1.355298 1.812324,-1.344628 z m 8.213923,2.776949 c 0.463322,-0.03161 0.943335,0.0057 1.40309,0.116924 0.02919,0.007 0.05859,-0.0077 0.08769,0 0.452104,0.118887 0.872152,0.319524 1.286166,0.584621 2.119782,1.357305 2.742602,4.15337 1.373859,6.255443 -1.368734,2.102076 -4.194131,2.731164 -6.313905,1.373859 -2.119782,-1.357304 -2.742597,-4.182603 -1.373859,-6.284674 0.813148,-1.248813 2.146989,-1.951353 3.536956,-2.046173 z m -10.66933,4.267732 c 0.299163,0.01208 0.604695,0.0437 0.906162,0.116924 0.0095,0.0023 0.01978,-0.0023 0.02923,0 0.01906,0.0048 0.03941,0.02423 0.05846,0.02923 2.438988,0.641296 3.891347,3.135271 3.244646,5.553898 -0.646693,2.418617 -3.173367,3.856713 -5.61236,3.215415 -2.438998,-0.641299 -3.891345,-3.135278 -3.244646,-5.553898 0.559245,-2.091556 2.524364,-3.446178 4.618505,-3.36157 z" />
</defs>
<acyl-settings>
<linearGradient
     id="linearGradient4321">
    <stop
       style="stop-color:#FF6100;stop-opacity:1.0;"
       offset="0.0"
       id="stop1" />
  </linearGradient>
<linearGradient
     inkscape:collect="always"
     xlink:href="#linearGradient4321"
     id="acyl_gradient"
     x1="50.0%"
     y1="0.0%"
     x2="50.0%"
     y2="100.0%" />
<filter id="filter1111" x="-50%" y="-50%" width="200%" height="200%">
	<feImage
	id="feImage2"
	xlink:href="#1"
	result="result1" />
	<feComposite
	id="feComposite3633"
	in="result1"
	in2="SourceAlpha"
	operator="out" />
</filter>
<defs>
<use id="1" transform="translate(22.5,22.5) scale(1) translate(-22.5,-22.5)" style="stroke-opacity:1;stroke:url(#acyl_gradient);stroke-width:4" xlink:href="#path-main" />
</defs>
<use id="2" transform="translate(22.5,22.5) scale(1) translate(-22.5,-22.5)" style="fill:url(#acyl_gradient);filter:url(#filter1111)" xlink:href="#path-main" />
</acyl-settings>
</svg>
