<svg xmlns="http://www.w3.org/2000/svg" width="48" height="48">
<defs>
<defs
     id="defs2385" />
  <g
     id="layer1">
    <path
       d="M 15.21875,3.65625 C 13.051917,3.3986366 11.140761,3.4660002 9.5625,3.6875 C 7.9577565,3.8524315 6.3960634,4.2449216 5.1484375,4.6171875 C 3.9008116,4.9894535 3.4908222,5.8860756 3.5,6.65625 C 3.6874577,17.255324 3.5983426,34.964588 3.7607233,36.833566 C 3.9269146,38.746402 4.464427,39.516701 5.0114066,39.730463 C 5.7217878,40.048702 6.1923374,39.665118 6.8125,39.4375 C 7.7851945,39.014905 13.633423,36.796404 22.125,40.375 C 27.121017,42.480462 31.107843,43.871463 34.59375,44.34375 C 37.760588,44.772808 40.706811,43.900204 42.482614,43.022422 C 44.258417,42.14464 44.513905,41.926009 44.5,40.84375 L 44.3125,26.25 C 44.312872,26.229168 44.312872,26.208332 44.3125,26.1875 C 44.35,25.980854 44.35,25.769146 44.3125,25.5625 L 44.125,9.6875 C 44.117615,9.0461594 43.760014,8.4602322 43.193009,8.1604364 C 42.626004,7.8606406 41.940433,7.8950058 41.40625,8.25 C 39.227799,9.7254397 36.829995,9.7157652 34.3125,9.46875 C 31.234173,9.016726 27.31947,7.6824032 22.4375,5.625 C 19.818101,4.5211097 17.385583,3.9138634 15.21875,3.65625 z M 14.8125,7.125 C 16.660913,7.3444157 18.773808,7.8660596 21.09375,8.84375 C 21.241518,8.9060237 21.353741,8.9388922 21.5,9 L 21.6875,21.09375 C 15.155851,18.790756 9.9645833,19.639869 7.15625,20.46875 L 7,7.90625 C 7.6445664,7.6578581 8.6024467,7.3611601 10.0625,7.15625 C 11.36823,6.9729984 12.964087,6.9055843 14.8125,7.125 z M 25.03125,10.34375 C 28.26357,11.561215 31.231844,12.527304 33.8125,12.90625 C 36.312752,13.273389 38.600401,13.156046 40.65625,12.46875 L 40.8125,24.8125 C 39.203103,25.664941 37.461532,25.980528 34.90625,25.5625 C 32.39766,25.15211 29.078949,23.979444 25.1875,22.40625 L 25.03125,10.34375 z M 10.6875,23.125 C 13.353609,22.772322 17.147872,22.946333 21.71875,24.84375 L 21.875,36.59375 C 15.398808,34.311903 10.202564,34.977193 7.34375,35.71875 L 7.21875,24.03125 C 7.8799394,23.753898 8.9141103,23.359588 10.6875,23.125 z M 25.25,26.1875 C 28.637518,27.515017 31.689009,28.570813 34.3125,29 C 36.669132,29.385531 38.865634,29.282946 40.84375,28.65625 L 41,39.9375 C 39.359261,40.836985 37.605784,41.219576 35.0625,40.875 C 32.579863,40.53864 29.289283,39.426353 25.40625,37.875 L 25.25,26.1875 z"
       id="path-main"
        />
  </g>
</defs>
<acyl-settings>
<linearGradient
     id="linearGradient4321">
    <stop
       style="stop-color:#FF6100;stop-opacity:1.0;"
       offset="0.0"
       id="stop1" />
  </linearGradient>
<linearGradient
     inkscape:collect="always"
     xlink:href="#linearGradient4321"
     id="acyl_gradient"
     x1="50.0%"
     y1="0.0%"
     x2="50.0%"
     y2="100.0%" />
<filter id="filter1111" x="-50%" y="-50%" width="200%" height="200%">
	<feImage
	id="feImage2"
	xlink:href="#1"
	result="result1" />
	<feComposite
	id="feComposite3633"
	in="result1"
	in2="SourceAlpha"
	operator="out" />
</filter>
<defs>
<use id="1" transform="translate(22.5,22.5) scale(1) translate(-22.5,-22.5)" style="stroke-opacity:1;stroke:url(#acyl_gradient);stroke-width:4" xlink:href="#path-main" />
</defs>
<use id="2" transform="translate(22.5,22.5) scale(1) translate(-22.5,-22.5)" style="fill:url(#acyl_gradient);filter:url(#filter1111)" xlink:href="#path-main" />
</acyl-settings>
</svg>
