<svg xmlns="http://www.w3.org/2000/svg" width="48" height="48">
<defs>
<defs
     id="defs2385">
  </defs>
  <path
     id="path-main"
     d="m 23.1875,2.3696795 c -4.483799,0.022194 -8.046813,1.6083811 -10.75,4.09375 -2.7031866,2.4853689 -4.5815698,5.8485485 -5.875,9.4999995 -2.5868604,7.302902 -2.8151699,15.7118 -2.375,20.53125 0.2230921,2.442649 0.9005707,4.589579 1.875,6.21875 0.9744293,1.629171 2.2381219,2.771142 3.625,3.15625 1.386878,0.385108 2.880902,-0.07715 4.03125,-1.46875 0.964595,-1.166891 1.677376,-3.135858 2.1875,-5.65625 1.741349,3.509916 4.176855,6.415845 6.96875,7.09375 1.562131,0.379304 3.229031,-0.02007 4.6875,-1.34375 1.268978,-1.151698 2.378814,-3.14018 3.375,-5.8125 0.534952,1.231702 1.264525,2.493555 2.21875,3.625 1.238913,1.469006 2.705426,2.691875 4.25,3.21875 1.544574,0.526875 3.229337,0.233484 4.40625,-1.28125 1.176913,-1.514734 1.916989,-4.099769 2.09375,-8.28125 0.350869,-8.300207 -0.318105,-16.663336 -3.34375,-23 C 37.536855,6.6267651 32.084954,2.3256397 23.1875,2.3696795 z M 15.21875,13.807179 c 3.480078,0 6.21875,3.362765 6.21875,7.40625 -1e-6,4.043484 -2.738673,7.4375 -6.21875,7.4375 -3.480077,0 -6.21875,-3.394015 -6.21875,-7.4375 3e-7,-4.043486 2.738673,-7.40625 6.21875,-7.40625 z m 15.21875,0.15625 c 3.480077,0 6.21875,3.394014 6.21875,7.4375 -2e-6,4.043484 -2.738673,7.40625 -6.21875,7.40625 -3.480078,10e-7 -6.21875,-3.362765 -6.21875,-7.40625 0,-4.043486 2.738673,-7.4375 6.21875,-7.4375 z m -13.65625,4.09375 c -1.29063,0 -2.3125,1.501914 -2.3125,3.34375 0,1.841836 1.021869,3.343751 2.3125,3.34375 1.29063,0 2.34375,-1.501913 2.34375,-3.34375 0,-1.841836 -1.053121,-3.343751 -2.34375,-3.34375 z m 15.09375,0.1875 c -1.29063,0 -2.343751,1.501913 -2.34375,3.34375 0,1.841836 1.05312,3.312499 2.34375,3.3125 1.29063,0 2.343749,-1.470664 2.34375,-3.3125 0,-1.841836 -1.05312,-3.34375 -2.34375,-3.34375 z" />
</defs>
<acyl-settings>
<linearGradient
     id="linearGradient4321">
    <stop
       style="stop-color:#FF6100;stop-opacity:1.0;"
       offset="0.0"
       id="stop1" />
  </linearGradient>
<linearGradient
     inkscape:collect="always"
     xlink:href="#linearGradient4321"
     id="acyl_gradient"
     x1="50.0%"
     y1="0.0%"
     x2="50.0%"
     y2="100.0%" />
<filter id="filter1111" x="-50%" y="-50%" width="200%" height="200%">
	<feImage
	id="feImage2"
	xlink:href="#1"
	result="result1" />
	<feComposite
	id="feComposite3633"
	in="result1"
	in2="SourceAlpha"
	operator="out" />
</filter>
<defs>
<use id="1" transform="translate(22.5,22.5) scale(1) translate(-22.5,-22.5)" style="stroke-opacity:1;stroke:url(#acyl_gradient);stroke-width:4" xlink:href="#path-main" />
</defs>
<use id="2" transform="translate(22.5,22.5) scale(1) translate(-22.5,-22.5)" style="fill:url(#acyl_gradient);filter:url(#filter1111)" xlink:href="#path-main" />
</acyl-settings>
</svg>
