<svg xmlns="http://www.w3.org/2000/svg" width="48" height="48">
<defs>
  <path
     d="M 10.21875 3 C 8.9852537 3 8 4.0435306 8 5.3125 L 8 42.71875 C 8 43.98772 8.9852537 45 10.21875 45 L 37.71875 45 C 38.952243 45 39.96875 43.98772 39.96875 42.71875 L 40 14.125 L 29.15625 3 L 10.21875 3 z M 10.8125 8.625 L 30.4375 8.625 L 30.96875 14.875 L 30.21875 14.875 C 30.12865 13.636843 29.91005 12.712265 29.5625 12.0625 C 29.215006 11.41279 28.761191 10.931465 28.15625 10.625 C 27.55131 10.318534 26.594098 10.175259 25.28125 10.1875 L 16.34375 10.1875 L 24.3125 19.90625 L 15.21875 30.125 L 25.1875 30.125 C 26.989458 30.125 28.360065 29.864172 29.3125 29.3125 C 30.26499 28.760885 30.961255 27.596746 31.4375 25.84375 L 32.1875 26 L 31.0625 33.53125 L 10.8125 33.53125 L 10.8125 32.875 L 20.875 21.5625 L 10.8125 9.28125 L 10.8125 8.625 z M 28 38.78125 C 28.613278 38.781254 29.101559 38.962895 29.46875 39.375 C 29.835933 39.78516 30.031246 40.339847 30.03125 41.03125 C 30.031246 41.720705 29.835933 42.275392 29.46875 42.6875 C 29.101559 43.097656 28.613278 43.3125 28 43.3125 C 27.384764 43.3125 26.900389 43.097656 26.53125 42.6875 C 26.164062 42.277345 25.96875 41.722658 25.96875 41.03125 C 25.96875 40.339847 26.164062 39.78516 26.53125 39.375 C 26.900389 38.962895 27.384764 38.781254 28 38.78125 z M 30.96875 38.84375 L 32.15625 38.84375 C 33.003904 38.843754 33.634762 39.021489 34.03125 39.375 C 34.42773 39.726566 34.624996 40.281253 34.625 41.03125 C 34.624996 41.785158 34.429683 42.333985 34.03125 42.6875 C 33.632809 43.041016 32.999997 43.21875 32.15625 43.21875 L 30.96875 43.21875 L 30.96875 38.84375 z M 35.5625 38.84375 L 38.09375 38.84375 L 38.09375 39.34375 L 36.15625 39.34375 L 36.15625 40.625 L 37.90625 40.625 L 37.90625 41.125 L 36.15625 41.125 L 36.15625 43.21875 L 35.5625 43.21875 L 35.5625 38.84375 z M 28 39.25 C 27.570311 39.250004 27.222655 39.398441 26.96875 39.71875 C 26.716796 40.039066 26.593749 40.478518 26.59375 41.03125 C 26.593749 41.582033 26.716796 42.023439 26.96875 42.34375 C 27.222655 42.664063 27.570311 42.8125 28 42.8125 C 28.429685 42.8125 28.781247 42.664063 29.03125 42.34375 C 29.283199 42.023439 29.406246 41.582033 29.40625 41.03125 C 29.406246 40.478518 29.283199 40.039066 29.03125 39.71875 C 28.781247 39.398441 28.429685 39.250004 28 39.25 z M 31.5625 39.34375 L 31.5625 42.75 L 32.25 42.75 C 32.853513 42.75 33.31445 42.585938 33.59375 42.3125 C 33.874996 42.039064 33.999996 41.621095 34 41.03125 C 33.999996 40.445315 33.874996 40.021488 33.59375 39.75 C 33.31445 39.476566 32.853513 39.343754 32.25 39.34375 L 31.5625 39.34375 z "
     id="path-main" />
</defs>
<acyl-settings>
<linearGradient
     id="linearGradient4321">
    <stop
       style="stop-color:#FF6100;stop-opacity:1.0;"
       offset="0.0"
       id="stop1" />
  </linearGradient>
<linearGradient
     inkscape:collect="always"
     xlink:href="#linearGradient4321"
     id="acyl_gradient"
     x1="50.0%"
     y1="0.0%"
     x2="50.0%"
     y2="100.0%" />
<filter id="filter1111" x="-50%" y="-50%" width="200%" height="200%">
	<feImage
	id="feImage2"
	xlink:href="#1"
	result="result1" />
	<feComposite
	id="feComposite3633"
	in="result1"
	in2="SourceAlpha"
	operator="out" />
</filter>
<defs>
<use id="1" transform="translate(22.5,22.5) scale(1) translate(-22.5,-22.5)" style="stroke-opacity:1;stroke:url(#acyl_gradient);stroke-width:4" xlink:href="#path-main" />
</defs>
<use id="2" transform="translate(22.5,22.5) scale(1) translate(-22.5,-22.5)" style="fill:url(#acyl_gradient);filter:url(#filter1111)" xlink:href="#path-main" />
</acyl-settings>
</svg>
