<svg xmlns="http://www.w3.org/2000/svg" width="48" height="48">
<defs>
<defs
     id="defs4">
  </defs>
  <path
     id="path-main"
     d="M 9.918796,1.9999997 C 8.5891128,1.9999997 7.514,3.0751149 7.514,4.4047952 l 0,39.2059238 C 7.514,44.940401 8.5891128,46 9.918796,46 l 29.648801,0 c 1.329681,0 2.404795,-1.059599 2.404795,-2.389281 L 42.018942,13.636107 30.33629,1.9999997 l -20.417489,0 z m 8.874471,4.5148096 c 0.0092,-3.425e-4 0.02168,5.91e-5 0.03103,0 l 2.373766,0 c 0.482194,0 0.762516,0.4720638 0.868829,0.8688294 l 0.387871,1.6445698 c 0.460157,0.1447053 0.913267,0.3228416 1.334273,0.5430183 l 1.427363,-0.8843441 c 0.439505,-0.2537493 0.900219,-0.3409634 1.241185,0 l 1.675599,1.6755993 c 0.340962,0.340965 0.205379,0.869942 0,1.22567 l -0.899859,1.442877 c 0.220271,0.421188 0.4138,0.858384 0.558533,1.318759 l 1.64457,0.38787 c 0.490207,0.13135 0.868829,0.402151 0.868829,0.884345 l 0,2.373765 c 0,0.482195 -0.472062,0.762517 -0.868829,0.86883 l -1.64457,0.38787 c -0.143655,0.456824 -0.324953,0.88498 -0.543018,1.303244 l 0.884344,1.442877 c 0.20538,0.35573 0.34096,0.884706 0,1.22567 l -1.675599,1.6756 c -0.340966,0.340965 -0.801676,0.253749 -1.241185,0 l -1.427363,-0.884344 c -0.425257,0.223456 -0.868932,0.412212 -1.334273,0.558533 l -0.387871,1.64457 c -0.106313,0.396765 -0.386636,0.868827 -0.868829,0.868829 l -2.373766,0 c -0.482193,0 -0.737476,-0.378624 -0.868829,-0.868829 l -0.38787,-1.64457 C 17.107373,24.429337 16.6699,24.251234 16.248838,24.031029 l -1.442877,0.884345 c -0.355729,0.205383 -0.884706,0.340963 -1.22567,0 l -1.691115,-1.6756 c -0.340962,-0.340964 -0.253748,-0.786161 0,-1.22567 l 0.899859,-1.442877 C 12.568828,20.150165 12.39073,19.712692 12.246017,19.252468 l -1.660085,-0.38787 C 10.189168,18.758285 9.717104,18.477964 9.717103,17.995768 l 0,-2.373765 c 0,-0.482194 0.378623,-0.752995 0.868829,-0.884345 l 1.660085,-0.38787 c 0.14573,-0.463585 0.320719,-0.894932 0.543018,-1.318759 l -0.899859,-1.458392 c -0.253748,-0.439507 -0.340963,-0.884707 0,-1.22567 l 1.691115,-1.6755991 c 0.340965,-0.3409629 0.869942,-0.2053824 1.22567,0 l 1.458392,0.8998589 C 16.681,9.3543998 17.112737,9.1712456 17.567597,9.0282085 l 0.38787,-1.6445698 c 0.128282,-0.4787548 0.37708,-0.8516072 0.8378,-0.8688294 z m 1.132581,6.1283497 c -2.258391,0.04296 -4.06488,1.889363 -4.06488,4.157969 0,2.295505 1.862459,4.15797 4.157969,4.157969 2.295504,0 4.157969,-1.862463 4.157969,-4.157969 0,-2.295508 -1.862466,-4.15797 -4.157969,-4.157969 -0.0269,0 -0.06631,-4.96e-4 -0.09309,0 z m -8.96756,16.026799 11.155148,6.438646 -11.155148,6.45416 0,-12.892806 z m 27.957687,10.410437 c 0.25987,4e-6 0.50035,0.03879 0.729196,0.108604 0.230779,0.06788 0.449926,0.172606 0.651622,0.310296 l 0,0.620592 c -0.197818,-0.184235 -0.411146,-0.327747 -0.636107,-0.4189 -0.223029,-0.09114 -0.461569,-0.139629 -0.713682,-0.139633 -0.496475,4e-6 -0.884345,0.16097 -1.148095,0.465444 -0.263753,0.302542 -0.387872,0.729199 -0.387871,1.303244 -10e-7,0.572112 0.124118,1.014282 0.387871,1.318759 0.26375,0.302541 0.65162,0.44993 1.148095,0.44993 0.252113,0 0.490653,-0.03297 0.713682,-0.124119 0.224961,-0.09115 0.438289,-0.234658 0.636107,-0.4189 l 0,0.620593 c -0.205575,0.139633 -0.420843,0.240482 -0.651622,0.310296 -0.228846,0.06981 -0.473204,0.108603 -0.729196,0.108603 -0.657442,0 -1.173309,-0.203633 -1.551481,-0.605077 -0.378174,-0.403385 -0.574049,-0.963855 -0.574048,-1.660085 -1e-6,-0.698163 0.195874,-1.24312 0.574048,-1.64457 0.378172,-0.40338 0.894039,-0.605073 1.551481,-0.605077 z m -13.497885,0.07757 2.746122,0 0,0.496474 -2.156559,0 0,1.287729 2.06347,0 0,0.496474 -2.06347,0 0,1.566996 2.203103,0 0,0.496474 -2.792666,0 0,-4.344147 z m 3.552892,0 0.636107,0 1.086037,1.61354 1.086036,-1.61354 0.620593,0 -1.396333,2.094499 1.489422,2.249648 -0.620593,0 -1.22567,-1.846263 -1.241185,1.846263 -0.620592,0 1.551481,-2.311707 -1.365303,-2.03244 z m 4.297602,0 2.746121,0 0,0.496474 -2.156558,0 0,1.287729 2.06347,0 0,0.496474 -2.06347,0 0,1.566996 2.203103,0 0,0.496474 -2.792666,0 0,-4.344147 z" />
</defs>
<acyl-settings>
<linearGradient
     id="linearGradient4321">
    <stop
       style="stop-color:#FF6100;stop-opacity:1.0;"
       offset="0.0"
       id="stop1" />
  </linearGradient>
<linearGradient
     inkscape:collect="always"
     xlink:href="#linearGradient4321"
     id="acyl_gradient"
     x1="50.0%"
     y1="0.0%"
     x2="50.0%"
     y2="100.0%" />
<filter id="filter1111" x="-50%" y="-50%" width="200%" height="200%">
	<feImage
	id="feImage2"
	xlink:href="#1"
	result="result1" />
	<feComposite
	id="feComposite3633"
	in="result1"
	in2="SourceAlpha"
	operator="out" />
</filter>
<defs>
<use id="1" transform="translate(22.5,22.5) scale(1) translate(-22.5,-22.5)" style="stroke-opacity:1;stroke:url(#acyl_gradient);stroke-width:4" xlink:href="#path-main" />
</defs>
<use id="2" transform="translate(22.5,22.5) scale(1) translate(-22.5,-22.5)" style="fill:url(#acyl_gradient);filter:url(#filter1111)" xlink:href="#path-main" />
</acyl-settings>
</svg>
