<svg xmlns="http://www.w3.org/2000/svg" width="48" height="48">
<defs>
  <path
     d="m 31.677939,2.3040983 c -5.419095,-0.00628 -11.337751,0.00531 -13.379399,0.030408 -2.226717,0.027367 -3.420663,1.4537283 -3.953004,2.7975106 -0.532342,1.3437825 -0.516931,2.6758798 -0.516931,2.6758798 0.0161,0.2567456 0.229274,0.4565946 0.486523,0.4561158 l 22.653755,0 0,2.0069095 -2.797511,0 c -0.268688,2.8e-5 -0.486496,0.217835 -0.486524,0.486524 l 0,1.915686 c 2.8e-5,0.268689 0.217836,0.486497 0.486524,0.486524 l 2.797511,0 0,0.881824 -2.797511,0 c -0.268688,2.7e-5 -0.486496,0.217835 -0.486524,0.486524 l 0,1.702832 c 2.8e-5,0.268689 0.217836,0.486497 0.486524,0.486524 l 2.797511,0 0,1.06427 -2.797511,0 c -0.268688,2.7e-5 -0.486496,0.217835 -0.486524,0.486524 l 0,1.794055 c 2.8e-5,0.268689 0.217836,0.486497 0.486524,0.486524 l 2.797511,0 0,0.912232 -2.797511,0 c -0.268688,2.7e-5 -0.486496,0.217835 -0.486524,0.486523 l 0,1.733241 c 2.8e-5,0.268688 0.217836,0.486496 0.486524,0.486523 l 2.797511,0 0,1.003455 -2.797511,0 c -0.268688,2.7e-5 -0.486496,0.217835 -0.486524,0.486524 l 0,1.854871 c 2.8e-5,0.268688 0.217836,0.486496 0.486524,0.486523 l 2.797511,0 0,0.94264 -2.797511,0 c -0.268688,2.7e-5 -0.486496,0.217835 -0.486524,0.486523 l 0,1.794056 c 2.8e-5,0.268689 0.217836,0.486496 0.486524,0.486524 l 2.797511,0 0,0.851416 -2.797511,0 c -0.268688,2.7e-5 -0.486496,0.217835 -0.486524,0.486524 l 0,1.73324 c 2.8e-5,0.268688 0.217836,0.486496 0.486524,0.486523 l 2.797511,0 0,1.550794 c -0.436015,-0.0038 -4.870999,-0.0395 -10.125772,-0.06082 -5.507248,-0.02234 -11.381377,-0.03183 -13.10573,0.06082 -0.245452,0.01494 -0.441177,0.210664 -0.456115,0.456116 -0.152088,2.273929 0.755615,3.771299 1.702832,4.621974 0.947218,0.850675 1.946094,1.094678 1.946094,1.094678 0.03906,0.01534 0.07995,0.02556 0.121631,0.03041 l 19.91706,0 0,2.493433 c 2.7e-5,0.268689 0.217835,0.486497 0.486523,0.486524 l 3.405665,0 c 0.268689,-2.7e-5 0.486497,-0.217835 0.486524,-0.486524 l 0,-2.584656 c 2.195031,-0.255824 3.467048,-1.590917 4.044227,-2.888734 0.621652,-1.397815 0.608155,-2.736695 0.608155,-2.736695 -2.8e-5,-0.268689 -0.217835,-0.486496 -0.486524,-0.486524 l -4.165858,0 0,-1.550794 2.827918,0 c 0.268689,-2.7e-5 0.486497,-0.217835 0.486524,-0.486523 l 0,-1.73324 c -2.7e-5,-0.268689 -0.217835,-0.486497 -0.486524,-0.486524 l -2.827918,0 0,-0.851416 2.827918,0 c 0.268689,-2.8e-5 0.486497,-0.217835 0.486524,-0.486524 l 0,-1.794056 c -2.7e-5,-0.268688 -0.217835,-0.486496 -0.486524,-0.486523 l -2.827918,0 0,-0.94264 2.827918,0 c 0.268689,-2.7e-5 0.486497,-0.217835 0.486524,-0.486523 l 0,-1.854871 c -2.7e-5,-0.268689 -0.217835,-0.486497 -0.486524,-0.486524 l -2.827918,0 0,-1.003455 2.827918,0 c 0.268689,-2.7e-5 0.486497,-0.217835 0.486524,-0.486523 l 0,-1.733241 c -2.7e-5,-0.268688 -0.217835,-0.486496 -0.486524,-0.486523 l -2.827918,0 0,-0.912232 2.827918,0 c 0.268689,-2.7e-5 0.486497,-0.217835 0.486524,-0.486524 l 0,-1.794055 c -2.7e-5,-0.268689 -0.217835,-0.486497 -0.486524,-0.486524 l -2.827918,0 0,-1.06427 2.827918,0 c 0.268689,-2.7e-5 0.486497,-0.217835 0.486524,-0.486524 l 0,-1.702832 c -2.7e-5,-0.268689 -0.217835,-0.486497 -0.486524,-0.486524 l -2.827918,0 0,-0.881824 2.827918,0 c 0.268689,-2.7e-5 0.486497,-0.217835 0.486524,-0.486524 l 0,-1.915686 c -2.7e-5,-0.268689 -0.217835,-0.486496 -0.486524,-0.486524 l -2.827918,0 0,-2.0069095 4.105043,0 c 0.257249,4.788e-4 0.470421,-0.1993702 0.486523,-0.4561158 0.05691,-2.4008024 -0.875726,-3.8340943 -1.854871,-4.5915664 -0.979145,-0.7574721 -2.00691,-0.881824 -2.00691,-0.881824 -0.02025,-0.00126 -0.04057,-0.00126 -0.06081,0 0,0 -4.919532,-0.024134 -10.338626,-0.030408 z M 6.5003432,9.5411367 c -0.7133893,0 -1.1977827,0.22519 -1.5203862,1.4291633 C 4.4502406,12.367541 4.0230646,13.800688 3.5812016,15.227381 2.8114308,17.742014 2.0090889,20.638963 2,22.555643 c 0.09634,3.676223 2.076048,9.176223 2.4934334,10.733926 0.4099184,1.529837 0.9279022,2.310987 1.8852789,2.310987 l 22.3496767,0.06082 c 0.326819,8.89e-4 0.598085,-0.08573 0.881824,-0.304077 0.287965,-0.221593 0.35242,-0.26835 0.638563,-1.125086 0.286143,-0.856736 0.881936,-2.794505 1.307532,-4.196266 0.71836,-2.48529 1.450525,-5.390451 1.45957,-7.297854 0.0091,-1.907403 -0.704402,-4.8222 -1.398755,-7.358669 C 31.269947,14.111189 30.934528,12.949959 30.674484,12.09539 30.490114,11.50477 30.390633,10.931618 30.096737,10.331742 29.802841,9.7318647 29.409563,9.6019557 28.85002,9.6019557 L 6.5003432,9.5411367 z m -2.2197639,8.2709013 3.0407724,0 c 1.135216,10e-6 1.9955005,0.255308 2.5542488,0.729785 0.5587345,0.474496 0.8210005,1.201113 0.8210085,2.158949 -8e-6,0.625265 -0.133042,1.138395 -0.425708,1.550794 -0.2882468,0.412409 -0.7228236,0.69178 -1.2771245,0.851416 0.2882333,0.09756 0.5809076,0.319285 0.8514163,0.638562 0.2749282,0.319285 0.5460642,0.748794 0.8210082,1.307532 l 1.368348,2.706288 -1.459571,0 -1.2771242,-2.554249 C 8.9696975,24.535949 8.6656207,24.110875 8.3552143,23.893583 8.0492313,23.676298 7.6406281,23.559102 7.1084976,23.559098 l -1.4899784,0 0,4.196266 -1.3379399,0 0,-9.943326 z m 9.4872097,0 3.040773,0 c 1.113044,10e-6 1.925816,0.254675 2.493433,0.760193 0.572039,0.501103 0.881816,1.248625 0.881824,2.219764 -7e-6,0.980022 -0.309786,1.718675 -0.881824,2.219764 -0.567616,0.501098 -1.380389,0.760197 -2.493433,0.760193 l -1.702833,0 0,3.983412 -1.33794,0 0,-9.943326 z m 8.210086,0 2.006909,0 2.523842,6.780922 2.554248,-6.780922 2.00691,0 0,9.943326 -1.307532,0 0,-8.727017 -2.554249,6.81133 -1.368347,0 -2.554249,-6.81133 0,8.727017 -1.307532,0 0,-9.943326 z m -16.3593558,1.125086 0,3.527296 1.7028325,0 c 0.6474259,4e-6 1.1314153,-0.159002 1.4595708,-0.456116 0.332578,-0.301538 0.5169249,-0.726612 0.5169313,-1.307532 -6.6e-6,-0.580907 -0.1843531,-1.045257 -0.5169313,-1.33794 -0.3281558,-0.297101 -0.8121447,-0.4257 -1.4595708,-0.425708 l -1.7028325,0 z m 9.4872098,0 0,3.74015 1.702833,0 c 0.625254,5e-6 1.087704,-0.162803 1.429163,-0.486524 0.341448,-0.323709 0.516924,-0.800097 0.516931,-1.398755 -6e-6,-0.59421 -0.175484,-1.044624 -0.516931,-1.368348 -0.341458,-0.323706 -0.80391,-0.486515 -1.429163,-0.486523 l -1.702833,0 z"
     id="path-main"
      />
</defs>
<acyl-settings>
<linearGradient
     id="linearGradient4321">
    <stop
       style="stop-color:#FF6100;stop-opacity:1.0;"
       offset="0.0"
       id="stop1" />
  </linearGradient>
<linearGradient
     inkscape:collect="always"
     xlink:href="#linearGradient4321"
     id="acyl_gradient"
     x1="50.0%"
     y1="0.0%"
     x2="50.0%"
     y2="100.0%" />
<filter id="filter1111" x="-50%" y="-50%" width="200%" height="200%">
	<feImage
	id="feImage2"
	xlink:href="#1"
	result="result1" />
	<feComposite
	id="feComposite3633"
	in="result1"
	in2="SourceAlpha"
	operator="out" />
</filter>
<defs>
<use id="1" transform="translate(22.5,22.5) scale(1) translate(-22.5,-22.5)" style="stroke-opacity:1;stroke:url(#acyl_gradient);stroke-width:4" xlink:href="#path-main" />
</defs>
<use id="2" transform="translate(22.5,22.5) scale(1) translate(-22.5,-22.5)" style="fill:url(#acyl_gradient);filter:url(#filter1111)" xlink:href="#path-main" />
</acyl-settings>
</svg>
