<svg xmlns="http://www.w3.org/2000/svg" width="48" height="48">
<defs>
  <path
     d="M 5.933641,16.681954 C 3.747827,16.681954 2,18.443299 2,20.629112 l 0,8.97573 C 2,31.790655 3.747827,33.552 5.933641,33.552 l 36.119201,0 C 44.238655,33.552 46,31.790655 46,29.604842 l 0,-8.97573 c 0,-2.185813 -1.761345,-3.947158 -3.947158,-3.947158 l -36.119201,0 z m 12.706605,5.90722 10.719508,0 c 1.648863,0 2.973887,1.13173 2.973887,2.527803 0,1.396073 -1.325024,2.514286 -2.973887,2.514286 l -10.719508,0 c -1.648863,0 -2.973887,-1.118213 -2.973887,-2.514286 0,-1.396073 1.325024,-2.527803 2.973887,-2.527803 z"
     id="path-main"
      />
</defs>
<acyl-settings>
<linearGradient
     id="linearGradient4321">
    <stop
       style="stop-color:#FF6100;stop-opacity:1.0;"
       offset="0.0"
       id="stop1" />
  </linearGradient>
<linearGradient
     inkscape:collect="always"
     xlink:href="#linearGradient4321"
     id="acyl_gradient"
     x1="50.0%"
     y1="0.0%"
     x2="50.0%"
     y2="100.0%" />
<filter id="filter1111" x="-50%" y="-50%" width="200%" height="200%">
	<feImage
	id="feImage2"
	xlink:href="#1"
	result="result1" />
	<feComposite
	id="feComposite3633"
	in="result1"
	in2="SourceAlpha"
	operator="out" />
</filter>
<defs>
<use id="1" transform="translate(22.5,22.5) scale(1) translate(-22.5,-22.5)" style="stroke-opacity:1;stroke:url(#acyl_gradient);stroke-width:4" xlink:href="#path-main" />
</defs>
<use id="2" transform="translate(22.5,22.5) scale(1) translate(-22.5,-22.5)" style="fill:url(#acyl_gradient);filter:url(#filter1111)" xlink:href="#path-main" />
</acyl-settings>
</svg>
