<svg xmlns="http://www.w3.org/2000/svg" width="48" height="48">
<defs>
<defs
     id="defs3">
  </defs>
  <path
     id="path-main"
     d="m 16.988893,5.2294982 c -0.845823,0 -1.852644,0.2344076 -2.545824,0.9725617 -0.69318,0.738154 -0.858142,1.6617332 -0.858142,2.4600091 l 0,7.952122 -8.9532894,0 c -0.8199316,0 -1.6671118,0.352509 -2.116752,1.001167 C 2.0652454,18.264016 2,18.97426 2,19.6749 l 0,17.391693 c 1.2e-6,0.700639 0.060717,1.417396 0.5720951,2.030937 0.5113779,0.613542 1.3124319,0.829539 2.0595425,0.829538 l 3.1179185,0 c 0.056193,0.868371 0.087814,1.65374 -0.2002333,2.488614 l -0.8581427,2.517219 2.4027996,-1.115586 c 1.9494543,-0.885684 3.3861143,-2.598104 4.3765273,-3.890247 l 16.647969,0 c 0.747111,0 1.559421,-0.206202 2.059542,-0.829538 0.500122,-0.623335 0.572096,-1.341285 0.572096,-2.030937 l 0,-7.837704 0.6007,0 c 0.779644,1.013799 1.847672,2.318004 4.262108,3.54699 l 4.69118,2.4028 -2.202566,-4.776995 c -0.03097,-0.0673 0.125071,-0.754693 0.171629,-1.172795 l 2.660242,0 c 0.397321,0 0.799731,-0.01292 1.258609,-0.171628 0.458878,-0.1587 0.980285,-0.526243 1.287214,-0.972562 0.613859,-0.89264 0.514884,-1.591348 0.514886,-2.202566 l 0,-17.220064 c 0,-0.713891 -0.03954,-1.5765679 -0.715119,-2.3741948 C 44.603422,5.4902472 43.574011,5.2867077 42.761779,5.2867077 L 16.988893,5.2294982 z m 0.257442,3.6614088 25.086372,0.057209 0,16.6193635 -3.632804,0 -1.344424,0 -0.400466,1.315819 c -0.06321,0.213078 -0.122774,0.547289 -0.200233,0.800933 -0.37279,-0.425727 -0.692432,-0.855885 -1.115586,-1.401633 l -0.54349,-0.715119 -0.886748,0 -1.458842,0 0,-6.035603 c 0,-0.709688 -0.100179,-1.441876 -0.6007,-2.059543 -0.500521,-0.617667 -1.31937,-0.858143 -2.088148,-0.858143 l -12.814931,0 0,-7.723284 z" />
</defs>
<acyl-settings>
<linearGradient
     id="linearGradient4321">
    <stop
       style="stop-color:#FF6100;stop-opacity:1.0;"
       offset="0.0"
       id="stop1" />
  </linearGradient>
<linearGradient
     inkscape:collect="always"
     xlink:href="#linearGradient4321"
     id="acyl_gradient"
     x1="50.0%"
     y1="0.0%"
     x2="50.0%"
     y2="100.0%" />
<filter id="filter1111" x="-50%" y="-50%" width="200%" height="200%">
	<feImage
	id="feImage2"
	xlink:href="#1"
	result="result1" />
	<feComposite
	id="feComposite3633"
	in="result1"
	in2="SourceAlpha"
	operator="out" />
</filter>
<defs>
<use id="1" transform="translate(22.5,22.5) scale(1) translate(-22.5,-22.5)" style="stroke-opacity:1;stroke:url(#acyl_gradient);stroke-width:4" xlink:href="#path-main" />
</defs>
<use id="2" transform="translate(22.5,22.5) scale(1) translate(-22.5,-22.5)" style="fill:url(#acyl_gradient);filter:url(#filter1111)" xlink:href="#path-main" />
</acyl-settings>
</svg>
