<svg xmlns="http://www.w3.org/2000/svg" width="48" height="48">
<defs>
  <path
     d="M 2,2 2,6.167969 C 24.023695,6.167969 41.832031,23.976305 41.832031,46 L 46,46 C 46.000001,21.744427 26.255575,2 2,2 z m 1.332031,8.550781 C 2.846102,10.550781 2.392341,10.708872 2,10.9375 l 0,4.554688 c 0.391013,0.220287 0.848525,0.34375 1.332031,0.34375 1.470667,0 2.664063,-1.160419 2.664063,-2.621094 0,-1.460676 -1.193396,-2.664063 -2.664063,-2.664063 z M 24.34375,21.035156 c -1.446844,0 -2.621094,1.203386 -2.621094,2.664063 0,0.214537 0.03813,0.401783 0.08594,0.601562 L 2,36.933594 2,42.390625 c 0.400951,-0.249033 0.868604,-0.386719 1.375,-0.386719 1.446844,2e-6 2.621094,1.17425 2.621094,2.621094 0,0.506396 -0.137686,0.974049 -0.386719,1.375 l 5.457031,0 12.589844,-19.765625 c 0.220582,0.0609 0.447866,0.08594 0.6875,0.08594 1.446844,0 2.621092,-1.160419 2.621094,-2.621094 0,-0.644711 -0.221569,-1.259537 -0.601563,-1.71875 l 0.601563,-0.945312 -0.988282,0.601562 c -0.449557,-0.36572 -1.010948,-0.601562 -1.632812,-0.601562 z m 10.484375,20.925782 c -1.446844,0 -2.621092,1.160418 -2.621094,2.621093 0,0.513988 0.135208,1.00892 0.386719,1.417969 l 4.46875,0 c 0.251509,-0.409049 0.386719,-0.903981 0.386719,-1.417969 0,-1.460676 -1.17425,-2.621093 -2.621094,-2.621093 z"
     id="path-main" />
</defs>
<acyl-settings>
<linearGradient
     id="linearGradient4321">
    <stop
       style="stop-color:#FF6100;stop-opacity:1.0;"
       offset="0.0"
       id="stop1" />
  </linearGradient>
<linearGradient
     inkscape:collect="always"
     xlink:href="#linearGradient4321"
     id="acyl_gradient"
     x1="50.0%"
     y1="0.0%"
     x2="50.0%"
     y2="100.0%" />
<filter id="filter1111" x="-50%" y="-50%" width="200%" height="200%">
	<feImage
	id="feImage2"
	xlink:href="#1"
	result="result1" />
	<feComposite
	id="feComposite3633"
	in="result1"
	in2="SourceAlpha"
	operator="out" />
</filter>
<defs>
<use id="1" transform="translate(22.5,22.5) scale(1) translate(-22.5,-22.5)" style="stroke-opacity:1;stroke:url(#acyl_gradient);stroke-width:4" xlink:href="#path-main" />
</defs>
<use id="2" transform="translate(22.5,22.5) scale(1) translate(-22.5,-22.5)" style="fill:url(#acyl_gradient);filter:url(#filter1111)" xlink:href="#path-main" />
</acyl-settings>
</svg>
