<svg xmlns="http://www.w3.org/2000/svg" width="48" height="48">
<defs>
<defs
     id="defs1380" />
  <path
     d="M 40.4375,2.09375 C 37.432037,2.09375 34.999575,4.5570364 35,7.5625 C 34.999577,10.567963 37.432037,13 40.4375,13 C 43.442963,13 45.906672,10.567963 45.90625,7.5625 C 45.906673,4.5570366 43.442963,2.09375 40.4375,2.09375 z M 29.4375,13.09375 C 26.432037,13.09375 23.999577,15.557036 24,18.5625 C 23.999577,21.567963 26.432037,23.999999 29.4375,24 C 32.442963,24 34.906672,21.567962 34.90625,18.5625 C 34.906673,15.557037 32.442963,13.09375 29.4375,13.09375 z M 40.5625,13.09375 C 37.557037,13.09375 35.093325,15.557036 35.09375,18.5625 C 35.093333,21.526349 37.488809,23.933934 40.4375,24 C 37.432037,24 34.999579,26.432038 35,29.4375 C 34.999577,32.442963 37.432037,34.90625 40.4375,34.90625 C 43.442963,34.90625 45.906671,32.442963 45.90625,29.4375 C 45.906667,26.473651 43.511191,24.066066 40.5625,24 C 43.567963,24 46.000422,21.567962 46,18.5625 C 46.000423,15.557037 43.567963,13.09375 40.5625,13.09375 z M 40.5625,14.125 C 43.015583,14.125 44.969095,16.109417 44.96875,18.5625 C 44.969094,21.015582 43.015583,22.96875 40.5625,22.96875 C 38.109418,22.96875 36.124655,21.015583 36.125,18.5625 C 36.124653,16.109417 38.109417,14.125 40.5625,14.125 z M 7.5625,24.09375 C 4.5570371,24.09375 2.0933272,26.557036 2.09375,29.5625 C 2.093333,32.526349 4.4888093,34.933934 7.4375,35 C 4.4320372,35 1.9995772,37.432036 2,40.4375 C 1.9995771,43.442963 4.4320373,45.906249 7.4375,45.90625 C 10.442963,45.90625 12.906673,43.442962 12.90625,40.4375 C 12.906667,37.473651 10.511192,35.066065 7.5625,35 C 10.567963,35 13.000423,32.567963 13,29.5625 C 13.000423,26.557037 10.567963,24.09375 7.5625,24.09375 z M 18.5625,24.09375 C 15.557037,24.09375 13.093327,26.557036 13.09375,29.5625 C 13.093333,32.526349 15.488809,34.933934 18.4375,35 C 15.432037,35 12.999577,37.432037 13,40.4375 C 12.999577,43.442963 15.432037,45.906251 18.4375,45.90625 C 21.442963,45.90625 23.906674,43.442964 23.90625,40.4375 C 23.906667,37.473651 21.511191,35.066067 18.5625,35 C 21.567963,35 24.000423,32.567963 24,29.5625 C 24.000423,26.557037 21.567963,24.09375 18.5625,24.09375 z M 24,29.5625 C 23.999577,32.567963 26.432037,34.999999 29.4375,35 C 32.442963,35 34.906671,32.567963 34.90625,29.5625 C 34.906673,26.557036 32.442963,24.09375 29.4375,24.09375 C 26.432037,24.09375 23.999577,26.557036 24,29.5625 z M 29.4375,35 C 26.432037,35 23.999577,37.432037 24,40.4375 C 23.999577,43.442963 26.432037,45.906251 29.4375,45.90625 C 32.442963,45.90625 34.906672,43.442964 34.90625,40.4375 C 34.906673,37.432037 32.442963,35.000002 29.4375,35 z M 40.4375,25.03125 C 42.890583,25.03125 44.875345,26.984417 44.875,29.4375 C 44.875343,31.890584 42.890583,33.875 40.4375,33.875 C 37.984417,33.875 36.030905,31.890583 36.03125,29.4375 C 36.030906,26.984417 37.984417,25.03125 40.4375,25.03125 z M 7.5625,25.125 C 10.015583,25.125 11.969095,27.109417 11.96875,29.5625 C 11.969095,32.015582 10.015583,33.96875 7.5625,33.96875 C 5.1094174,33.96875 3.1246549,32.015583 3.125,29.5625 C 3.1246549,27.109416 5.1094173,25.125 7.5625,25.125 z M 29.4375,25.125 C 31.890583,25.125 33.875345,27.109416 33.875,29.5625 C 33.875343,32.015583 31.890583,33.96875 29.4375,33.96875 C 26.984417,33.96875 25.030905,32.015583 25.03125,29.5625 C 25.030904,27.109417 26.984417,25.125 29.4375,25.125 z M 40.4375,35 C 37.432037,35 34.999575,37.432037 35,40.4375 C 34.999577,43.442963 37.432037,45.906251 40.4375,45.90625 C 43.442963,45.90625 45.906672,43.442964 45.90625,40.4375 C 45.906673,37.432037 43.442963,35.000002 40.4375,35 z"
     id="path-main"
      />
</defs>
<acyl-settings>
<linearGradient
     id="linearGradient4321">
    <stop
       style="stop-color:#FF6100;stop-opacity:1.0;"
       offset="0.0"
       id="stop1" />
  </linearGradient>
<linearGradient
     inkscape:collect="always"
     xlink:href="#linearGradient4321"
     id="acyl_gradient"
     x1="50.0%"
     y1="0.0%"
     x2="50.0%"
     y2="100.0%" />
<filter id="filter1111" x="-50%" y="-50%" width="200%" height="200%">
	<feImage
	id="feImage2"
	xlink:href="#1"
	result="result1" />
	<feComposite
	id="feComposite3633"
	in="result1"
	in2="SourceAlpha"
	operator="out" />
</filter>
<defs>
<use id="1" transform="translate(22.5,22.5) scale(1) translate(-22.5,-22.5)" style="stroke-opacity:1;stroke:url(#acyl_gradient);stroke-width:4" xlink:href="#path-main" />
</defs>
<use id="2" transform="translate(22.5,22.5) scale(1) translate(-22.5,-22.5)" style="fill:url(#acyl_gradient);filter:url(#filter1111)" xlink:href="#path-main" />
</acyl-settings>
</svg>
