<svg xmlns="http://www.w3.org/2000/svg" width="48" height="48">
<defs>
  <path
     d="M 9.137265,2.003627 C 7.927104,2.126063 7,3.156784 7,4.401534 L 7,43.60209 C 7,44.92982 8.057139,46 9.384874,46 l 29.113714,0 c 1.327731,0 2.384874,-1.07018 2.384874,-2.39791 l 0,-29.452545 -8.770604,0 c -1.795765,0 -3.362282,-1.309928 -3.362282,-3.049511 l 0,-9.096407 -19.365702,0 c -0.08298,0 -0.166932,-0.0082 -0.247609,0 z m 21.28142,0 0,9.096407 c 0,0.714835 0.680576,1.381402 1.694173,1.381402 l 8.770604,0 L 30.418685,2.003627 z M 19.888748,16.35197 c 4.535709,0 8.262352,3.713611 8.262352,8.24932 0,1.693439 -0.521831,3.26092 -1.407467,4.574267 l 1.629012,1.642043 c 0.699755,-0.37701 1.59711,-0.27951 2.189393,0.31277 l 5.134648,5.13465 c 0.723826,0.72383 0.723826,1.89563 0,2.61945 l -1.316242,1.30321 c -0.72383,0.72383 -1.882595,0.72383 -2.60642,0 l -5.134648,-5.13465 c -0.592283,-0.59228 -0.702812,-1.4766 -0.325803,-2.17636 l -1.602948,-1.60294 c -1.359521,0.98448 -3.025954,1.57688 -4.821877,1.57688 -4.535705,0 -8.236288,-3.71361 -8.236288,-8.24932 0,-4.535709 3.700583,-8.24932 8.236288,-8.24932 z m 0,3.218929 c -2.789954,0 -5.004327,2.240436 -5.004327,5.030391 0,2.789956 2.214373,5.01736 5.004327,5.01736 2.789958,0 5.030391,-2.227404 5.030391,-5.01736 0,-2.789955 -2.240433,-5.030391 -5.030391,-5.030391 z"
     id="path-main"
      />
</defs>
<acyl-settings>
<linearGradient
     id="linearGradient4321">
    <stop
       style="stop-color:#FF6100;stop-opacity:1.0;"
       offset="0.0"
       id="stop1" />
  </linearGradient>
<linearGradient
     inkscape:collect="always"
     xlink:href="#linearGradient4321"
     id="acyl_gradient"
     x1="50.0%"
     y1="0.0%"
     x2="50.0%"
     y2="100.0%" />
<filter id="filter1111" x="-50%" y="-50%" width="200%" height="200%">
	<feImage
	id="feImage2"
	xlink:href="#1"
	result="result1" />
	<feComposite
	id="feComposite3633"
	in="result1"
	in2="SourceAlpha"
	operator="out" />
</filter>
<defs>
<use id="1" transform="translate(22.5,22.5) scale(1) translate(-22.5,-22.5)" style="stroke-opacity:1;stroke:url(#acyl_gradient);stroke-width:4" xlink:href="#path-main" />
</defs>
<use id="2" transform="translate(22.5,22.5) scale(1) translate(-22.5,-22.5)" style="fill:url(#acyl_gradient);filter:url(#filter1111)" xlink:href="#path-main" />
</acyl-settings>
</svg>
