<svg xmlns="http://www.w3.org/2000/svg" width="48" height="48">
<defs>
<defs
     id="defs3">
  </defs>
  <path
     id="path-main"
     d="m 26.936748,2 c -4.410714,0 -8.044241,3.6335279 -8.044242,8.044242 0,1.870828 0.688312,3.582147 1.774886,4.952505 l -1.001952,-0.801562 -1.173715,1.459987 c -1.802472,2.259661 -2.472289,4.364909 -2.576448,6.154848 -0.104159,1.789939 0.238682,3.128705 0.229018,4.236825 -0.0097,1.108119 -0.182452,2.057738 -1.374106,3.607026 -1.191653,1.549288 -3.499171,3.600213 -7.6434608,6.269356 L 5.78125,36.81067 6.4683027,38.270657 9.3310223,44.167859 10.218465,46 11.936097,44.940794 c 3.051611,-1.859301 8.682488,-3.842596 12.739102,-9.332466 2.376786,2.01103 4.183391,4.278555 6.240729,7.986988 l 0.830189,1.488614 1.545868,-0.71568 6.527001,-3.06311 1.918022,-0.887443 -1.173715,-1.774886 c -3.682847,-5.660053 -5.03869,-7.692922 -7.75797,-11.164607 3.591342,-0.522173 5.489592,-2.152356 6.985036,-2.977228 l 1.803513,-0.973325 -1.202342,-1.689004 -3.893299,-5.439167 -0.91607,-1.288224 -1.402733,0.71568 c -1.697066,0.869948 -3.141572,1.409248 -4.408588,1.717631 3.026331,-1.154016 5.210152,-4.085715 5.21015,-7.500325 C 34.98099,5.6335272 31.347462,2 26.936748,2 z m 0,3.6642811 c 2.428108,0 4.351333,1.9518529 4.351333,4.3799609 2e-6,2.428107 -1.923226,4.351334 -4.351333,4.351334 -2.428109,0 -4.351334,-1.923227 -4.351334,-4.351334 0,-2.428109 1.923225,-4.3799609 4.351334,-4.3799609 z M 20.495629,19.376708 c 1.287066,0.859615 2.745479,1.680949 4.69486,2.003904 2.475567,0.410128 5.554949,-0.183566 9.132075,-1.746259 l 1.94665,2.719583 c -1.56319,1.036362 -2.986545,1.895275 -6.956409,1.603123 l -4.236825,-0.314899 2.662329,3.320755 c 4.496511,5.53448 5.373656,6.925272 8.616786,11.93754 l -3.177619,1.459987 c -2.221201,-3.742186 -4.406897,-6.618854 -7.643461,-8.931685 l -1.660377,-1.173715 -1.001952,1.746259 c -2.885207,5.055404 -7.231988,6.804239 -11.078725,8.845804 l -1.374105,-2.776838 c 3.439244,-2.335745 5.836949,-4.35586 7.24268,-6.183475 1.60376,-2.085073 2.132377,-4.1013 2.14704,-5.782693 0.01467,-1.681393 -0.295326,-2.954209 -0.229018,-4.093689 0.04563,-0.784194 0.35821,-1.634529 0.916071,-2.633702 z" />
</defs>
<acyl-settings>
<linearGradient
     id="linearGradient4321">
    <stop
       style="stop-color:#FF6100;stop-opacity:1.0;"
       offset="0.0"
       id="stop1" />
  </linearGradient>
<linearGradient
     inkscape:collect="always"
     xlink:href="#linearGradient4321"
     id="acyl_gradient"
     x1="50.0%"
     y1="0.0%"
     x2="50.0%"
     y2="100.0%" />
<filter id="filter1111" x="-50%" y="-50%" width="200%" height="200%">
	<feImage
	id="feImage2"
	xlink:href="#1"
	result="result1" />
	<feComposite
	id="feComposite3633"
	in="result1"
	in2="SourceAlpha"
	operator="out" />
</filter>
<defs>
<use id="1" transform="translate(22.5,22.5) scale(1) translate(-22.5,-22.5)" style="stroke-opacity:1;stroke:url(#acyl_gradient);stroke-width:4" xlink:href="#path-main" />
</defs>
<use id="2" transform="translate(22.5,22.5) scale(1) translate(-22.5,-22.5)" style="fill:url(#acyl_gradient);filter:url(#filter1111)" xlink:href="#path-main" />
</acyl-settings>
</svg>
