<svg xmlns="http://www.w3.org/2000/svg" width="48" height="48">
<defs>
<defs
     id="defs3" />
  <g
     id="layer1">
    <path
       d="M 9.90625,8.78125 C 9.0019886,8.78125 8.0570179,9.1927548 7.5625,9.90625 C 7.0679821,10.619745 6.9999999,11.382102 7,12.15625 L 7,31.4375 C 7.0000013,32.211646 7.0630336,32.981923 7.625,33.65625 C 8.1869664,34.330577 9.0815543,34.562501 9.90625,34.5625 L 13.375,34.5625 C 13.438447,35.532575 13.478032,36.410973 13.15625,37.34375 L 12.1875,40.09375 L 14.84375,38.875 C 17.014292,37.888738 18.623412,35.9952 19.71875,34.5625 L 38.125,34.5625 C 38.949696,34.5625 39.856708,34.341274 40.40625,33.65625 C 40.955792,32.971226 40.999999,32.199644 41,31.4375 L 41,12 C 41,11.215971 40.925208,10.429075 40.375,9.75 C 39.824792,9.0709253 38.91087,8.78125 38.0625,8.78125 L 9.90625,8.78125 z M 9.625,11.28125 C 9.645813,11.275594 9.7142299,11.28125 9.90625,11.28125 L 38.0625,11.28125 C 38.282468,11.28125 38.371786,11.300345 38.40625,11.3125 C 38.378104,11.277762 38.5,11.469537 38.5,12 L 38.5,31.4375 C 38.5,31.851761 38.446359,31.995794 38.4375,32.03125 C 38.400778,32.04141 38.335904,32.0625 38.125,32.0625 L 19.125,32.0625 L 18.5,32.0625 L 18.125,32.5625 C 17.571894,33.304548 16.775997,34.204211 15.90625,35.03125 C 15.884081,34.409057 15.851128,33.790423 15.8125,33.21875 L 15.71875,32.0625 L 14.5625,32.0625 L 9.90625,32.0625 C 9.6936305,32.0625 9.6048059,32.039992 9.5625,32.03125 C 9.5673012,32.022268 9.5000008,31.887789 9.5,31.4375 L 9.5,12.15625 C 9.5,11.615903 9.6130446,11.329749 9.625,11.3125 C 9.6309777,11.303876 9.604187,11.286906 9.625,11.28125 z M 17.21875,13.90625 L 17.21875,28.5 L 20.96875,28.5 L 20.96875,22.75 L 26.78125,28.5 L 31.46875,28.5 L 23.75,20.8125 L 30.75,13.90625 L 26.375,13.90625 L 20.96875,19.25 L 20.96875,13.90625 L 17.21875,13.90625 z"
       id="path-main"
        />
  </g>
</defs>
<acyl-settings>
<linearGradient
     id="linearGradient4321">
    <stop
       style="stop-color:#FF6100;stop-opacity:1.0;"
       offset="0.0"
       id="stop1" />
  </linearGradient>
<linearGradient
     inkscape:collect="always"
     xlink:href="#linearGradient4321"
     id="acyl_gradient"
     x1="50.0%"
     y1="0.0%"
     x2="50.0%"
     y2="100.0%" />
<filter id="filter1111" x="-50%" y="-50%" width="200%" height="200%">
	<feImage
	id="feImage2"
	xlink:href="#1"
	result="result1" />
	<feComposite
	id="feComposite3633"
	in="result1"
	in2="SourceAlpha"
	operator="out" />
</filter>
<defs>
<use id="1" transform="translate(22.5,22.5) scale(1) translate(-22.5,-22.5)" style="stroke-opacity:1;stroke:url(#acyl_gradient);stroke-width:4" xlink:href="#path-main" />
</defs>
<use id="2" transform="translate(22.5,22.5) scale(1) translate(-22.5,-22.5)" style="fill:url(#acyl_gradient);filter:url(#filter1111)" xlink:href="#path-main" />
</acyl-settings>
</svg>
