<svg xmlns="http://www.w3.org/2000/svg" width="48" height="48">
<defs>
  <path
     d="m 29.367165,7.5206466 -0.498768,0.01084 0,0.650566 c 0.968767,0.197535 1.669405,0.539558 2.092656,1.019221 0.423245,0.4797 0.628878,1.0576644 0.628881,1.7348454 -3e-6,0.686619 -0.111834,1.499087 -0.346968,2.439626 -0.225736,0.940566 -0.346973,1.690978 -0.346969,2.255298 -4e-6,0.583154 0.183288,1.205144 0.531296,1.854115 0.348,0.64899 0.866783,1.2118 1.572203,1.691473 0.526704,0.357418 1.370918,0.71747 2.537211,1.084279 -1.091049,0.300983 -1.876082,0.612697 -2.374569,0.932479 -0.724231,0.470282 -1.282729,1.034528 -1.658945,1.702316 -0.376225,0.658391 -0.563828,1.313565 -0.563825,1.962543 -3e-6,0.696011 0.121233,1.508479 0.346969,2.439625 0.225729,0.940552 0.336122,1.721274 0.336126,2.342041 -4e-6,0.620762 -0.231633,1.179259 -0.683095,1.658945 -0.451469,0.489083 -1.139826,0.818825 -2.070971,0.997536 l 0,0.650567 c 0.865307,-0.03763 1.552226,-0.129993 2.060128,-0.27107 0.658383,-0.17871 1.266656,-0.461552 1.821587,-0.85658 0.554921,-0.395036 1.008774,-0.909507 1.36619,-1.539674 0.366809,-0.620768 0.552975,-1.244195 0.552982,-1.864958 -7e-6,-0.583144 -0.140709,-1.428796 -0.422868,-2.548053 -0.04496,-0.173694 -0.08408,-0.343465 -0.119271,-0.509611 4.441154,1.203064 7.351406,3.170479 7.351406,5.399704 0,3.664515 -7.826681,6.63578 -17.478562,6.63578 -9.651882,0 -17.4785597,-2.971265 -17.4785597,-6.63578 0,-2.22353 2.885759,-4.18519 7.3080327,-5.388861 -0.03169,0.143564 -0.05902,0.284465 -0.09758,0.433711 -0.291576,1.128663 -0.433715,2.018342 -0.433711,2.667324 -4e-6,0.66779 0.207065,1.35471 0.639724,2.060127 0.442054,0.714817 1.095791,1.305061 1.9517,1.756531 0.865301,0.451459 1.773008,0.670809 2.732381,0.66141 l 0.498767,0 0,-0.66141 c -0.968778,-0.188115 -1.670853,-0.530138 -2.103499,-1.019221 -0.423256,-0.479686 -0.639731,-1.056213 -0.639724,-1.724002 -7e-6,-0.696011 0.121229,-1.509916 0.346969,-2.450468 0.23513,-0.940552 0.346961,-1.690965 0.346969,-2.255298 -8e-6,-0.583141 -0.172457,-1.205131 -0.520453,-1.854116 -0.348012,-0.648976 -0.865358,-1.211786 -1.56136,-1.691473 -0.526716,-0.357404 -1.381773,-0.717456 -2.548054,-1.084278 1.091037,-0.291565 1.886914,-0.603278 2.385412,-0.932479 0.714814,-0.470268 1.261031,-1.033078 1.637259,-1.691474 0.38562,-0.667782 0.585502,-1.322956 0.585511,-1.962543 -9e-6,-0.695997 -0.121245,-1.508465 -0.346969,-2.439626 -0.22574,-0.940537 -0.336134,-1.722696 -0.336126,-2.352883 -8e-6,-0.620747 0.219342,-1.1792464 0.661409,-1.6589454 0.451457,-0.489069 1.152094,-0.818812 2.092656,-0.997535 l 0,-0.639724 c -0.865317,0.02823 -1.552238,0.119163 -2.060128,0.260226 -0.658394,0.178725 -1.266667,0.461567 -1.821587,0.85658 -0.554932,0.39505 -1.010222,0.909522 -1.377032,1.5396744 -0.366821,0.630187 -0.552987,1.253615 -0.552982,1.864959 -5e-6,0.583157 0.142135,1.428808 0.433711,2.548053 0.206916,0.799482 0.314435,1.518148 0.314441,2.157713 -6e-6,0.780668 -0.234509,1.449559 -0.704781,1.995071 -0.47028,0.545529 -1.157201,0.890426 -2.060128,1.040907 l 0,0.867422 c 0.902927,0.150495 1.589848,0.481675 2.060128,1.008379 0.470272,0.517309 0.704775,1.154453 0.704781,1.897486 -3e-6,0.347819 -0.03721,0.719115 -0.09758,1.116806 C 6.8625203,26.070611 2,28.862532 2,32.101225 2,36.71467 11.848759,40.461 23.999999,40.461 36.15124,40.461 46,36.71467 46,32.101225 c 0,-3.244853 -4.883718,-6.054963 -12.002958,-7.438147 -0.04555,-0.33528 -0.06506,-0.654082 -0.06506,-0.954165 -7e-6,-0.780654 0.233061,-1.449545 0.693938,-1.995071 0.470269,-0.545515 1.158626,-0.890412 2.070971,-1.040907 l 0,-0.867422 c -0.912345,-0.141076 -1.600702,-0.470819 -2.070971,-0.997536 -0.460877,-0.526701 -0.693945,-1.165283 -0.693938,-1.908329 -7e-6,-0.658376 0.10895,-1.396509 0.325283,-2.233613 0.291565,-1.12865 0.433705,-2.01689 0.433712,-2.65648 -7e-6,-0.677183 -0.219357,-1.36554 -0.66141,-2.0709714 -0.43266,-0.714803 -1.075554,-1.305047 -1.940857,-1.756531 -0.865313,-0.451446 -1.771582,-0.670795 -2.721538,-0.661409 z"
     id="path-main"
      />
</defs>
<acyl-settings>
<linearGradient
     id="linearGradient4321">
    <stop
       style="stop-color:#FF6100;stop-opacity:1.0;"
       offset="0.0"
       id="stop1" />
  </linearGradient>
<linearGradient
     inkscape:collect="always"
     xlink:href="#linearGradient4321"
     id="acyl_gradient"
     x1="50.0%"
     y1="0.0%"
     x2="50.0%"
     y2="100.0%" />
<filter id="filter1111" x="-50%" y="-50%" width="200%" height="200%">
	<feImage
	id="feImage2"
	xlink:href="#1"
	result="result1" />
	<feComposite
	id="feComposite3633"
	in="result1"
	in2="SourceAlpha"
	operator="out" />
</filter>
<defs>
<use id="1" transform="translate(22.5,22.5) scale(1) translate(-22.5,-22.5)" style="stroke-opacity:1;stroke:url(#acyl_gradient);stroke-width:4" xlink:href="#path-main" />
</defs>
<use id="2" transform="translate(22.5,22.5) scale(1) translate(-22.5,-22.5)" style="fill:url(#acyl_gradient);filter:url(#filter1111)" xlink:href="#path-main" />
</acyl-settings>
</svg>
