<svg xmlns="http://www.w3.org/2000/svg" width="48" height="48">
<defs>
  <path
     d="m 23.59375,2.53125 c -6.98504,2.179716 -12.90166,9.788021 -12.25,17.40625 0.46206,5.401706 4.97165,11.130914 10.75,10.5 3.421559,-0.373586 5.843205,-3.143699 5.34375,-6.8125 -0.475749,-1.57901 -3.067434,-1.401892 -3.875,-1.03125 0.292463,-1.106356 2.248204,-2.824734 4.5,-1.78125 2.784861,1.599848 5.055639,7.182886 1.875,11.15625 -3.109104,3.884 -6.980575,5.474029 -10.875,5.53125 -3.89442,0.05722 -7.82992,-1.400374 -11.125,-3.59375 C 6.24394,32.778931 4.77727,31.449149 3.5,30 l 0,6.21875 C 3.5,40.254561 6.76995,43.5 10.8125,43.5 l 13.59375,-0.03125 c 6.985037,-2.179716 12.901658,-9.788021 12.25,-17.40625 -0.462058,-5.401706 -4.971649,-11.130914 -10.75,-10.5 -3.421559,0.373586 -5.843205,2.987449 -5.34375,6.65625 0.475749,1.57901 3.067434,1.558142 3.875,1.1875 -0.292463,1.106356 -2.279454,2.824734 -4.53125,1.78125 C 17.121384,23.587652 14.881863,18.004614 18.0625,14.03125 21.171604,10.14725 25.043075,8.557221 28.9375,8.5 32.831925,8.442779 36.767418,9.900374 40.0625,12.09375 41.756058,13.221069 43.22273,14.550851 44.5,16 l 0,-6.21875 C 44.5,5.7454396 41.230055,2.5 37.1875,2.5 L 23.59375,2.53125 z"
     id="path-main"
     sodipodi:nodetypes="csscccsssccccsscccssscccc" />
</defs>
<acyl-settings>
<linearGradient
     id="linearGradient4321">
    <stop
       style="stop-color:#FF6100;stop-opacity:1.0;"
       offset="0.0"
       id="stop1" />
  </linearGradient>
<linearGradient
     inkscape:collect="always"
     xlink:href="#linearGradient4321"
     id="acyl_gradient"
     x1="50.0%"
     y1="0.0%"
     x2="50.0%"
     y2="100.0%" />
<filter id="filter1111" x="-50%" y="-50%" width="200%" height="200%">
	<feImage
	id="feImage2"
	xlink:href="#1"
	result="result1" />
	<feComposite
	id="feComposite3633"
	in="result1"
	in2="SourceAlpha"
	operator="out" />
</filter>
<defs>
<use id="1" transform="translate(22.5,22.5) scale(1) translate(-22.5,-22.5)" style="stroke-opacity:1;stroke:url(#acyl_gradient);stroke-width:4" xlink:href="#path-main" />
</defs>
<use id="2" transform="translate(22.5,22.5) scale(1) translate(-22.5,-22.5)" style="fill:url(#acyl_gradient);filter:url(#filter1111)" xlink:href="#path-main" />
</acyl-settings>
</svg>
