<svg xmlns="http://www.w3.org/2000/svg" width="48" height="48">
<defs>
<defs
     id="defs4291">
  </defs>
  <path
     id="path-main"
   d="M 4.65625 2 C 3.135108 2.08929 2.394427 3.035937 2.09375 4.4375 C 2.05564 5.142534 2.0625 16.78125 2.0625 16.78125 C 2.062499 18.216401 3.2211 19.375 4.65625 19.375 L 9.5625 19.375 L 14.125 28.5625 L 13 28.5625 C 11.478858 28.65179 10.706927 29.598437 10.40625 31 C 10.36814 31.705034 10.40625 43.34375 10.40625 43.34375 C 10.406249 44.778901 11.56485 45.9375 13 45.9375 L 26.53125 45.9375 C 27.9664 45.9375 29.124999 44.778901 29.125 43.34375 L 29.125 35.21875 L 37.84375 24.3125 L 43.25 24.3125 C 44.68515 24.3125 45.843749 23.153901 45.84375 21.71875 L 45.84375 9.53125 C 45.84375 8.0961 44.68515 6.9375 43.25 6.9375 L 29.71875 6.9375 C 28.197608 7.02679 27.456927 7.973437 27.15625 9.375 C 27.148203 9.5238749 27.159801 11.182399 27.15625 12.09375 L 20.78125 9.46875 L 20.78125 4.5625 C 20.78125 3.12735 19.62265 2 18.1875 2 L 4.65625 2 z M 5.5625 4 L 17.28125 4 C 18.114561 4 18.78125 4.666687 18.78125 5.5 L 18.78125 15.84375 C 18.78125 16.677061 18.114563 17.375 17.28125 17.375 L 5.5625 17.375 C 4.729186 17.374999 4.09375 16.677063 4.09375 15.84375 L 4.09375 5.5 C 4.09375 4.666687 4.729187 4 5.5625 4 z M 6.09375 6 L 6.09375 15.34375 L 16.78125 15.34375 L 16.78125 6 L 6.09375 6 z M 30.625 8.9375 L 42.34375 8.9375 C 43.177061 8.9375 43.84375 9.6041875 43.84375 10.4375 L 43.84375 20.8125 C 43.84375 21.645811 43.177063 22.3125 42.34375 22.3125 L 30.625 22.3125 C 29.791686 22.312499 29.125 21.645813 29.125 20.8125 L 29.125 10.4375 C 29.125 9.6041875 29.791687 8.9375 30.625 8.9375 z M 31.125 10.9375 L 31.125 20.3125 L 41.84375 20.3125 L 41.84375 10.9375 L 31.125 10.9375 z M 20.78125 13.0625 L 27.125 15.78125 C 27.125367 18.794288 27.125 21.71875 27.125 21.71875 C 27.124999 23.153901 28.2836 24.3125 29.71875 24.3125 L 33.65625 24.3125 L 28.9375 30.21875 C 28.566541 29.24506 27.641448 28.5625 26.53125 28.5625 L 18 28.5625 L 13.375 19.375 L 18.1875 19.375 C 19.62265 19.375 20.781249 18.216401 20.78125 16.78125 L 20.78125 13.0625 z M 13.90625 30.5625 L 25.59375 30.5625 C 26.427061 30.5625 27.09375 31.229187 27.09375 32.0625 L 27.09375 42.4375 C 27.09375 43.270811 26.427063 43.9375 25.59375 43.9375 L 13.90625 43.9375 C 13.072936 43.937499 12.40625 43.270813 12.40625 42.4375 L 12.40625 32.0625 C 12.40625 31.229187 13.072937 30.5625 13.90625 30.5625 z M 14.40625 32.5625 L 14.40625 41.9375 L 25.09375 41.9375 L 25.09375 32.5625 L 14.40625 32.5625 z "
/>
</defs>
<acyl-settings>
<linearGradient
     id="linearGradient4321">
    <stop
       style="stop-color:#FF6100;stop-opacity:1.0;"
       offset="0.0"
       id="stop1" />
  </linearGradient>
<linearGradient
     inkscape:collect="always"
     xlink:href="#linearGradient4321"
     id="acyl_gradient"
     x1="50.0%"
     y1="0.0%"
     x2="50.0%"
     y2="100.0%" />
<filter id="filter1111" x="-50%" y="-50%" width="200%" height="200%">
	<feImage
	id="feImage2"
	xlink:href="#1"
	result="result1" />
	<feComposite
	id="feComposite3633"
	in="result1"
	in2="SourceAlpha"
	operator="out" />
</filter>
<defs>
<use id="1" transform="translate(22.5,22.5) scale(1) translate(-22.5,-22.5)" style="stroke-opacity:1;stroke:url(#acyl_gradient);stroke-width:4" xlink:href="#path-main" />
</defs>
<use id="2" transform="translate(22.5,22.5) scale(1) translate(-22.5,-22.5)" style="fill:url(#acyl_gradient);filter:url(#filter1111)" xlink:href="#path-main" />
</acyl-settings>
</svg>
