<svg xmlns="http://www.w3.org/2000/svg" width="48" height="48">
<defs>
  <path
     d="m 2,1.9999995 0,1.1875 L 19.567108,24.8438 2,44.8438 2,46 34.664324,46 c -2.865135,-2.5052 -5.642974,-2.8308 -7.934528,-2.5937 -1.314718,0.1361 -1.999117,0.1299 -3.241733,0.8125 -1.242618,0.6825 -3.140873,1.2624 -3.951828,-0.375 -0.810954,-1.6375 1.315328,-2.9606 2.87125,-3.875 l -12.7199455,0 15.8381845,-18 L 11.601706,4.75 l 15.591195,0 c 2.2888,-0.022 3.977762,0.2405 5.032406,0.7813 1.054644,0.5408 1.864077,1.3847 2.469892,2.5312 0.605914,1.1466 0.98524,2.8151 1.142325,5 l 1.296693,0 L 36.208008,1.9999995 2,1.9999995 z M 40.406824,25.625 c 0,0 -5.947243,0.1542 -6.977446,5.0313 -4.042147,-2.2376 -8.399639,1.8759 -8.397634,1.875 0,0 5.124602,-3.6006 9.879569,1.625 -0.994922,-6.3309 5.495511,-8.5313 5.495511,-8.5313 z m 5.526384,6 c -0.866597,0.099 -9.449314,1.8028 -10.8984,8.7813 -6.103726,-3.406 -13.960127,2.7762 -13.677028,2.6562 -0.116984,0.066 8.591905,-5.3627 16.023426,2.8438 -1.56776,-9.874 8.698199,-14.3219 8.613749,-14.2813 0.01531,-0.01 -0.004,-0.01 -0.06175,0 z"
     id="path-main" />
</defs>
<acyl-settings>
<linearGradient
     id="linearGradient4321">
    <stop
       style="stop-color:#FF6100;stop-opacity:1.0;"
       offset="0.0"
       id="stop1" />
  </linearGradient>
<linearGradient
     inkscape:collect="always"
     xlink:href="#linearGradient4321"
     id="acyl_gradient"
     x1="50.0%"
     y1="0.0%"
     x2="50.0%"
     y2="100.0%" />
<filter id="filter1111" x="-50%" y="-50%" width="200%" height="200%">
	<feImage
	id="feImage2"
	xlink:href="#1"
	result="result1" />
	<feComposite
	id="feComposite3633"
	in="result1"
	in2="SourceAlpha"
	operator="out" />
</filter>
<defs>
<use id="1" transform="translate(22.5,22.5) scale(1) translate(-22.5,-22.5)" style="stroke-opacity:1;stroke:url(#acyl_gradient);stroke-width:4" xlink:href="#path-main" />
</defs>
<use id="2" transform="translate(22.5,22.5) scale(1) translate(-22.5,-22.5)" style="fill:url(#acyl_gradient);filter:url(#filter1111)" xlink:href="#path-main" />
</acyl-settings>
</svg>
