<svg xmlns="http://www.w3.org/2000/svg" width="48" height="48">
<defs>
<defs
     id="defs5">
  </defs>
  <path
     d="M 14.728997,2 C 7.7779493,2.0000001 2,7.4666598 2,14.255435 c 10e-8,1.945488 0.5625708,3.728106 1.401084,5.350543 -0.2428064,1.241489 -0.4769648,2.498764 -0.4769648,3.826087 2e-7,11.435523 9.5008758,20.714673 21.1056908,20.714674 0.82176,0 1.64043,-0.08924 2.444445,-0.179348 C 28.457563,45.194831 30.772239,46 33.300813,46 40.244949,45.999999 46,40.555934 46,33.774457 c 10e-7,-2.027373 -0.60754,-3.903814 -1.520325,-5.589674 0.372703,-1.530943 0.685637,-3.10134 0.685637,-4.752718 0,-11.435523 -9.530685,-20.7146736 -21.135502,-20.7146737 -1.395999,0 -2.715069,0.2247469 -4.02439,0.4782609 C 18.401674,2.4774649 16.641043,2 14.728997,2 z m 9.360434,7.861413 c 1.53115,2.6e-5 3.121517,0.109821 4.739837,0.328804 1.618285,0.207509 3.277768,0.530055 5.00813,0.956522 l 0,5.470109 c -1.531187,-0.633957 -3.01509,-1.11201 -4.471544,-1.434783 -1.456491,-0.32273 -2.819194,-0.508131 -4.113821,-0.508152 -1.717905,2.2e-5 -2.99413,0.21961 -3.815719,0.657609 -0.821611,0.43804 -1.222231,1.140373 -1.222222,2.0625 -8e-6,0.691628 0.257135,1.222236 0.804878,1.61413 0.560172,0.380403 1.584165,0.709785 3.040651,0.986413 l 3.04065,0.567935 c 3.099656,0.576357 5.310773,1.454712 6.617886,2.630435 1.307069,1.175748 1.967455,2.854704 1.96748,5.021739 -2.5e-5,2.847133 -0.912643,4.972103 -2.742548,6.366848 -1.817499,1.383219 -4.599903,2.062499 -8.346883,2.0625 -1.767697,-10e-7 -3.555918,-0.167037 -5.336043,-0.478261 -1.780142,-0.311226 -3.555914,-0.764077 -5.336044,-1.375 l 0,-5.619565 c 1.78013,0.876044 3.501525,1.553176 5.157182,2.002717 1.668089,0.438025 3.285643,0.657614 4.829268,0.657609 1.568496,3e-6 2.743171,-0.263151 3.577236,-0.747283 0.834031,-0.484121 1.252014,-1.1634 1.252032,-2.0625 -1.8e-5,-0.80687 -0.262075,-1.415232 -0.834688,-1.853261 -0.560198,-0.438009 -1.705394,-0.849837 -3.398374,-1.195652 l -2.772358,-0.567935 c -2.788471,-0.553277 -4.846283,-1.420104 -6.140921,-2.630434 -1.282198,-1.210305 -1.907862,-2.850382 -1.907859,-4.902174 -3e-6,-2.570463 0.890339,-4.535235 2.682927,-5.918479 1.792576,-1.383195 4.359764,-2.092365 7.720867,-2.092391 z"
     id="path-main"
      />
</defs>
<acyl-settings>
<linearGradient
     id="linearGradient4321">
    <stop
       style="stop-color:#FF6100;stop-opacity:1.0;"
       offset="0.0"
       id="stop1" />
  </linearGradient>
<linearGradient
     inkscape:collect="always"
     xlink:href="#linearGradient4321"
     id="acyl_gradient"
     x1="50.0%"
     y1="0.0%"
     x2="50.0%"
     y2="100.0%" />
<filter id="filter1111" x="-50%" y="-50%" width="200%" height="200%">
	<feImage
	id="feImage2"
	xlink:href="#1"
	result="result1" />
	<feComposite
	id="feComposite3633"
	in="result1"
	in2="SourceAlpha"
	operator="out" />
</filter>
<defs>
<use id="1" transform="translate(22.5,22.5) scale(1) translate(-22.5,-22.5)" style="stroke-opacity:1;stroke:url(#acyl_gradient);stroke-width:4" xlink:href="#path-main" />
</defs>
<use id="2" transform="translate(22.5,22.5) scale(1) translate(-22.5,-22.5)" style="fill:url(#acyl_gradient);filter:url(#filter1111)" xlink:href="#path-main" />
</acyl-settings>
</svg>
