<svg xmlns="http://www.w3.org/2000/svg" width="48" height="48">
<defs>
  <path
     d="m 23.914193,4.5368872 0,5.122616 0,9.5054558 c -0.724668,-0.284196 -1.605942,-0.460616 -2.568288,-0.460616 -2.433082,0 -4.396797,1.066185 -4.396797,2.386832 0,1.320646 1.963715,2.386832 4.396797,2.386832 2.433081,0 4.410755,-1.066186 4.410755,-2.386832 l 0,-10.105653 6.015934,4.396796 0,9.700869 C 31.047929,24.79899 30.166651,24.62257 29.204307,24.62257 c -2.433083,0 -4.396797,1.066188 -4.396797,2.386833 0,1.320651 1.963714,2.386832 4.396797,2.386832 2.43308,0 4.410754,-1.066181 4.410754,-2.386832 l 0,-10.287109 0,-3.726808 0,-1.395809 z m 15.818624,6.4765508 c -1.605798,0.08573 -2.761715,1.241651 -2.847448,2.847449 l 0,28.139503 c 0,0.43434 0.6148,0.79561 1.38185,0.79561 0.767051,0 1.38185,-0.36127 1.38185,-0.79561 l 0,-28.139503 c -0.08573,0.06883 0.152576,-0.169479 0.08375,-0.08375 l 5.485529,0 c 0.434347,0 0.781654,-0.6148 0.781654,-1.38185 0,-0.76705 -0.347307,-1.38185 -0.781654,-1.38185 z M 3.38185,15.884809 C 2.614799,15.884809 2,16.49961 2,17.26666 l 0,18.06176 c 0,0.76705 0.614799,1.38185 1.38185,1.38185 l 32.606086,0 0,-20.825461 -1.284144,0 0,0.837485 0,10.287109 c 0,1.205996 -0.853163,2.109762 -1.856425,2.652036 -1.003262,0.542273 -2.266845,0.823527 -3.64306,0.823527 -1.376217,0 -2.628594,-0.280369 -3.629102,-0.823527 -1.000508,-0.543159 -1.856425,-1.449891 -1.856425,-2.652036 0,-1.202144 0.855918,-2.108877 1.856425,-2.652036 1.000507,-0.54316 2.252884,-0.823527 3.629102,-0.823527 0.513865,0 1.009998,0.04453 1.479557,0.125622 l 0,-7.71882 -0.06979,-0.05583 -3.768683,0 0,5.206366 c 0,1.205996 -0.853164,2.109762 -1.856425,2.652036 -1.003261,0.542274 -2.266843,0.823527 -3.64306,0.823527 -1.376217,0 -2.628595,-0.280368 -3.629102,-0.823527 -1.000507,-0.543159 -1.856425,-1.449892 -1.856425,-2.652036 0,-1.202144 0.855918,-2.108877 1.856425,-2.652036 1.000508,-0.543159 2.252885,-0.823527 3.629102,-0.823527 0.513866,0 1.009999,0.04453 1.479557,0.125622 l 0,-1.856425 z m 37.07679,6.783629 0,3.349941 0.474575,0 c 0.528903,0 0.963107,-0.434205 0.963107,-0.963108 l 0,-1.423725 c 0,-0.528902 -0.434204,-0.963108 -0.963107,-0.963108 z m 0,5.17845 0,3.34994 0.474575,0 c 0.528903,0 0.963107,-0.434205 0.963107,-0.963108 l 0,-1.423724 c 0,-0.528903 -0.434204,-0.963108 -0.963107,-0.963108 z m -21.722897,9.575242 0,3.67098 1.521432,0 0,-3.67098 z m 2.149545,0 0,3.67098 1.53539,0 0,-3.67098 z m 2.163504,0 0,3.67098 1.521431,0 0,-3.67098 z m 2.149545,0 0,3.67098 1.535389,0 0,-3.67098 z m 2.163503,0 0,3.67098 1.521431,0 0,-3.67098 z m 2.149545,0 0,3.67098 1.535389,0 0,-3.67098 z m 2.163503,0 0,3.67098 1.521431,0 0,-3.67098 z"
     id="path-main"
      />
</defs>
<acyl-settings>
<linearGradient
     id="linearGradient4321">
    <stop
       style="stop-color:#FF6100;stop-opacity:1.0;"
       offset="0.0"
       id="stop1" />
  </linearGradient>
<linearGradient
     inkscape:collect="always"
     xlink:href="#linearGradient4321"
     id="acyl_gradient"
     x1="50.0%"
     y1="0.0%"
     x2="50.0%"
     y2="100.0%" />
<filter id="filter1111" x="-50%" y="-50%" width="200%" height="200%">
	<feImage
	id="feImage2"
	xlink:href="#1"
	result="result1" />
	<feComposite
	id="feComposite3633"
	in="result1"
	in2="SourceAlpha"
	operator="out" />
</filter>
<defs>
<use id="1" transform="translate(22.5,22.5) scale(1) translate(-22.5,-22.5)" style="stroke-opacity:1;stroke:url(#acyl_gradient);stroke-width:4" xlink:href="#path-main" />
</defs>
<use id="2" transform="translate(22.5,22.5) scale(1) translate(-22.5,-22.5)" style="fill:url(#acyl_gradient);filter:url(#filter1111)" xlink:href="#path-main" />
</acyl-settings>
</svg>
