<svg xmlns="http://www.w3.org/2000/svg" width="48" height="48">
<defs>
  <path
     d="M 4.357143,6.040098 C 3.05383,6.040098 2,7.080145 2,8.383456 L 2,40.14285 C 2,41.44617 3.05383,42.5 4.357143,42.5 l 39.285714,0 C 44.94617,42.5 46,41.44617 46,40.14285 L 46,8.383456 C 46,7.080145 44.94617,6.040098 43.642857,6.040098 z m 21.214286,2.577694 15.948621,0 c 0.74688,0 1.350877,0.603996 1.350877,1.350877 l 0,12.723058 -17.299498,0 z m -20.442356,17.230577 17.285714,0 0,14.060151 -15.948622,0 c -0.746879,0 -1.337092,-0.59021 -1.337092,-1.33709 z m 20.442356,0 17.299498,0 0,12.723061 c 0,0.74688 -0.603997,1.33709 -1.350877,1.33709 l -15.948621,0 z"
     id="path-main"
      />
</defs>
<acyl-settings>
<linearGradient
     id="linearGradient4321">
    <stop
       style="stop-color:#FF6100;stop-opacity:1.0;"
       offset="0.0"
       id="stop1" />
  </linearGradient>
<linearGradient
     inkscape:collect="always"
     xlink:href="#linearGradient4321"
     id="acyl_gradient"
     x1="50.0%"
     y1="0.0%"
     x2="50.0%"
     y2="100.0%" />
<filter id="filter1111" x="-50%" y="-50%" width="200%" height="200%">
	<feImage
	id="feImage2"
	xlink:href="#1"
	result="result1" />
	<feComposite
	id="feComposite3633"
	in="result1"
	in2="SourceAlpha"
	operator="out" />
</filter>
<defs>
<use id="1" transform="translate(22.5,22.5) scale(1) translate(-22.5,-22.5)" style="stroke-opacity:1;stroke:url(#acyl_gradient);stroke-width:4" xlink:href="#path-main" />
</defs>
<use id="2" transform="translate(22.5,22.5) scale(1) translate(-22.5,-22.5)" style="fill:url(#acyl_gradient);filter:url(#filter1111)" xlink:href="#path-main" />
</acyl-settings>
</svg>
