<svg xmlns="http://www.w3.org/2000/svg" width="48" height="48">
<defs>
<defs
     id="defs3091" />
  <g
     id="layer1">
    <path
       d="M 24,2.5 C 12.684003,2.4999999 3.5,11.683996 3.5,23 C 3.5,34.316005 12.684002,43.5 24,43.5 C 35.315997,43.500001 44.5,34.316004 44.5,23 C 44.5,11.683997 35.315997,2.5 24,2.5 z M 24,9.5 C 25.5491,9.4999999 27.020954,9.7687683 28.40625,10.25 L 26.25,10.25 L 26.25,12.9375 L 30.03125,12.9375 L 26.25,16.65625 L 26.25,19.25 L 34.1875,19.25 L 34.1875,16.5625 L 30.40625,16.5625 L 33.5625,13.5 C 35.989079,15.940377 37.5,19.289106 37.5,23 C 37.500001,25.460113 36.838685,27.763003 35.6875,29.75 L 24.5,18.5625 L 17.25,11.3125 C 19.236997,10.161315 21.539888,9.5 24,9.5 z M 26.84375,10.84375 L 33.59375,10.84375 L 33.59375,12.625 L 28.96875,17.15625 L 33.59375,17.15625 L 33.59375,18.65625 L 26.84375,18.65625 L 26.84375,16.875 L 31.46875,12.34375 L 30.75,12.34375 L 26.84375,12.34375 L 26.84375,10.84375 z M 12.3125,16.25 L 19.03125,22.96875 L 18.9375,23.0625 L 18.9375,24.9375 L 21,24.9375 L 30.75,34.6875 C 28.763003,35.838686 26.460112,36.5 24,36.5 C 16.547989,36.5 10.5,30.452011 10.5,23 C 10.5,20.539889 11.161315,18.236997 12.3125,16.25 z M 19.4375,19.0625 L 24.0625,19.0625 L 24.0625,20.25 L 20.75,23.46875 L 24.0625,23.46875 L 24.0625,24.4375 L 19.4375,24.4375 L 19.4375,23.28125 L 22.71875,20.03125 L 19.4375,20.03125 L 19.4375,19.0625 z M 15.375,27.344 L 15.375,29 L 17.59375,29 L 15.375,31.1875 L 15.375,32.78125 L 20.125,32.78125 L 20.125,31.125 L 17.90625,31.125 L 20.125,28.9375 L 20.125,27.34375 L 15.375,27.344 z M 15.75,27.75 L 19.71875,27.75 L 19.71875,28.78125 L 16.9375,31.5 L 19.71875,31.5 L 19.71875,32.375 L 15.75,32.375 L 15.75,31.34375 L 18.53125,28.625 L 15.75,28.625 L 15.75,27.75 z"
       id="path-main"
        />
  </g>
</defs>
<acyl-settings>
<linearGradient
     id="linearGradient4321">
    <stop
       style="stop-color:#FF6100;stop-opacity:1.0;"
       offset="0.0"
       id="stop1" />
  </linearGradient>
<linearGradient
     inkscape:collect="always"
     xlink:href="#linearGradient4321"
     id="acyl_gradient"
     x1="50.0%"
     y1="0.0%"
     x2="50.0%"
     y2="100.0%" />
<filter id="filter1111" x="-50%" y="-50%" width="200%" height="200%">
	<feImage
	id="feImage2"
	xlink:href="#1"
	result="result1" />
	<feComposite
	id="feComposite3633"
	in="result1"
	in2="SourceAlpha"
	operator="out" />
</filter>
<defs>
<use id="1" transform="translate(22.5,22.5) scale(1) translate(-22.5,-22.5)" style="stroke-opacity:1;stroke:url(#acyl_gradient);stroke-width:4" xlink:href="#path-main" />
</defs>
<use id="2" transform="translate(22.5,22.5) scale(1) translate(-22.5,-22.5)" style="fill:url(#acyl_gradient);filter:url(#filter1111)" xlink:href="#path-main" />
</acyl-settings>
</svg>
