<svg xmlns="http://www.w3.org/2000/svg" width="48" height="48">
<defs>
<defs
     id="defs4">
  </defs>
  <path
     id="path-main"
     d="M 24.005922,1.9999997 C 11.856915,1.9999996 1.9999995,11.863448 2,24.005919 2,36.148389 11.856914,46 24.005922,46 36.15493,46 46,36.148389 46,24.005919 46,11.863449 36.154929,1.9999997 24.005922,1.9999997 z m 0.319785,4.2023137 c 5.450285,0.1135283 10.800236,2.6611144 14.260027,7.3629276 0.692659,0.94131 1.274737,1.904032 1.776581,2.959375 l -6.075908,2.864676 C 33.939921,18.66066 33.663151,18.180709 33.184926,17.530804 29.432496,12.431298 22.333477,11.353707 17.231225,15.104116 L 13.251682,9.694377 c 3.01078,-2.2130742 6.492785,-3.3442565 9.984388,-3.4802261 0.363709,-0.014163 0.726285,-0.019406 1.089637,-0.011837 z m -0.272409,8.7124026 c 5.150131,0 9.332974,4.192429 9.332974,9.33979 0,5.147361 -4.182842,9.327953 -9.332974,9.327953 -5.150133,2e-6 -9.344819,-4.180593 -9.344819,-9.327953 0,-5.14736 4.194688,-9.339791 9.344819,-9.33979 z m 0,0.745763 c -4.740002,0 -8.58681,3.856575 -8.586811,8.594027 0,4.737452 3.84681,8.570355 8.586811,8.570353 4.740002,0 8.574965,-3.832902 8.574965,-8.570353 0,-4.737451 -3.834963,-8.594027 -8.574965,-8.594027 z m -0.04737,2.391175 c 3.393674,2e-6 6.146972,2.73998 6.146972,6.131827 2e-6,3.391846 -2.753299,6.155502 -6.146972,6.155502 -3.393674,1e-6 -6.158816,-2.763655 -6.158816,-6.155502 2e-6,-3.391849 2.765142,-6.131827 6.158816,-6.131827 z" />
</defs>
<acyl-settings>
<linearGradient
     id="linearGradient4321">
    <stop
       style="stop-color:#FF6100;stop-opacity:1.0;"
       offset="0.0"
       id="stop1" />
  </linearGradient>
<linearGradient
     inkscape:collect="always"
     xlink:href="#linearGradient4321"
     id="acyl_gradient"
     x1="50.0%"
     y1="0.0%"
     x2="50.0%"
     y2="100.0%" />
<filter id="filter1111" x="-50%" y="-50%" width="200%" height="200%">
	<feImage
	id="feImage2"
	xlink:href="#1"
	result="result1" />
	<feComposite
	id="feComposite3633"
	in="result1"
	in2="SourceAlpha"
	operator="out" />
</filter>
<defs>
<use id="1" transform="translate(22.5,22.5) scale(1) translate(-22.5,-22.5)" style="stroke-opacity:1;stroke:url(#acyl_gradient);stroke-width:4" xlink:href="#path-main" />
</defs>
<use id="2" transform="translate(22.5,22.5) scale(1) translate(-22.5,-22.5)" style="fill:url(#acyl_gradient);filter:url(#filter1111)" xlink:href="#path-main" />
</acyl-settings>
</svg>
