<svg xmlns="http://www.w3.org/2000/svg" width="48" height="48">
<defs>
  <path
     d="m 11.261815,9.8627002 c -0.870201,-0.0042 -1.555357,0.04573 -2.347347,0.6123508 -0.640638,0.458336 -0.829532,2.023865 0.204117,2.832125 l 12.884893,10.078283 c 0.523414,0.409281 1.206643,0.612352 1.888084,0.612352 0.681441,0 1.36467,-0.203071 1.888083,-0.612352 L 38.664539,13.307176 c 1.033647,-0.80826 0.844753,-2.373789 0.204119,-2.832125 -0.791993,-0.5666178 -1.477512,-0.6378658 -2.347349,-0.6123508 -8.827894,0.2589448 -16.027526,0.04486 -25.259494,0 z M 43.053059,15.093201 26.494055,28.054639 c -1.452314,1.135631 -3.790945,1.135631 -5.243259,0 L 4.717309,15.131473 C 3.166554,15.416045 2,16.77464 2,18.410104 l 0,12.030153 c 2.20439,-2.265745 5.47819,-3.541096 9.61902,-4.61815 -5.108114,3.97523 -9.062245,8.264406 -7.960568,13.918234 0.492174,0.28665 1.058733,0.44651 1.671209,0.44651 l 2.985213,0 c 0.0016,-4.162872 2.518557,-7.52683 6.416932,-11.302987 -1.664631,3.998711 -2.812966,7.868818 -2.270803,11.302987 l 21.789503,0 c 1.130955,-3.047269 0.63673,-6.398584 -0.459264,-9.567991 3.397681,3.935821 5.17093,6.355036 4.745724,9.567991 l 3.023487,0 c 2.283686,-4.846705 -0.0873,-9.933545 -3.559295,-15.079153 3.868585,2.481656 6.716101,4.862427 7.998842,8.011597 l 0,-14.709191 c 0,-1.715389 -1.283125,-3.129885 -2.946941,-3.316903 z"
     id="path-main"
      />
</defs>
<acyl-settings>
<linearGradient
     id="linearGradient4321">
    <stop
       style="stop-color:#FF6100;stop-opacity:1.0;"
       offset="0.0"
       id="stop1" />
  </linearGradient>
<linearGradient
     inkscape:collect="always"
     xlink:href="#linearGradient4321"
     id="acyl_gradient"
     x1="50.0%"
     y1="0.0%"
     x2="50.0%"
     y2="100.0%" />
<filter id="filter1111" x="-50%" y="-50%" width="200%" height="200%">
	<feImage
	id="feImage2"
	xlink:href="#1"
	result="result1" />
	<feComposite
	id="feComposite3633"
	in="result1"
	in2="SourceAlpha"
	operator="out" />
</filter>
<defs>
<use id="1" transform="translate(22.5,22.5) scale(1) translate(-22.5,-22.5)" style="stroke-opacity:1;stroke:url(#acyl_gradient);stroke-width:4" xlink:href="#path-main" />
</defs>
<use id="2" transform="translate(22.5,22.5) scale(1) translate(-22.5,-22.5)" style="fill:url(#acyl_gradient);filter:url(#filter1111)" xlink:href="#path-main" />
</acyl-settings>
</svg>
