<svg xmlns="http://www.w3.org/2000/svg" width="48" height="48">
<defs>
  <path
     d="M 32.46875 3.625 L 23.625 11.0625 L 15.09375 4 L 2.46875 11.9375 L 10.71875 18.84375 L 2.34375 26.21875 L 10.875 31.625 L 10.75 36.1875 L 24.21875 43.90625 L 36.84375 35.78125 L 36.75 32.25 L 45.65625 26.34375 L 37.0625 19.03125 L 45.65625 11.5 L 32.46875 3.625 z M 27 16.1875 C 31.726366 17.784286 34.284286 22.961133 32.6875 27.6875 C 32.172474 29.211936 31.278328 30.492099 30.15625 31.5 L 31.09375 32.90625 L 24.71875 33.375 L 27.53125 27.625 L 28.4375 29 C 29.045438 28.376752 29.543974 27.606063 29.84375 26.71875 C 30.921595 23.52841 29.221589 20.109095 26.03125 19.03125 L 27 16.1875 z M 23.3125 16.28125 L 20.78125 22.15625 L 19.6875 20.65625 C 19.111006 21.266602 18.632486 21.989115 18.34375 22.84375 C 17.265905 26.03409 18.965911 29.453405 22.15625 30.53125 L 21.1875 33.375 C 16.461134 31.778214 13.903214 26.601367 15.5 21.875 C 15.987705 20.431431 16.836459 19.202508 17.875 18.21875 L 16.9375 17.03125 L 20.0625 16.65625 L 23.3125 16.28125 z "
     id="path-main" />
</defs>
<acyl-settings>
<linearGradient
     id="linearGradient4321">
    <stop
       style="stop-color:#FF6100;stop-opacity:1.0;"
       offset="0.0"
       id="stop1" />
  </linearGradient>
<linearGradient
     inkscape:collect="always"
     xlink:href="#linearGradient4321"
     id="acyl_gradient"
     x1="50.0%"
     y1="0.0%"
     x2="50.0%"
     y2="100.0%" />
<filter id="filter1111" x="-50%" y="-50%" width="200%" height="200%">
	<feImage
	id="feImage2"
	xlink:href="#1"
	result="result1" />
	<feComposite
	id="feComposite3633"
	in="result1"
	in2="SourceAlpha"
	operator="out" />
</filter>
<defs>
<use id="1" transform="translate(22.5,22.5) scale(1) translate(-22.5,-22.5)" style="stroke-opacity:1;stroke:url(#acyl_gradient);stroke-width:4" xlink:href="#path-main" />
</defs>
<use id="2" transform="translate(22.5,22.5) scale(1) translate(-22.5,-22.5)" style="fill:url(#acyl_gradient);filter:url(#filter1111)" xlink:href="#path-main" />
</acyl-settings>
</svg>
