<svg xmlns="http://www.w3.org/2000/svg" width="48" height="48">
<defs>
<defs
     id="defs5">
  </defs>
  <path
     d="m 21.353653,43.150495 c -2.422469,-2.528515 -2.604124,-3.125786 -1.612566,-5.30202 0.614591,-1.34888 1.117437,-4.602367 1.117437,-7.229974 l 0,-4.777465 -3.34505,0.627535 c -2.786319,0.522716 -3.659102,0.250557 -5.225242,-1.629384 -2.9113717,-3.49471 -2.4371397,-4.646483 1.91314,-4.646483 3.517049,0 3.76974,-0.162924 2.867478,-1.848816 -0.5442,-1.016847 -0.989455,-3.964891 -0.989455,-6.551207 0,-3.6666839 0.516253,-5.2594407 2.343924,-7.2315315 2.502194,-2.6999116 6.763062,-3.3494527 10.134756,-1.5449758 4.131545,2.2111356 5.795791,9.9250883 3.344875,15.5038343 -0.623722,1.419707 -0.213424,1.672696 2.712786,1.672696 3.805707,0 4.537347,1.826816 2.047734,5.11295 -1.087805,1.435833 -2.068714,1.644295 -5.226644,1.110767 l -3.887521,-0.656793 0,4.035381 c 0,2.219459 0.499871,5.703802 1.110826,7.742985 1.013955,3.384281 0.916073,3.914905 -1.122441,6.084804 C 26.309395,44.930262 25.029751,46 24.69404,46 24.358328,46 22.855154,44.717723 21.353653,43.150495 z m 5.043411,-30.604398 c -0.183861,-2.185052 -0.770802,-3.3453894 -1.692218,-3.3453894 -2.146789,0 -3.242737,4.3036414 -1.947255,7.6466054 1.082058,2.792227 1.148087,2.817311 2.516095,0.955826 0.782704,-1.065047 1.28021,-3.393209 1.123378,-5.257042 z"
     id="path-main" />
</defs>
<acyl-settings>
<linearGradient
     id="linearGradient4321">
    <stop
       style="stop-color:#FF6100;stop-opacity:1.0;"
       offset="0.0"
       id="stop1" />
  </linearGradient>
<linearGradient
     inkscape:collect="always"
     xlink:href="#linearGradient4321"
     id="acyl_gradient"
     x1="50.0%"
     y1="0.0%"
     x2="50.0%"
     y2="100.0%" />
<filter id="filter1111" x="-50%" y="-50%" width="200%" height="200%">
	<feImage
	id="feImage2"
	xlink:href="#1"
	result="result1" />
	<feComposite
	id="feComposite3633"
	in="result1"
	in2="SourceAlpha"
	operator="out" />
</filter>
<defs>
<use id="1" transform="translate(22.5,22.5) scale(1) translate(-22.5,-22.5)" style="stroke-opacity:1;stroke:url(#acyl_gradient);stroke-width:4" xlink:href="#path-main" />
</defs>
<use id="2" transform="translate(22.5,22.5) scale(1) translate(-22.5,-22.5)" style="fill:url(#acyl_gradient);filter:url(#filter1111)" xlink:href="#path-main" />
</acyl-settings>
</svg>
