<svg xmlns="http://www.w3.org/2000/svg" width="48" height="48">
<defs>
    <path
         d="M 41.146967,6.2555864 C 40.982756,6.126268 40.773482,6.0691818 40.567619,6.105364 C 40.361757,6.1415447 40.178803,6.2675712 40.06853,6.445133 L 36.767929,11.655916 L 34.599683,12.359395 L 32.821778,11.192801 L 32.476261,9.0046256 L 35.745562,3.7602661 C 35.878614,3.5548435 35.898272,3.3051597 35.80188,3.0801918 C 35.705491,2.855221 35.505714,2.6845249 35.265205,2.6391576 C 31.878753,2.1443745 28.225898,3.8520685 26.416986,6.7460729 C 24.608074,9.6400773 24.829393,12.672208 26.148089,15.343465 L 10.820769,39.359966 C 9.4945755,41.481692 10.136227,44.287556 12.257954,45.61375 C 14.37968,46.939944 17.219118,46.266988 18.545314,44.145265 L 33.805482,20.191366 C 36.797401,20.219055 39.782373,18.891405 41.48136,16.173268 C 43.407312,13.092015 43.231953,9.2508031 41.303475,6.4234666 C 41.260424,6.3596513 41.207611,6.3030013 41.146967,6.2555864 z"
       id="path-main"/>
</defs>
<acyl-settings>
<linearGradient
     id="linearGradient4321">
    <stop
       style="stop-color:#FF6100;stop-opacity:1.0;"
       offset="0.0"
       id="stop1" />
  </linearGradient>
<linearGradient
     inkscape:collect="always"
     xlink:href="#linearGradient4321"
     id="acyl_gradient"
     x1="50.0%"
     y1="0.0%"
     x2="50.0%"
     y2="100.0%" />
<filter id="filter1111" x="-50%" y="-50%" width="200%" height="200%">
	<feImage
	id="feImage2"
	xlink:href="#1"
	result="result1" />
	<feComposite
	id="feComposite3633"
	in="result1"
	in2="SourceAlpha"
	operator="out" />
</filter>
<defs>
<use id="1" transform="translate(22.5,22.5) scale(1) translate(-22.5,-22.5)" style="stroke-opacity:1;stroke:url(#acyl_gradient);stroke-width:4" xlink:href="#path-main" />
</defs>
<use id="2" transform="translate(22.5,22.5) scale(1) translate(-22.5,-22.5)" style="fill:url(#acyl_gradient);filter:url(#filter1111)" xlink:href="#path-main" />
</acyl-settings>
</svg>
