<svg xmlns="http://www.w3.org/2000/svg" width="48" height="48">
<defs>
<defs
     id="defs3">
  </defs>
  <path
     d="M 45.565389,5.9432546 C 44.44806,5.6664302 41.380766,12.684869 38.666711,15.160576 33.238598,19.741471 23.421876,21.341265 11.014749,7.0596387 c 0,0 1.766913,8.4483323 2.805271,10.7058323 -1.58943,0.283695 -2.871204,1.48743 -3.349151,3.062898 -0.8905174,-0.557005 -1.8208028,-0.949105 -2.8052711,-1.059133 -1.9843589,-0.22178 -3.606285,0.676296 -4.55141,2.118267 -0.9451249,1.441971 -1.3230323,3.437105 -1.0018827,5.696418 0.3211495,2.259313 1.2699513,4.393973 2.6621455,6.097172 1.3857397,1.695302 3.3209612,3.003971 5.2956653,3.23465 0.0092,0.0011 0.01943,-10e-4 0.02862,0 0.05113,0.04456 0.08488,0.105497 0.143126,0.143126 3.131657,1.926414 7.666905,3.132402 14.398486,3.492277 0.02862,8.59e-4 0.05726,8.59e-4 0.08588,0 1.275846,0 2.195302,-0.431939 2.862522,-0.60113 0.307741,-0.08106 0.579694,-0.262362 0.772881,-0.515253 0.345311,-0.450475 0.654374,-0.931799 0.944632,-1.431262 4.018099,-2.045573 6.788868,-6.317436 7.557058,-8.55894 1.210334,-3.621387 7.660535,-9.174056 8.530316,-15.371744 0.799677,-5.8355913 0.757019,-7.9845591 0.171751,-8.1295624 z M 14.535651,19.454359 c 1.445628,-1e-6 2.604895,1.183718 2.604895,2.690771 0,1.507054 -1.159267,2.748021 -2.604895,2.748021 -0.120102,0 -0.227734,-0.01234 -0.343503,-0.02863 -0.366342,-0.668328 -0.785549,-1.309425 -1.25951,-1.889264 -0.301283,-0.368588 -0.628914,-0.70693 -0.973257,-1.030508 0.101256,-1.407589 1.197477,-2.490394 2.57627,-2.490394 z m 7.986436,0.372128 c 2.022287,0 3.664028,1.69894 3.664028,3.807154 10e-7,2.108214 -1.64174,3.835779 -3.664028,3.835779 -2.022288,0 -3.664028,-1.727565 -3.664028,-3.835779 0,-2.108214 1.64174,-3.807154 3.664028,-3.807154 z m -8.587566,1.832014 c -0.505636,0 -0.916007,0.445444 -0.916007,1.001883 0,0.556438 0.410371,1.001882 0.916007,1.001882 0.505636,0 0.916007,-0.445444 0.916007,-1.001882 0,-0.556439 -0.410371,-1.001883 -0.916007,-1.001883 z m 8.558941,0.916007 c -0.737289,0 -1.345385,0.599523 -1.345385,1.345385 0,0.745863 0.608096,1.345386 1.345385,1.345386 0.737289,0 1.345385,-0.599524 1.345385,-1.345386 0,-0.745862 -0.608096,-1.345385 -1.345385,-1.345385 z m -14.7706136,0.05725 c 0.1146425,-0.0032 0.2260012,-0.01313 0.3435026,0 0.9400113,0.105059 1.9128474,0.74023 2.805272,1.832014 0.02934,0.03589 0.05694,0.07766 0.08588,0.114501 0.162533,0.258243 0.335109,0.526615 0.543879,0.744256 0.594818,0.975791 1.022326,2.169181 1.202259,3.435026 0.238207,1.675811 -0.05254,3.111825 -0.65838,4.036156 -0.605844,0.924333 -1.435882,1.307318 -2.3758933,1.20226 C 8.7293524,33.89091 7.7278907,33.312991 6.8354665,32.221207 5.9430422,31.129422 5.2416601,29.57461 5.0034524,27.898799 4.7652446,26.22299 5.0559886,24.8156 5.6618325,23.891268 6.1919458,23.082479 6.9203503,22.654472 7.7228484,22.631758 z M 28.104005,33.394841 c -0.403491,1.372692 -1.000765,2.800985 -1.774764,3.921655 -0.605527,0.176335 -1.1804,0.367234 -1.574387,0.372128 -0.0113,-6.15e-4 -0.01734,6.21e-4 -0.02863,0 -2.342979,-0.128908 -4.085478,-0.446973 -5.839545,-0.772881 0.633846,-0.0827 1.186251,-0.07282 1.832014,-0.200376 2.626665,-0.518827 5.295783,-1.566655 7.385307,-3.320526 z"
     id="path-main"
      />
</defs>
<acyl-settings>
<linearGradient
     id="linearGradient4321">
    <stop
       style="stop-color:#FF6100;stop-opacity:1.0;"
       offset="0.0"
       id="stop1" />
  </linearGradient>
<linearGradient
     inkscape:collect="always"
     xlink:href="#linearGradient4321"
     id="acyl_gradient"
     x1="50.0%"
     y1="0.0%"
     x2="50.0%"
     y2="100.0%" />
<filter id="filter1111" x="-50%" y="-50%" width="200%" height="200%">
	<feImage
	id="feImage2"
	xlink:href="#1"
	result="result1" />
	<feComposite
	id="feComposite3633"
	in="result1"
	in2="SourceAlpha"
	operator="out" />
</filter>
<defs>
<use id="1" transform="translate(22.5,22.5) scale(1) translate(-22.5,-22.5)" style="stroke-opacity:1;stroke:url(#acyl_gradient);stroke-width:4" xlink:href="#path-main" />
</defs>
<use id="2" transform="translate(22.5,22.5) scale(1) translate(-22.5,-22.5)" style="fill:url(#acyl_gradient);filter:url(#filter1111)" xlink:href="#path-main" />
</acyl-settings>
</svg>
