<svg xmlns="http://www.w3.org/2000/svg" width="48" height="48">
<defs>
	<path
   d="m 19.460293,7.2567731 c -9.6276059,0 -17.4602929,7.8326879 -17.4602929,17.4602929 0,9.627605 7.8326877,17.460293 17.4602929,17.460293 6.874466,0 13.135815,-4.068074 15.94343,-10.36705 0.04854,-0.108253 0.03151,-0.238769 -0.03274,-0.338293 -0.0646,-0.09883 -0.176262,-0.152777 -0.294643,-0.152777 l -6.438483,0 c -0.109301,-1e-6 -0.21773,0.044 -0.28373,0.130952 -2.110601,2.777584 -5.434952,4.441462 -8.893836,4.441462 -6.161738,0 -11.1745875,-5.012851 -11.1745875,-11.174587 -4e-7,-6.161737 5.0128505,-11.174588 11.1745875,-11.174588 3.609042,0 7.02253,1.767157 9.123003,4.736105 0.06565,0.09254 0.170238,0.152777 0.283729,0.152777 l 6.351182,0 c 0.116983,10e-7 0.218777,-0.055 0.28373,-0.152777 0.0646,-0.09743 0.07848,-0.219476 0.03274,-0.327381 C 32.828679,11.557593 26.369679,7.2567731 19.460293,7.2567731 z M 38.317409,17.383743 c -0.03412,0.0031 -0.06539,0.0084 -0.09821,0.02182 -0.130952,0.05378 -0.218254,0.185952 -0.218254,0.32738 0,1e-6 0,3.25425 0,3.841265 -0.670126,0 -12.571411,0 -12.571411,0 -0.19311,0 -0.349205,0.156444 -0.349205,0.349206 l 0,5.903761 c 0,0.19311 0.156095,0.349206 0.349205,0.349206 1e-6,-1e-6 11.901285,0 12.571411,0 0,0.587014 0,3.841264 0,3.841264 0,0.138984 0.07918,0.261294 0.207341,0.316468 0.128159,0.05517 0.280325,0.02986 0.381944,-0.06548 l 7.300585,-6.87499 c 0.06809,-0.0646 0.10773,-0.156706 0.109127,-0.250992 0.0017,-0.09394 -0.03223,-0.183944 -0.09821,-0.250992 L 38.601139,17.49287 c -0.07464,-0.07543 -0.181343,-0.118458 -0.28373,-0.109127 z"
   id="path-main"
    />
</defs>
<acyl-settings>
<linearGradient
     id="linearGradient4321">
    <stop
       style="stop-color:#FF6100;stop-opacity:1.0;"
       offset="0.0"
       id="stop1" />
  </linearGradient>
<linearGradient
     inkscape:collect="always"
     xlink:href="#linearGradient4321"
     id="acyl_gradient"
     x1="50.0%"
     y1="0.0%"
     x2="50.0%"
     y2="100.0%" />
<filter id="filter1111" x="-50%" y="-50%" width="200%" height="200%">
	<feImage
	id="feImage2"
	xlink:href="#1"
	result="result1" />
	<feComposite
	id="feComposite3633"
	in="result1"
	in2="SourceAlpha"
	operator="out" />
</filter>
<defs>
<use id="1" transform="translate(22.5,22.5) scale(1) translate(-22.5,-22.5)" style="stroke-opacity:1;stroke:url(#acyl_gradient);stroke-width:4" xlink:href="#path-main" />
</defs>
<use id="2" transform="translate(22.5,22.5) scale(1) translate(-22.5,-22.5)" style="fill:url(#acyl_gradient);filter:url(#filter1111)" xlink:href="#path-main" />
</acyl-settings>
</svg>
