<svg xmlns="http://www.w3.org/2000/svg" width="48" height="48">
<defs>
  <path
     d="M 7.0902756,2.0000017 C 5.1931683,1.99821 3.6150769,3.4359868 3.6133527,5.26154 L 3.5825837,33.2 c -6.927e-4,0.733385 0.2797495,1.376892 0.7076922,1.907693 0.00544,0.0067 -0.00549,0.02407 0,0.03077 -0.2211205,0.133441 -0.4404905,0.246853 -0.6153846,0.4 -0.4633557,0.405739 -0.7692308,0.922903 -0.7692307,1.507692 0,0.361148 0.1400983,0.685368 0.3384615,0.984616 -0.2083747,0.303488 -0.3384617,0.645586 -0.3384617,1.015383 0,0.337381 0.1018032,0.639127 0.2769231,0.923077 -0.1715145,0.279437 -0.2769231,0.590819 -0.2769231,0.923077 0,0.306454 0.099513,0.598532 0.2461538,0.861538 -0.1501958,0.26376 -0.2461538,0.552443 -0.2461538,0.861539 0,0.58479 0.305875,1.101953 0.7692307,1.507692 0.4633558,0.405739 1.1022614,0.709099 1.8461538,0.984615 C 7.0088299,45.658724 8.9824611,46 11.182583,46 c 2.200122,0 4.204522,-0.341276 5.692307,-0.892308 0.743893,-0.275516 1.352029,-0.578876 1.815385,-0.984615 0.463356,-0.405739 0.8,-0.922902 0.8,-1.507692 0,-0.292194 -0.0985,-0.582908 -0.246154,-0.830769 0.161466,-0.268114 0.246154,-0.578471 0.246154,-0.892308 0,-0.327805 -0.126928,-0.620198 -0.307693,-0.892308 0.195105,-0.29147 0.307693,-0.604921 0.307693,-0.953846 0,-0.113826 -0.03607,-0.231423 -0.06154,-0.338461 0.03212,0.0012 0.05962,-3.1e-5 0.09231,0 l 20.676922,0.03077 c 1.897103,0.0018 3.475196,-1.435989 3.476923,-3.261539 L 43.70566,7.538464 C 43.70736,5.7117946 42.130831,4.2479529 40.228738,4.2461564 l -9.2,0 C 30.556568,2.9440802 29.248463,2.0321988 27.736428,2.0307709 L 7.0902756,2.0000017 z m 0,0.9846153 20.6461524,0.030769 c 0.954789,9.018e-4 1.642122,0.5362712 2.061539,1.2307692 l -10.246154,0 c -0.474275,-4.479e-4 -0.939092,0.08309 -1.353846,0.2461539 -0.207377,0.081532 -0.399486,0.1914451 -0.584615,0.3076923 -0.925645,0.5812354 -1.537385,1.5667222 -1.538462,2.7076922 l 0,6.6769234 c -0.478992,-0.227692 -0.940402,-0.333484 -1.384615,-0.338462 -1.800763,-0.02018 -3.20935,1.588093 -3.230769,3.507692 -0.02712,2.369288 1.313592,3.480084 4.584615,6.246154 l 0,10.676923 c -1.370708,-0.392838 -3.040986,-0.646154 -4.861538,-0.646154 -2.2001225,0 -4.1737531,0.341275 -5.6615381,0.892307 C 5.419991,34.560507 5.341124,34.606527 5.2441218,34.646154 4.8515091,34.245724 4.5666596,33.770828 4.5671988,33.2 L 4.597968,5.26154 C 4.5991582,4.0013891 5.6812691,2.9832863 7.0902756,2.984617 z m 12.4615374,2.2461538 11.107692,0 9.569231,0 c 1.404012,0.00133 2.493497,1.0486646 2.492307,2.3076922 l -0.03077,27.93846 c -0.0012,1.260149 -1.083306,2.278255 -2.492308,2.276923 l -20.676922,-0.03077 c -0.0639,-6e-5 -0.123604,-0.01772 -0.184615,-0.03077 0.0885,-0.203333 0.153846,-0.420075 0.153846,-0.646154 0,-0.438593 -0.202149,-0.825195 -0.492308,-1.169231 -0.09446,-0.113302 -0.192871,-0.237772 -0.307692,-0.338461 -0.01699,-0.01488 -0.04416,-0.01608 -0.06154,-0.03077 -0.09468,-0.07976 -0.194593,-0.175447 -0.307692,-0.246154 -0.0068,-0.0047 -0.02396,0.0047 -0.03077,0 -0.357301,-0.244721 -0.78161,-0.488395 -1.261539,-0.676923 l 0.03077,-27.0769222 c 1.48e-4,-0.1575183 0.02908,-0.3131023 0.06154,-0.4615385 0.227184,-1.039053 1.197894,-1.8165489 2.430769,-1.8153845 z m -11.9076912,0.4615384 0,7.2307688 1.876923,0 0,-2.830769 2.8923072,2.830769 2.338461,0 -3.846153,-3.8153843 3.476923,-3.4153845 -2.153846,0 -2.7076922,2.6461538 0,-2.6461538 -1.876923,0 z m 14.3384602,2.5230769 0,3.1076919 c -2e-6,1.165168 -0.168781,1.753847 -0.953846,1.753846 -0.365892,10e-7 -0.689772,-0.114662 -0.984615,-0.338461 l 0,2.153846 c 0.341023,0.138541 0.706277,0.184614 1.107692,0.184615 0.898739,-10e-7 1.589076,-0.256492 2.061539,-0.8 0.476009,-0.543506 0.707687,-1.346155 0.707692,-2.36923 l 0,-3.6923079 -1.938462,0 z m 7.846154,6.8923069 c -4.384831,3.775521 -5.938564,5.702671 -5.907692,8.4 0.02797,2.50683 3.89372,3.612488 4.953846,0.461539 0.105359,2.074564 -0.892308,2.08205 -0.892308,2.892307 0.656412,0 3.251282,-0.03077 3.907692,-0.03077 0,-0.748717 -1.160213,-0.773923 -0.984615,-2.892308 1.462262,3.469068 4.856896,1.655653 4.830769,-0.492307 -0.02765,-2.273406 -1.695831,-4.307631 -5.907692,-8.338462 z m 8.738461,12.8 c -0.898739,1e-6 -1.589077,0.287262 -2.061538,0.830769 -0.47601,0.543507 -0.707688,1.315387 -0.707693,2.338462 l 0,3.692307 1.938462,0 0,-3.107692 c 2e-6,-1.165169 0.168782,-1.753846 0.953846,-1.753846 0.365892,-10e-7 0.689772,0.114662 0.984615,0.338461 l 0,-2.123076 c -0.341023,-0.138542 -0.706278,-0.215384 -1.107692,-0.215385 z m -27.384614,6.769231 c 1.048798,0 2.051356,0.0769 2.953846,0.215384 0.44277,0.07014 0.870162,0.149073 1.261538,0.246154 0.397444,0.09807 0.775532,0.21544 1.107692,0.338461 0.296028,0.111285 0.569259,0.211471 0.8,0.338462 0.0294,0.0157 0.06396,0.04571 0.09231,0.06154 0.220602,0.128406 0.432047,0.271481 0.584616,0.4 0.0096,0.0081 0.02152,0.02267 0.03077,0.03077 0.154574,0.134939 0.265806,0.25237 0.338461,0.36923 0.0035,0.0055 -0.0034,0.02527 0,0.03077 0.03169,0.05452 0.0762,0.102329 0.09231,0.153846 0.02318,0.06519 0.03077,0.124808 0.03077,0.184615 0,0.05277 -0.01283,0.0969 -0.03077,0.153846 -0.05382,0.170841 -0.187622,0.371702 -0.430769,0.584616 -0.324197,0.283884 -0.843373,0.553955 -1.507693,0.8 -1.328639,0.492089 -3.225479,0.830769 -5.323076,0.830769 -2.0975965,0 -3.9944368,-0.33868 -5.3230766,-0.830769 -0.6643198,-0.246045 -1.1834962,-0.516117 -1.5076922,-0.8 C 4.0276232,37.500734 3.92105,37.25724 3.92105,37.046156 c 0,-0.211083 0.1065731,-0.454578 0.4307692,-0.738461 0.1734931,-0.15192 0.3993894,-0.310903 0.676923,-0.461539 0.2154031,-0.116913 0.4685581,-0.234087 0.7384616,-0.338461 0.03217,-0.01244 0.05942,-0.01859 0.092308,-0.03077 0.027895,-0.01033 0.063915,-0.0206 0.092308,-0.03077 0.3096918,-0.110907 0.6513184,-0.217861 1.0153846,-0.307692 1.1923311,-0.2942 2.6421868,-0.461538 4.2153846,-0.461538 z m 7.230769,4.092307 c 0.04315,0.08907 0.06154,0.198733 0.06154,0.276923 0,0.211087 -0.137342,0.423809 -0.461538,0.707692 -0.324197,0.283886 -0.843373,0.584725 -1.507693,0.83077 -1.328639,0.492091 -3.225479,0.830769 -5.323076,0.830769 -2.0975962,2e-6 -3.9944369,-0.33868 -5.3230766,-0.830769 C 5.1951866,40.338573 4.6760102,40.03773 4.3518142,39.753846 4.0276182,39.469965 3.921045,39.257238 3.921045,39.046154 c 0,-0.07 0.031621,-0.167381 0.061538,-0.246154 0.4209025,0.295611 0.953266,0.552492 1.5384615,0.769231 1.4877851,0.551032 3.4614158,0.861538 5.6615385,0.861538 2.200122,0 4.204522,-0.310506 5.692307,-0.861538 0.605446,-0.224239 1.117294,-0.491677 1.538462,-0.8 z m 0.03077,1.969231 c 0.01556,0.05111 0.03077,0.106774 0.03077,0.153846 0,0.211087 -0.137342,0.423809 -0.461538,0.707692 -0.324197,0.283885 -0.843373,0.584725 -1.507693,0.830769 -1.328639,0.492091 -3.225479,0.83077 -5.323076,0.83077 -2.0975962,2e-6 -3.9944369,-0.338681 -5.3230766,-0.83077 C 5.1951866,42.184727 4.6760102,41.883883 4.3518142,41.6 4.0276182,41.316119 3.921045,41.103392 3.921045,40.892308 c 0,-0.03819 0.022226,-0.08221 0.030769,-0.123077 0.4272891,0.299316 0.9666778,0.546063 1.5692307,0.769231 1.487785,0.551034 3.4614162,0.892307 5.6615383,0.892307 2.200122,2e-6 4.204522,-0.341275 5.692307,-0.892307 0.619911,-0.229596 1.143093,-0.488597 1.569231,-0.8 z M 3.921045,42.584616 c 0.4332602,0.311403 0.9800895,0.570403 1.5999999,0.799999 1.487785,0.551035 3.4614162,0.892308 5.6615381,0.892308 2.200122,2e-6 4.204522,-0.341275 5.692307,-0.892308 0.629829,-0.233269 1.170281,-0.481572 1.6,-0.799999 4.69e-4,0.0083 0,0.02258 0,0.03077 0,0.211085 -0.137342,0.423809 -0.461538,0.707692 -0.324197,0.283883 -0.843373,0.584725 -1.507693,0.830769 -1.328639,0.492089 -3.225479,0.830769 -5.323076,0.830769 -2.0975962,0 -3.9944369,-0.33868 -5.3230766,-0.830769 C 5.1951866,43.907802 4.6760102,43.60696 4.3518142,43.323077 4.0276182,43.039194 3.921045,42.826469 3.921045,42.615385 c 0,-0.0082 -3.773e-4,-0.02245 0,-0.03077 z"
     id="path-main"
      />
</defs>
<acyl-settings>
<linearGradient
     id="linearGradient4321">
    <stop
       style="stop-color:#FF6100;stop-opacity:1.0;"
       offset="0.0"
       id="stop1" />
  </linearGradient>
<linearGradient
     inkscape:collect="always"
     xlink:href="#linearGradient4321"
     id="acyl_gradient"
     x1="50.0%"
     y1="0.0%"
     x2="50.0%"
     y2="100.0%" />
<filter id="filter1111" x="-50%" y="-50%" width="200%" height="200%">
	<feImage
	id="feImage2"
	xlink:href="#1"
	result="result1" />
	<feComposite
	id="feComposite3633"
	in="result1"
	in2="SourceAlpha"
	operator="out" />
</filter>
<defs>
<use id="1" transform="translate(22.5,22.5) scale(1) translate(-22.5,-22.5)" style="stroke-opacity:1;stroke:url(#acyl_gradient);stroke-width:4" xlink:href="#path-main" />
</defs>
<use id="2" transform="translate(22.5,22.5) scale(1) translate(-22.5,-22.5)" style="fill:url(#acyl_gradient);filter:url(#filter1111)" xlink:href="#path-main" />
</acyl-settings>
</svg>
