<svg xmlns="http://www.w3.org/2000/svg" width="48" height="48">
<defs>
  <path
     d="M 6.2682292,2 C 3.9068041,2 2,3.9068041 2,6.2682292 L 2,26.348958 c 0,2.361425 1.9068041,4.239584 4.2682292,4.239584 l 8.9374998,0 0,11.143229 C 15.205729,44.093196 17.112533,46 19.473958,46 l 22.257813,0 C 44.093196,46 45.999998,44.093197 46,41.731771 l 0,-20.080729 c 0,-2.361425 -1.906804,-4.239584 -4.268229,-4.239584 l -8.9375,0 0,-11.1432288 C 32.794271,3.9068041 30.887467,2 28.526042,2 L 6.2682292,2 z m 1.5182291,3.2942708 19.2499997,0 c 1.37115,0 2.463542,1.1210375 2.463542,2.4921875 l 0,9.6249997 -3.294271,0 0,-8.822916 -17.6171873,0 0,15.411458 6.6171873,0 0,3.294271 -7.4192707,0 c -1.3711502,0 -2.4921875,-1.092392 -2.4921875,-2.463542 l 0,-17.0442707 c 0,-1.3711502 1.1210375,-2.4921875 2.4921875,-2.4921875 z m 13.1770837,15.4114582 19.25,0 c 1.371149,0 2.492187,1.092392 2.492187,2.463542 l 0,17.044271 c -2e-6,1.371149 -1.121037,2.492187 -2.492187,2.492187 l -19.25,0 C 19.592391,42.705727 18.5,41.584692 18.5,40.213542 l 0,-17.044271 c 0,-1.371151 1.092392,-2.463542 2.463542,-2.463542 z M 21.794271,24 l 0,15.411458 17.617187,0 0,-15.411458 -17.617187,0 z"
     id="path-main"
      />
</defs>
<acyl-settings>
<linearGradient
     id="linearGradient4321">
    <stop
       style="stop-color:#FF6100;stop-opacity:1.0;"
       offset="0.0"
       id="stop1" />
  </linearGradient>
<linearGradient
     inkscape:collect="always"
     xlink:href="#linearGradient4321"
     id="acyl_gradient"
     x1="50.0%"
     y1="0.0%"
     x2="50.0%"
     y2="100.0%" />
<filter id="filter1111" x="-50%" y="-50%" width="200%" height="200%">
	<feImage
	id="feImage2"
	xlink:href="#1"
	result="result1" />
	<feComposite
	id="feComposite3633"
	in="result1"
	in2="SourceAlpha"
	operator="out" />
</filter>
<defs>
<use id="1" transform="translate(22.5,22.5) scale(1) translate(-22.5,-22.5)" style="stroke-opacity:1;stroke:url(#acyl_gradient);stroke-width:4" xlink:href="#path-main" />
</defs>
<use id="2" transform="translate(22.5,22.5) scale(1) translate(-22.5,-22.5)" style="fill:url(#acyl_gradient);filter:url(#filter1111)" xlink:href="#path-main" />
</acyl-settings>
</svg>
