<svg xmlns="http://www.w3.org/2000/svg" width="48" height="48">
<defs>
  <path
     d="M 22.222918,2.001128 A 1.0166923,1.0166659 0 0 0 21.368817,2.676126 L 19.77082,7.139379 a 1.0166923,1.0166659 0 0 0 -0.06888,0.399488 l 0.01378,0.192857 C 18.229971,8.122248 16.823073,8.710683 15.527868,9.467433 L 15.417658,9.343454 A 1.0166923,1.0166659 0 0 0 15.073262,9.08172 L 10.775204,7.056726 A 1.0166923,1.0166659 0 0 0 9.63181,7.263358 L 7.262367,9.632739 a 1.0166923,1.0166659 0 0 0 -0.206638,1.143364 l 2.025047,4.297947 a 1.0166923,1.0166659 0 0 0 0.261741,0.344387 L 9.4665,15.528641 c -0.75677,1.295172 -1.345221,2.702033 -1.735755,4.187743 l -0.192861,-0.01377 a 1.0166923,1.0166659 0 0 0 -0.3995,0.06888 L 2.675016,21.369449 A 1.0166923,1.0166659 0 0 0 2,22.319956 l 0,3.361215 a 1.0166923,1.0166659 0 0 0 0.675016,0.950508 l 4.463368,1.597955 a 1.0166923,1.0166659 0 0 0 0.3995,0.06888 l 0.192861,-0.01377 c 0.390534,1.48571 0.978985,2.892571 1.735755,4.187746 l -0.123983,0.1102 a 1.0166923,1.0166659 0 0 0 -0.261741,0.34439 l -2.025047,4.29794 a 1.0166923,1.0166659 0 0 0 0.206638,1.14337 l 2.369443,2.36938 a 1.0166923,1.0166659 0 0 0 1.143394,0.20663 l 4.298058,-2.02499 a 1.0166923,1.0166659 0 0 0 0.344396,-0.26174 l 0.110207,-0.12398 c 1.295205,0.75675 2.702103,1.34519 4.187852,1.73571 l -0.01378,0.19286 a 1.0166923,1.0166659 0 0 0 0.06888,0.39949 L 21.368814,45.325 A 1.0166923,1.0166659 0 0 0 22.319346,46 l 3.361302,0 a 1.0166923,1.0166659 0 0 0 0.950535,-0.675 l 1.597997,-4.463266 a 1.0166923,1.0166659 0 0 0 0.06888,-0.39949 l -0.01378,-0.19286 c 1.485749,-0.39052 2.892647,-0.97896 4.187852,-1.73571 l 0.11021,0.12398 a 1.0166923,1.0166659 0 0 0 0.344396,0.26174 l 4.298058,2.02499 a 1.0166923,1.0166659 0 0 0 1.143394,-0.20663 l 2.369443,-2.36938 a 1.0166923,1.0166659 0 0 0 0.206638,-1.14337 l -2.025047,-4.29794 a 1.0166923,1.0166659 0 0 0 -0.261741,-0.34439 l -0.123983,-0.1102 c 0.75677,-1.295175 1.345222,-2.702036 1.735755,-4.187746 l 0.192861,0.01377 a 1.0166923,1.0166659 0 0 0 0.3995,-0.06888 l 4.463368,-1.597955 A 1.0166923,1.0166659 0 0 0 46,25.681155 l 0,-3.361215 a 1.0166923,1.0166659 0 0 0 -0.675016,-0.950507 l -4.463368,-1.597955 a 1.0166923,1.0166659 0 0 0 -0.3995,-0.06888 l -0.192861,0.01377 C 39.878722,18.230674 39.29027,16.823813 38.5335,15.528641 l 0.123983,-0.110204 a 1.0166923,1.0166659 0 0 0 0.261741,-0.344387 l 2.025047,-4.297947 A 1.0166923,1.0166659 0 0 0 40.737633,9.632739 L 38.36819,7.263358 A 1.0166923,1.0166659 0 0 0 37.224796,7.056726 L 32.926738,9.08172 A 1.0166923,1.0166659 0 0 0 32.582342,9.343454 L 32.472135,9.467433 C 31.17693,8.710683 29.770032,8.122248 28.284283,7.731724 l 0.01378,-0.192857 A 1.0166923,1.0166659 0 0 0 28.229183,7.139379 L 26.631186,2.676126 A 1.0166923,1.0166659 0 0 0 25.680654,2.001128 l -3.361302,0 a 1.0166923,1.0166659 0 0 0 -0.09643,0 z m -9.243582,13.128024 5.896055,0 3.994991,10.841296 1.15717,3.609174 c 0.306509,-0.919529 0.498611,-1.525168 0.578585,-1.818362 0.186565,-0.599689 0.392892,-1.191104 0.606136,-1.790812 l 4.036318,-10.841296 5.772073,0 -8.430808,21.228002 -5.05573,0 -8.55479,-21.228002 z"
     id="path-main"
      />
</defs>
<acyl-settings>
<linearGradient
     id="linearGradient4321">
    <stop
       style="stop-color:#FF6100;stop-opacity:1.0;"
       offset="0.0"
       id="stop1" />
  </linearGradient>
<linearGradient
     inkscape:collect="always"
     xlink:href="#linearGradient4321"
     id="acyl_gradient"
     x1="50.0%"
     y1="0.0%"
     x2="50.0%"
     y2="100.0%" />
<filter id="filter1111" x="-50%" y="-50%" width="200%" height="200%">
	<feImage
	id="feImage2"
	xlink:href="#1"
	result="result1" />
	<feComposite
	id="feComposite3633"
	in="result1"
	in2="SourceAlpha"
	operator="out" />
</filter>
<defs>
<use id="1" transform="translate(22.5,22.5) scale(1) translate(-22.5,-22.5)" style="stroke-opacity:1;stroke:url(#acyl_gradient);stroke-width:4" xlink:href="#path-main" />
</defs>
<use id="2" transform="translate(22.5,22.5) scale(1) translate(-22.5,-22.5)" style="fill:url(#acyl_gradient);filter:url(#filter1111)" xlink:href="#path-main" />
</acyl-settings>
</svg>
