<svg xmlns="http://www.w3.org/2000/svg" width="48" height="48">
<defs>
  <path
     d="M 24 2 C 11.856 2 2 11.856003 2 24 C 2 34.682666 9.6473711 43.544933 19.75 45.53125 C 19.099093 45.092611 18.619153 44.501623 18.53125 43.65625 C 18.406637 42.457857 19.199827 41.481078 20.15625 40.84375 C 21.140022 40.188198 22.443914 39.717156 23.96875 39.53125 C 24.554273 39.459863 25.019823 39.56246 25.53125 39.59375 L 25.53125 33.125 C 25.030942 33.215814 24.523196 33.28125 24 33.28125 C 18.880471 33.28125 14.71875 29.119529 14.71875 24 C 14.71875 18.880467 18.880471 14.71875 24 14.71875 C 28.282353 14.71875 31.873464 17.644365 32.9375 21.59375 L 43.71875 20.53125 C 43.911605 20.51253 44.487431 20.438877 45.03125 20.96875 C 45.57507 21.498623 45.53125 21.994894 45.53125 22.1875 L 45.53125 28.40625 C 45.826404 26.977342 46 25.514809 46 24 C 46 11.856003 36.144001 2 24 2 z M 24 16.03125 C 19.594823 16.03125 16.03125 19.594823 16.03125 24 C 16.03125 28.405177 19.594823 31.96875 24 31.96875 C 24.527628 31.96875 25.035466 31.886346 25.53125 31.78125 L 25.5 29.8125 C 25.019632 29.938643 24.525377 30.03125 24 30.03125 C 20.666353 30.03125 17.96875 27.333647 17.96875 24 C 17.96875 20.666353 20.666353 17.96875 24 17.96875 C 26.592759 17.96875 28.795985 19.611087 29.65625 21.90625 L 31.59375 21.71875 C 30.605323 18.43629 27.603156 16.03125 24 16.03125 z M 43.875 22.03125 L 27.25 23.65625 C 27.126184 23.66827 27 23.798719 27 23.9375 L 27.03125 40.59375 L 27.03125 41.15625 L 26.4375 41.09375 C 25.730813 40.98464 24.993316 40.929195 24.15625 41.03125 C 22.841684 41.19152 21.725679 41.610182 21 42.09375 C 20.274321 42.577318 19.985531 43.060324 20.03125 43.5 C 20.07453 43.916228 20.485651 44.379844 21.34375 44.6875 C 22.201849 44.99516 23.439161 45.128566 24.75 44.96875 C 26.060263 44.809004 27.195896 44.385304 27.96875 43.875 C 28.741604 43.364696 29.07472 42.793027 29.03125 42.375 L 29.03125 42.34375 L 29.03125 26.625 L 29.03125 26.1875 L 29.46875 26.125 L 41.46875 24.90625 L 42.03125 24.84375 L 42.03125 25.40625 L 42.03125 38.6875 L 42.03125 39.25 L 41.4375 39.15625 C 40.7002 39.04233 40.139066 38.992905 39.3125 39.09375 C 38.003223 39.253487 36.835637 39.645896 36.0625 40.15625 C 35.289363 40.666604 34.98783 41.238436 35.03125 41.65625 C 35.07447 42.072223 35.485348 42.504817 36.34375 42.8125 C 37.202152 43.12018 38.408946 43.253552 39.71875 43.09375 C 41.028028 42.934013 42.195613 42.510354 42.96875 42 C 43.741887 41.489646 44.07467 40.949064 44.03125 40.53125 L 44.03125 40.5 L 44.03125 40.46875 L 44.03125 22.1875 C 44.03125 22.048719 43.99705 22.019403 43.875 22.03125 z M 40.53125 26.53125 L 32.65625 27.3125 C 32.183633 28.542072 31.449697 29.619684 30.53125 30.53125 L 30.53125 42.21875 L 30.53125 42.34375 L 30.53125 42.375 L 30.5 42.375 C 30.548613 43.57574 29.820225 44.418675 28.875 45.0625 L 28.78125 45.125 C 28.490551 45.316944 28.179336 45.49735 27.84375 45.65625 C 30.157601 45.243591 32.33836 44.449918 34.34375 43.375 C 33.907552 42.980384 33.599479 42.46917 33.53125 41.8125 C 33.399485 40.544572 34.196584 39.601618 35.25 38.90625 C 36.307578 38.208134 37.628994 37.776269 39.125 37.59375 C 39.661848 37.528252 40.075368 37.63038 40.53125 37.65625 L 40.53125 26.53125 z M 31.1875 27.46875 L 30.53125 27.53125 L 30.53125 28.59375 C 30.779261 28.234986 30.99888 27.866545 31.1875 27.46875 z "
     id="path-main" />
</defs>
<acyl-settings>
<linearGradient
     id="linearGradient4321">
    <stop
       style="stop-color:#FF6100;stop-opacity:1.0;"
       offset="0.0"
       id="stop1" />
  </linearGradient>
<linearGradient
     inkscape:collect="always"
     xlink:href="#linearGradient4321"
     id="acyl_gradient"
     x1="50.0%"
     y1="0.0%"
     x2="50.0%"
     y2="100.0%" />
<filter id="filter1111" x="-50%" y="-50%" width="200%" height="200%">
	<feImage
	id="feImage2"
	xlink:href="#1"
	result="result1" />
	<feComposite
	id="feComposite3633"
	in="result1"
	in2="SourceAlpha"
	operator="out" />
</filter>
<defs>
<use id="1" transform="translate(22.5,22.5) scale(1) translate(-22.5,-22.5)" style="stroke-opacity:1;stroke:url(#acyl_gradient);stroke-width:4" xlink:href="#path-main" />
</defs>
<use id="2" transform="translate(22.5,22.5) scale(1) translate(-22.5,-22.5)" style="fill:url(#acyl_gradient);filter:url(#filter1111)" xlink:href="#path-main" />
</acyl-settings>
</svg>
