<svg xmlns="http://www.w3.org/2000/svg" width="48" height="48">
<defs>
<defs
     id="defs3306">
  </defs>
  <path
     d="M 24.630208,2.0091424 A 21.999999,21.998662 0 0 0 2.0000019,24.007803 a 21.999999,21.998662 0 0 0 43.9999961,0 21.999999,21.998662 0 0 0 -21.36979,-21.9986606 z m -5.786458,3.494579 c 0.02301,-8.238e-4 0.03262,-1.804e-4 0.05729,0 0.473541,0.00392 1.272357,0.1969493 2.40625,0.5728818 3.174454,1.0524633 4.047963,2.0313167 3.838541,4.2106808 -0.0589,0.612948 7.3e-5,1.11712 0.114584,1.11712 0.114508,0 1.616729,-0.323036 3.351562,-0.716102 l 3.151041,-0.7161031 2.606771,0.7161031 c 4.449986,1.225801 5.13187,1.704607 4.354166,3.122206 -0.118062,0.215202 -0.528835,1.606356 -0.916667,3.093561 -1.805966,6.925256 -2.287574,8.873498 -2.463541,9.710347 -0.222931,1.060189 -1.21449,3.843084 -1.690104,4.754919 -0.182991,0.350824 -0.342375,0.735389 -0.34375,0.859322 -0.0052,0.480361 -2.903155,5.294417 -4.382812,7.275599 -1.901472,2.545973 -1.789278,2.56051 -3.065104,-0.114576 -1.572168,-3.29645 -1.565278,-3.818659 0.05729,-2.950342 0.669268,0.358163 1.179025,-0.251116 2.348958,-2.635256 0.939066,-1.913669 1.266222,-3.03078 1.890625,-6.845937 0.361003,-2.205768 1.385367,-10.431844 1.317708,-10.598314 -0.03612,-0.08886 -1.78883,0.237075 -3.895833,0.716103 -2.107001,0.479028 -4.041358,0.918215 -4.296875,0.973899 -0.384063,0.0837 -0.725076,0.881574 -1.976562,4.668986 -2.050713,6.206134 -7.196752,13.004417 -9.82552,13.004417 -0.12021,0 -0.245144,0.07891 -0.286458,0.171865 -0.12663,0.284901 -1.7644829,1.042744 -1.9192711,0.887966 -0.079975,-0.07997 0.3138771,-0.626908 0.8593751,-1.231695 3.360592,-3.725859 5.505705,-8.007802 6.932291,-13.720519 0.808887,-3.239156 0.785889,-3.00763 0.286458,-3.00763 -1.570551,0 -8.3645824,-2.281011 -8.3645824,-2.807121 0,-0.451528 2.5640434,-1.326281 7.8489574,-2.692544 1.159699,-0.299808 2.125448,-0.591773 2.148438,-0.63017 C 19.750809,11.417694 19.70816,8.5829569 18.901036,7.2223668 18.218286,6.0714259 18.13063,5.530502 18.84375,5.5037214 z"
     id="path-main" />
</defs>
<acyl-settings>
<linearGradient
     id="linearGradient4321">
    <stop
       style="stop-color:#FF6100;stop-opacity:1.0;"
       offset="0.0"
       id="stop1" />
  </linearGradient>
<linearGradient
     inkscape:collect="always"
     xlink:href="#linearGradient4321"
     id="acyl_gradient"
     x1="50.0%"
     y1="0.0%"
     x2="50.0%"
     y2="100.0%" />
<filter id="filter1111" x="-50%" y="-50%" width="200%" height="200%">
	<feImage
	id="feImage2"
	xlink:href="#1"
	result="result1" />
	<feComposite
	id="feComposite3633"
	in="result1"
	in2="SourceAlpha"
	operator="out" />
</filter>
<defs>
<use id="1" transform="translate(22.5,22.5) scale(1) translate(-22.5,-22.5)" style="stroke-opacity:1;stroke:url(#acyl_gradient);stroke-width:4" xlink:href="#path-main" />
</defs>
<use id="2" transform="translate(22.5,22.5) scale(1) translate(-22.5,-22.5)" style="fill:url(#acyl_gradient);filter:url(#filter1111)" xlink:href="#path-main" />
</acyl-settings>
</svg>
