<svg xmlns="http://www.w3.org/2000/svg" width="48" height="48">
<defs>
<defs
     id="defs4291">
  </defs>
  <path
     d="M 30.90625 2 C 29.510633 2.00466 28.423528 2.00639 28 2.03125 C 26.305889 2.13069 25.459867 3.189065 25.125 4.75 C 25.08256 5.535203 25.125 18.5 25.125 18.5 C 25.124999 20.098342 26.401659 21.40625 28 21.40625 L 43.09375 21.40625 C 44.69209 21.40625 45.968749 20.098342 45.96875 18.5 C 45.968751 16.901658 46.163141 4.959408 45.75 3.875 C 45.336859 2.7905911 44.330188 2.03125 43.09375 2.03125 C 42.166421 2.03125 35.093101 1.986016 30.90625 2 z M 29.03125 4.28125 L 42.03125 4.28125 C 42.959317 4.28125 43.71875 5.009431 43.71875 5.9375 L 43.71875 17.5 C 43.71875 18.428066 42.959319 19.15625 42.03125 19.15625 L 29.03125 19.15625 C 28.10318 19.156248 27.34375 18.428069 27.34375 17.5 L 27.34375 5.9375 C 27.34375 5.009431 28.103181 4.28125 29.03125 4.28125 z M 29.59375 6.5 L 29.59375 16.9375 L 41.46875 16.9375 L 41.46875 6.5 L 29.59375 6.5 z M 6.625 14.5625 C 4.270872 14.570157 2.3673429 16.489622 2.375 18.84375 C 2.3826571 21.197878 4.302122 23.101407 6.65625 23.09375 C 9.010378 23.086093 10.913907 21.166628 10.90625 18.8125 C 10.898593 16.458372 8.979128 14.554843 6.625 14.5625 z M 6.65625 25.3125 C 5.4408034 25.316453 4.3768811 25.936708 3.75 26.875 C 3.7448327 26.882734 3.7551075 26.898472 3.75 26.90625 C 2.7983282 27.326394 2.2476084 28.189559 2 29.34375 C 1.9792414 29.727779 1.9950444 33.074585 2 36.34375 C 2.0001106 36.416722 1.9998842 36.427088 2 36.5 C 2.0053055 39.83935 2 43.09375 2 43.09375 C 1.9999989 44.692092 3.3079091 46 4.90625 46 L 19.96875 46 C 21.56709 46 22.843749 44.692092 22.84375 43.09375 C 22.84375 43.057124 22.843523 42.797234 22.84375 42.75 C 23.174209 42.382069 23.37672 41.903733 23.375 41.375 C 23.373351 40.868138 23.180766 40.418517 22.875 40.0625 C 22.9196 36.14218 22.985901 29.334014 22.65625 28.46875 C 22.243109 27.384341 21.205188 26.625 19.96875 26.625 C 19.162686 26.625 13.536281 26.593506 9.375 26.59375 C 8.7294295 25.813113 7.7458509 25.308955 6.65625 25.3125 z M 5.90625 28.875 L 18.90625 28.875 C 19.834317 28.875 20.59375 29.603181 20.59375 30.53125 L 20.59375 42.09375 C 20.59375 43.021816 19.834319 43.75 18.90625 43.75 L 5.90625 43.75 C 4.9781798 43.749998 4.21875 43.021819 4.21875 42.09375 L 4.21875 30.53125 C 4.21875 29.603181 4.9781809 28.875 5.90625 28.875 z M 6.46875 31.09375 L 6.46875 41.53125 L 18.375 41.53125 L 18.375 31.09375 L 6.46875 31.09375 z M 31.09375 38.5625 C 30.424883 38.624723 29.888481 39.149969 29.8125 39.84375 C 29.725664 40.636642 30.300858 41.350664 31.09375 41.4375 C 31.886642 41.524336 32.569414 40.980392 32.65625 40.1875 C 32.743086 39.394608 32.199142 38.680586 31.40625 38.59375 C 31.307138 38.582896 31.189302 38.553611 31.09375 38.5625 z "
     id="path-main" />
</defs>
<acyl-settings>
<linearGradient
     id="linearGradient4321">
    <stop
       style="stop-color:#FF6100;stop-opacity:1.0;"
       offset="0.0"
       id="stop1" />
  </linearGradient>
<linearGradient
     inkscape:collect="always"
     xlink:href="#linearGradient4321"
     id="acyl_gradient"
     x1="50.0%"
     y1="0.0%"
     x2="50.0%"
     y2="100.0%" />
<filter id="filter1111" x="-50%" y="-50%" width="200%" height="200%">
	<feImage
	id="feImage2"
	xlink:href="#1"
	result="result1" />
	<feComposite
	id="feComposite3633"
	in="result1"
	in2="SourceAlpha"
	operator="out" />
</filter>
<defs>
<use id="1" transform="translate(22.5,22.5) scale(1) translate(-22.5,-22.5)" style="stroke-opacity:1;stroke:url(#acyl_gradient);stroke-width:4" xlink:href="#path-main" />
</defs>
<use id="2" transform="translate(22.5,22.5) scale(1) translate(-22.5,-22.5)" style="fill:url(#acyl_gradient);filter:url(#filter1111)" xlink:href="#path-main" />
</acyl-settings>
</svg>
