<svg xmlns="http://www.w3.org/2000/svg" width="48" height="48">
<defs>
<defs
     id="defs2385">
  </defs>
  <path
     id="path-main"
     d="M 23.305404,46.093721 C 17.508918,45.729206 12.41625,43.201601 9.1018257,39.044166 6.6603567,35.981719 7.1725847,33.901834 11.457519,29.478938 14.147735,26.702106 14.129528,26.903849 11.949261,24.030394 9.1268137,20.310586 8.3866607,15.870321 9.8548217,11.465614 13.047292,1.8877219 27.411996,-0.52211532 37.613343,6.8088171 c 4.805307,3.4532079 5.030613,5.7674229 1.057896,10.8660909 -1.826022,2.343554 -1.838606,2.516469 -0.326044,4.480193 1.337865,1.736917 1.70075,2.268711 2.09882,3.075734 2.560173,5.190343 1.802858,11.540032 -1.875376,15.724018 -2.979129,3.388758 -9.292446,5.514343 -15.263235,5.138868 z m 4.532328,-4.063737 c 7.277849,-1.331555 11.053971,-5.975943 10.182595,-12.523939 -0.308837,-2.320775 -1.474326,-4.62607 -3.241632,-6.411832 -1.625324,-1.642296 -2.761246,-2.40394 -7.296439,-4.892312 -3.371285,-1.849758 -4.237316,-2.856114 -3.65572,-4.248066 0.814099,-1.948415 5.721324,-0.640598 9.732369,2.593759 0.755586,0.609278 1.04712,0.598588 1.441716,-0.05286 0.111399,-0.183911 0.755076,-1.180419 1.430393,-2.214462 1.61033,-2.465729 1.598337,-2.322766 0.293176,-3.494988 -10.027506,-9.0061398 -25.434895,-4.9258518 -24.047865,6.368518 0.48253,3.929167 2.919564,6.883987 8.452606,10.248501 5.571011,3.387601 6.482206,4.363333 5.694527,6.097856 -0.970851,2.13788 -6.611634,0.822699 -10.214536,-2.381577 -1.38626,-1.232884 -1.416718,-1.238899 -2.075305,-0.409897 -0.166774,0.209929 -0.846374,1.064126 -1.510224,1.898217 -2.061139,2.589707 -2.040077,2.539508 -1.413591,3.369282 3.652608,4.837845 9.977578,7.197363 16.22793,6.0538 z"
/>
</defs>
<acyl-settings>
<linearGradient
     id="linearGradient4321">
    <stop
       style="stop-color:#FF6100;stop-opacity:1.0;"
       offset="0.0"
       id="stop1" />
  </linearGradient>
<linearGradient
     inkscape:collect="always"
     xlink:href="#linearGradient4321"
     id="acyl_gradient"
     x1="50.0%"
     y1="0.0%"
     x2="50.0%"
     y2="100.0%" />
<filter id="filter1111" x="-50%" y="-50%" width="200%" height="200%">
	<feImage
	id="feImage2"
	xlink:href="#1"
	result="result1" />
	<feComposite
	id="feComposite3633"
	in="result1"
	in2="SourceAlpha"
	operator="out" />
</filter>
<defs>
<use id="1" transform="translate(22.5,22.5) scale(1) translate(-22.5,-22.5)" style="stroke-opacity:1;stroke:url(#acyl_gradient);stroke-width:4" xlink:href="#path-main" />
</defs>
<use id="2" transform="translate(22.5,22.5) scale(1) translate(-22.5,-22.5)" style="fill:url(#acyl_gradient);filter:url(#filter1111)" xlink:href="#path-main" />
</acyl-settings>
</svg>
