<svg xmlns="http://www.w3.org/2000/svg" width="48" height="48">
<defs>
<defs
     id="defs2385">
  </defs>
  <path
     id="path-main"
     d="M 29.765439,3.7229001 C 23.617053,3.7229 18.2658,7.1904106 15.591259,12.282632 L 12.032374,8.3862667 2,17.068719 28.323477,46 33.201604,41.796834 c -0.215091,-0.269362 -0.425613,-0.535533 -0.613601,-0.828361 l -3.160044,2.699844 -7.393891,-8.130212 4.786087,-4.019086 c -0.01034,1.351231 0.312179,2.701501 1.104482,3.896366 0.957106,1.443403 2.555101,2.653171 4.939487,3.282765 0.144328,0.332603 0.323768,0.643951 0.49088,0.951081 1.219359,2.241013 3.066414,3.773645 5.522408,3.773645 2.487386,-2e-6 4.294093,-1.551823 5.461048,-3.804325 1.166954,-2.252502 1.719601,-5.214198 1.656722,-8.191572 -6.63e-4,-0.05234 0.0011,-0.101063 0,-0.1534 -0.05143,-2.58199 -0.576009,-5.16972 -1.534002,-7.17913 -0.02262,-0.05031 -0.03824,-0.103657 -0.06136,-0.1534 -0.02906,-0.05873 -0.06218,-0.126397 -0.09204,-0.184081 -0.08982,-0.185586 -0.179135,-0.37546 -0.27612,-0.55224 -1.230032,-2.242059 -3.060959,-3.759759 -5.430368,-3.742966 -2.400205,0.01701 -4.191308,1.555082 -5.369008,3.804326 -0.166087,0.317203 -0.318165,0.668575 -0.4602,1.012441 -2.979326,0.106909 -5.266682,2.803212 -5.829209,5.859889 l -5.553088,4.694046 -8.283611,-9.111973 6.565529,-5.553088 6.71893,7.424571 c 0.351767,-0.731064 0.790634,-1.397654 1.319241,-1.994203 1.064256,-1.200586 2.45519,-2.089342 4.080446,-2.393043 0.08471,-0.184892 0.149886,-0.369746 0.245441,-0.552241 0.884474,-1.689225 2.202338,-3.123105 3.865685,-3.896366 -7.7e-5,-0.01056 0,-0.0201 0,-0.03068 0,-2.291291 1.850513,-4.141805 4.141806,-4.141805 2.291292,0 4.172486,1.850514 4.172486,4.141805 0,0.669662 -0.178474,1.279666 -0.460201,1.840803 0.555173,0.606798 1.037269,1.287224 1.441962,2.024883 0.09096,0.165793 0.155489,0.274529 0.21476,0.39884 0.220791,-1.058739 0.337481,-2.158938 0.337481,-3.282764 C 45.749741,10.87809 38.594553,3.7229011 29.765439,3.7229001 z m 4.203166,2.086243 c 2.291294,0 4.141806,1.8811942 4.141806,4.1724859 2e-6,2.291292 -1.850513,4.141806 -4.141806,4.141806 -2.291288,-1e-6 -4.172486,-1.850513 -4.172486,-4.141806 0,-2.2912914 1.881197,-4.1724859 4.172486,-4.1724859 z M 23.844191,7.3124652 c 2.291295,-1.1e-6 4.141806,1.8505131 4.141806,4.1418058 0,2.291292 -1.850516,4.172486 -4.141806,4.172486 -2.29129,0 -4.172486,-1.881194 -4.172486,-4.172486 -1e-6,-2.2912935 1.881195,-4.1418058 4.172486,-4.1418058 z M 11.142653,10.80999 18.996744,19.461762 12.461895,25.01485 4.6691638,16.424438 11.142653,10.80999 z m 8.038171,5.430368 c 0.02317,-3.82e-4 0.0381,0 0.06136,0 2.291294,-1e-6 4.141806,1.850514 4.141806,4.141806 -1e-6,0.146606 -0.01528,0.287341 -0.03068,0.42952 L 19.180824,16.240358 z M 4.147603,16.976679 5.8350054,18.817482 4.853244,19.676523 3.1351616,17.83572 4.147603,16.976679 z m 2.6384838,2.669164 1.7180824,1.871482 -1.0124414,0.859042 -1.6874024,-1.871483 0.9817614,-0.859041 z m 31.8152052,0.1534 c 1.180049,-0.0083 2.239131,0.379567 3.129364,1.073801 -0.636392,-0.35174 -1.345991,-0.558033 -2.116923,-0.55224 -2.082103,0.01564 -3.647136,1.440033 -4.663366,3.497525 -1.016229,2.057492 -1.518745,4.771906 -1.503322,7.48593 0.01542,2.714025 0.543146,5.435888 1.595362,7.485931 1.052217,2.050042 2.656199,3.436165 4.786087,3.436165 1.529302,0 2.761257,-0.693001 3.712285,-1.840803 -1.113346,1.669831 -2.646084,2.699844 -4.663367,2.699844 -2.327532,10e-7 -4.092262,-1.412235 -5.276967,-3.589565 -1.184709,-2.17733 -1.792487,-5.110762 -1.810123,-8.038172 -0.01763,-2.927408 0.573685,-5.852527 1.718083,-8.038171 1.144399,-2.185644 2.824294,-3.604166 5.092887,-3.620245 z M 9.3632104,22.437727 11.050613,24.278529 10.068851,25.13757 8.381449,23.296768 9.3632104,22.437727 z m 2.4850836,2.699843 1.687402,1.871483 -1.012441,0.859041 -1.687402,-1.871482 1.012441,-0.859042 z m 25.832597,0.828362 c 1.086307,-0.0082 1.904473,0.736491 2.454403,1.810122 0.549931,1.073631 0.831146,2.481633 0.859041,3.896366 0.02789,1.414732 -0.18345,2.847458 -0.705641,3.927045 -0.522191,1.079588 -1.379594,1.810123 -2.515763,1.810123 -1.122644,0 -1.970341,-0.736467 -2.515764,-1.810123 -0.545424,-1.073656 -0.789744,-2.485446 -0.797681,-3.896365 -0.008,-1.41092 0.24029,-2.818926 0.767001,-3.896366 0.526713,-1.077439 1.35535,-1.83246 2.454404,-1.840802 z m -23.224793,2.024882 1.718082,1.871483 -1.012441,0.859041 -1.687403,-1.871482 0.981762,-0.859042 z m 2.423723,2.546444 1.687402,1.871483 -0.981761,0.859041 -1.718082,-1.871483 1.012441,-0.859041 z m 2.607804,2.791884 1.687402,1.871483 -0.981761,0.859041 -1.687403,-1.871483 0.981762,-0.859041 z m 2.607803,2.791884 1.687403,1.871483 -0.981762,0.859041 -1.687402,-1.871483 0.981761,-0.859041 z m 2.485084,2.761204 1.718082,1.871483 -1.012441,0.859041 -1.687402,-1.871483 0.981761,-0.859041 z m 2.546444,2.607804 1.718082,1.871482 -1.012441,0.859041 -1.687403,-1.871482 0.981762,-0.859041 z" />
</defs>
<acyl-settings>
<linearGradient
     id="linearGradient4321">
    <stop
       style="stop-color:#FF6100;stop-opacity:1.0;"
       offset="0.0"
       id="stop1" />
  </linearGradient>
<linearGradient
     inkscape:collect="always"
     xlink:href="#linearGradient4321"
     id="acyl_gradient"
     x1="50.0%"
     y1="0.0%"
     x2="50.0%"
     y2="100.0%" />
<filter id="filter1111" x="-50%" y="-50%" width="200%" height="200%">
	<feImage
	id="feImage2"
	xlink:href="#1"
	result="result1" />
	<feComposite
	id="feComposite3633"
	in="result1"
	in2="SourceAlpha"
	operator="out" />
</filter>
<defs>
<use id="1" transform="translate(22.5,22.5) scale(1) translate(-22.5,-22.5)" style="stroke-opacity:1;stroke:url(#acyl_gradient);stroke-width:4" xlink:href="#path-main" />
</defs>
<use id="2" transform="translate(22.5,22.5) scale(1) translate(-22.5,-22.5)" style="fill:url(#acyl_gradient);filter:url(#filter1111)" xlink:href="#path-main" />
</acyl-settings>
</svg>
