<svg xmlns="http://www.w3.org/2000/svg" width="48" height="48">
<defs>
  <path
     d="m 23.859279,2.000022 -0.124364,0.06218 -7.760331,3.556818 -0.584512,0.261165 0.584512,0.273602 7.723022,3.619 0.124364,0.06218 0.124364,-0.06218 7.723021,-3.581691 0.584513,-0.273601 -0.584513,-0.273602 -7.685712,-3.581691 z m 0,0.659131 6.976836,3.258344 -7.014145,3.245907 -7.026582,-3.27078 z M 33.67162,6.6015 c -0.0085,0.0037 -0.01678,0.0079 -0.02487,0.01244 -0.04989,0.0087 -0.09746,0.0303 -0.1368,0.06218 l -7.586221,3.531945 c -0.07061,0.01831 -0.133891,0.06351 -0.17411,0.124364 -8.6e-5,0.0041 -8.6e-5,0.0083 0,0.01244 -0.0149,0.01911 -0.02746,0.04004 -0.03731,0.06218 -0.01257,0.04868 -0.01257,0.100554 0,0.149237 0.01011,0.05545 0.03632,0.107874 0.07462,0.149237 0.0037,0.0085 0.0079,0.01678 0.01244,0.02487 0.0041,8.6e-5 0.0083,8.6e-5 0.01244,0 0.004,0.0043 0.0082,0.0084 0.01244,0.01244 0.0041,8.7e-5 0.0083,8.7e-5 0.01244,0 0.004,0.0043 0.0082,0.0084 0.01244,0.01244 0.004,0.0043 0.0082,0.0084 0.01244,0.01244 0.0041,8.7e-5 0.0083,8.7e-5 0.01244,0 0.0041,8.7e-5 0.0083,8.7e-5 0.01244,0 0.01576,0.0098 0.03244,0.01815 0.04975,0.02487 l 0.02487,0 9.650668,4.390059 0,12.050897 c -0.0015,0.0335 0.0027,0.0673 0.01244,0.0995 -3.45e-4,0.008 -3.45e-4,0.0166 0,0.0249 -8.6e-5,0.004 -8.6e-5,0.008 0,0.0124 -8.6e-5,0.004 -8.6e-5,0.008 0,0.0124 0.0073,0.013 0.01566,0.0255 0.02487,0.0373 0.0037,0.008 0.0079,0.0168 0.01244,0.0249 0.0078,0.009 0.0161,0.0171 0.02487,0.0249 -8.7e-5,0.004 -8.7e-5,0.008 0,0.0124 0.01523,0.0141 0.03193,0.0267 0.04975,0.0373 0.01179,0.009 0.02427,0.0175 0.03731,0.0249 0.004,0.004 0.0082,0.008 0.01244,0.0124 0.01215,0.005 0.02462,0.009 0.03731,0.0124 0.0083,3.5e-4 0.01659,3.5e-4 0.02487,0 0.01215,0.005 0.02462,0.009 0.03731,0.0124 0.0041,9e-5 0.0083,9e-5 0.01244,0 0.0041,9e-5 0.0083,9e-5 0.01244,0 0.0169,-0.003 0.03356,-0.007 0.04975,-0.0124 0.0041,9e-5 0.0083,9e-5 0.01244,0 0.0169,-0.003 0.03356,-0.007 0.04975,-0.0124 0.0041,8e-5 0.0083,8e-5 0.01244,0 0.01782,-0.0107 0.03452,-0.0232 0.04975,-0.0373 l 0.02487,-0.0124 7.586222,-3.531943 c 0.02157,-0.0059 0.04247,-0.01429 0.06218,-0.02487 0.0085,-0.0037 0.01679,-0.0079 0.02487,-0.01244 0.0085,-0.0037 0.01679,-0.0079 0.02487,-0.01244 0.02364,-0.01751 0.04467,-0.03854 0.06218,-0.06218 8.8e-5,-0.0041 8.8e-5,-0.0083 0,-0.01244 0.0043,-0.004 0.0084,-0.0082 0.01242,-0.01244 0.0092,-0.01179 0.01755,-0.02427 0.02487,-0.03731 8.8e-5,-0.0041 8.8e-5,-0.0083 0,-0.01244 0.0043,-0.004 0.0084,-0.0082 0.01242,-0.01244 0.0056,-0.01618 0.0097,-0.03285 0.01242,-0.04975 8.8e-5,-0.0041 8.8e-5,-0.0083 0,-0.01244 0.0043,-0.02881 0.0043,-0.05824 0,-0.08706 l 0,-12.237444 0,-0.186547 -0.17405,-0.08705 -9.862087,-4.464677 c -0.0081,-0.0045 -0.0164,-0.0087 -0.02487,-0.01244 l -0.02487,-0.01244 c -0.01576,-0.0098 -0.03244,-0.01815 -0.04975,-0.02487 -0.01242,-7.96e-4 -0.02489,-7.96e-4 -0.03731,0 -0.0083,-3.45e-4 -0.01659,-3.45e-4 -0.02487,0 -0.0083,-3.45e-4 -0.01659,-3.45e-4 -0.02487,0 -0.01242,-7.96e-4 -0.02489,-7.96e-4 -0.03731,0 z M 14.121557,6.67612 c -0.01269,0.0033 -0.02516,0.0075 -0.03731,0.01244 -0.0085,0.0037 -0.01678,0.0079 -0.02487,0.01244 -0.0085,0.0037 -0.01678,0.0079 -0.02487,0.01244 -0.0041,-8.6e-5 -0.0083,-8.6e-5 -0.01244,0 l -0.02487,0.01244 c -0.0085,0.0037 -0.01678,0.0079 -0.02487,0.01244 l -9.84965,4.464677 -0.17411,0.07462 0,0.186546 0,12.249881 c -7.56e-4,0.01242 -7.56e-4,0.02489 0,0.03731 l 0,0.01244 c -8.6e-5,0.0041 -8.6e-5,0.0083 0,0.01244 -8.6e-5,0.0041 -8.6e-5,0.0083 0,0.01244 -3.45e-4,0.0083 -3.45e-4,0.01659 0,0.02487 -8.6e-5,0.0041 -8.6e-5,0.0083 0,0.01244 0.004,0.0043 0.0082,0.0084 0.01244,0.01244 -8.7e-5,0.0041 -8.7e-5,0.0083 0,0.01244 0.004,0.0043 0.0082,0.0084 0.01244,0.01244 -8.6e-5,0.0041 -8.6e-5,0.0083 0,0.01244 0.004,0.0043 0.0082,0.0084 0.01244,0.01244 -8.6e-5,0.0041 -8.6e-5,0.0083 0,0.01244 -8.6e-5,0.0041 -8.6e-5,0.0083 0,0.01244 0.004,0.0043 0.0082,0.0084 0.01244,0.01244 -8.7e-5,0.0041 -8.7e-5,0.0083 0,0.01244 0.0113,0.0135 0.02381,0.02601 0.03731,0.03731 0.0081,0.0045 0.0164,0.0087 0.02487,0.01244 0.0078,0.0088 0.0161,0.01708 0.02487,0.02487 0.0081,0.0045 0.0164,0.0087 0.02487,0.01244 0.01576,0.0098 0.03244,0.01815 0.04974,0.02487 0.0041,8.6e-5 0.0083,8.6e-5 0.01244,0 0.0081,0.0045 0.0164,0.0087 0.02487,0.01244 l 7.58622,3.531948 c 0.01522,0.0141 0.03193,0.0267 0.04975,0.0373 l 0.01244,0 c 0.004,0.004 0.0082,0.008 0.01244,0.0124 0.0041,9e-5 0.0083,9e-5 0.01244,0 0.0041,9e-5 0.0083,9e-5 0.01244,0 0.0041,9e-5 0.0083,9e-5 0.01244,0 0.0081,0.005 0.0164,0.009 0.02487,0.0124 0.0041,9e-5 0.0083,9e-5 0.01244,0 0.0041,9e-5 0.0083,9e-5 0.01244,0 0.0041,9e-5 0.0083,9e-5 0.01244,0 0.0041,9e-5 0.0083,9e-5 0.01244,0 0.0083,3.4e-4 0.01659,3.4e-4 0.02487,0 0.0041,9e-5 0.0083,9e-5 0.01244,0 0.02109,-0.002 0.04197,-0.006 0.06218,-0.0124 0.04232,-0.016 0.08092,-0.0417 0.111928,-0.0746 0.0088,-0.008 0.01708,-0.0161 0.02487,-0.0249 0.0043,-0.004 0.0084,-0.008 0.01244,-0.0124 0.0043,-0.004 0.0084,-0.008 0.01244,-0.0124 8.6e-5,-0.004 8.6e-5,-0.008 0,-0.0124 0.0043,-0.004 0.0084,-0.008 0.01244,-0.0124 8.6e-5,-0.004 8.6e-5,-0.008 0,-0.0124 0.0056,-0.0162 0.0097,-0.0328 0.01244,-0.0498 0.005,-0.0121 0.0091,-0.0246 0.01244,-0.0373 0.007,-0.0369 0.007,-0.0751 0,-0.11192 l 0,-12.013592 9.663104,-4.390059 0.04975,-0.01244 0.02487,-0.01244 c 0.04491,-0.02299 0.08383,-0.05758 0.111928,-0.09949 0.0088,-0.0078 0.01708,-0.0161 0.02487,-0.02487 0.0045,-0.0081 0.0087,-0.0164 0.01244,-0.02487 0.0056,-0.01618 0.0097,-0.03285 0.01244,-0.04975 0.0043,-0.004 0.0084,-0.0082 0.01244,-0.01244 8.7e-5,-0.0041 8.7e-5,-0.0083 0,-0.01244 8.7e-5,-0.0041 8.7e-5,-0.0083 0,-0.01244 0.0014,-0.01654 0.0014,-0.0332 0,-0.04975 8.7e-5,-0.0041 8.7e-5,-0.0083 0,-0.01244 -0.0027,-0.0169 -0.0069,-0.03356 -0.01244,-0.04975 8.6e-5,-0.0041 8.6e-5,-0.0083 0,-0.01244 8.6e-5,-0.0041 8.6e-5,-0.0083 0,-0.01244 -0.004,-0.0043 -0.0082,-0.0084 -0.01244,-0.01244 8.6e-5,-0.0041 8.6e-5,-0.0083 0,-0.01244 -0.004,-0.0043 -0.0082,-0.0084 -0.01244,-0.01244 -0.0037,-0.0085 -0.0079,-0.01678 -0.01244,-0.02487 -0.0073,-0.01304 -0.01566,-0.02552 -0.02487,-0.03731 -0.004,-0.0043 -0.0082,-0.0084 -0.01244,-0.01244 -0.004,-0.0043 -0.0082,-0.0084 -0.01244,-0.01244 -0.0041,-8.6e-5 -0.0083,-8.6e-5 -0.01244,0 -0.0037,-0.0085 -0.0079,-0.01678 -0.01244,-0.02487 -0.01215,-0.005 -0.02462,-0.0091 -0.03731,-0.01244 -0.004,-0.0043 -0.0082,-0.0084 -0.01244,-0.01244 l -0.04975,-0.02487 -7.586221,-3.519509 0,-0.01244 c -0.0041,-8.6e-5 -0.0083,-8.6e-5 -0.01244,0 -0.0081,-0.0045 -0.0164,-0.0087 -0.02487,-0.01244 -0.02967,-0.0226 -0.06361,-0.03957 -0.09949,-0.04975 -0.02021,-0.0063 -0.04109,-0.01051 -0.06218,-0.01244 -0.0083,-3.46e-4 -0.01659,-3.46e-4 -0.02487,0 -0.0083,-3.46e-4 -0.01659,-3.46e-4 -0.02487,0 z m 19.599809,0.559639 9.202956,4.166203 -6.976836,3.245908 c -0.01269,0.0033 -0.02516,0.0075 -0.03731,0.01244 L 26.70722,10.494102 z m -19.5625,0.07462 7.001708,3.270781 -9.190519,4.153766 c -0.0081,-0.0045 -0.0164,-0.0087 -0.02487,-0.01244 l -6.989272,-3.245907 0.69644,-0.310911 z m 9.700413,4.191076 -9.352193,4.290568 9.352193,4.365186 9.277575,-4.327877 z m 19.475447,0.34822 0,11.640496 -7.126075,3.320524 0,-11.628057 z m -38.789218,0.08706 7.126073,3.332963 0,11.615622 -7.126073,-3.308089 z m 9.613359,4.850207 0,11.590748 9.066154,4.21595 0,-11.578313 z m 19.301335,0.149237 -8.879609,4.153767 0,11.354454 8.879609,-4.14133 z m -29.511643,7.524039 0,1.504809 0,10.558523 0,0.18655 0.17411,0.0871 7.723022,3.59413 0.422839,0.19898 0,-0.46014 0,-10.55853 0,-0.19898 -0.17411,-0.0746 -7.723022,-3.606564 z m 39.809005,1.032225 -0.422838,0.198983 -7.723022,3.606564 -0.17411,0.0746 0,0.19898 0,10.55853 0,0.46014 0.422838,-0.19898 7.723022,-3.59413 0.17411,-0.0871 0,-0.18655 0,-10.558523 z m -39.212056,0.945169 7.126073,3.308088 0,9.91183 -7.126073,-3.32052 z m 38.615108,0 0,9.899398 -7.126074,3.32052 0,-9.91183 z m -28.952003,3.830418 0,0.47259 0,10.55852 0,0.19898 0.17411,0.0746 9.277574,4.32788 c 0.0081,0.005 0.0164,0.009 0.02487,0.0124 0.01576,0.01 0.03244,0.0182 0.04975,0.0249 0.004,0.004 0.0082,0.008 0.01244,0.0124 l 0.02487,0 c 0.0081,0.005 0.0164,0.009 0.02487,0.0124 l 0.06218,0.0373 0.06218,-0.0373 c 0.0085,-0.004 0.01678,-0.008 0.02487,-0.0124 l 0.02487,-0.0124 c 0.02645,-0.009 0.05165,-0.0215 0.07462,-0.0373 l 9.215392,-4.29059 0.17411,-0.0746 0,-0.19898 0,-10.55853 0,-0.47258 -0.422838,0.19898 -9.153211,4.2657 -9.227829,-4.30301 z m 0.596948,0.94517 8.755245,4.07915 0,9.89939 -8.755245,-4.07915 z m 18.03282,0.0373 0,9.89939 -8.680627,4.04184 0,-9.89939 z"
     id="path-main"
      />
</defs>
<acyl-settings>
<linearGradient
     id="linearGradient4321">
    <stop
       style="stop-color:#FF6100;stop-opacity:1.0;"
       offset="0.0"
       id="stop1" />
  </linearGradient>
<linearGradient
     inkscape:collect="always"
     xlink:href="#linearGradient4321"
     id="acyl_gradient"
     x1="50.0%"
     y1="0.0%"
     x2="50.0%"
     y2="100.0%" />
<filter id="filter1111" x="-50%" y="-50%" width="200%" height="200%">
	<feImage
	id="feImage2"
	xlink:href="#1"
	result="result1" />
	<feComposite
	id="feComposite3633"
	in="result1"
	in2="SourceAlpha"
	operator="out" />
</filter>
<defs>
<use id="1" transform="translate(22.5,22.5) scale(1) translate(-22.5,-22.5)" style="stroke-opacity:1;stroke:url(#acyl_gradient);stroke-width:4" xlink:href="#path-main" />
</defs>
<use id="2" transform="translate(22.5,22.5) scale(1) translate(-22.5,-22.5)" style="fill:url(#acyl_gradient);filter:url(#filter1111)" xlink:href="#path-main" />
</acyl-settings>
</svg>
