<svg xmlns="http://www.w3.org/2000/svg" width="48" height="48">
<defs>
  <defs
     id="defs4">
  </defs>
    <path
         d="M 33.684783,4.3722826 17.065217,13.967391 15.570652,11.1875 3.7038043,18.032609 5.2282609,20.8125 l -2.3913044,1.375 1.7934783,3.108696 -1.8532609,1.046195 -0.5081522,0.298913 0.388587,0.44837 1.763587,1.883152 L 2.5679348,30.019022 2,30.347826 2.4483696,30.766304 14.793478,43.05163 15.0625,43.320652 15.182065,43.5 46,25.714674 33.684783,4.3722826 z M 21.429348,14.923913 c 1.58551,-0.09677 3.192203,0.591288 4.453804,2.0625 1.462232,1.705176 2.136725,4.128835 2.002718,6.486413 0.02588,0.008 0.03413,0.01957 0.05978,0.02989 l 6.576087,2.451087 c 0.620746,0.23518 0.960327,1.086071 0.777174,1.883153 -0.183153,0.797082 -0.843928,1.251484 -1.464674,1.016304 l -6.546196,-2.480978 c -0.25037,0.660521 -0.583308,1.283304 -0.986413,1.85326 -2.29148,3.239972 -6.234949,3.480468 -8.758152,0.538044 -2.523203,-2.942423 -2.70996,-7.999159 -0.418478,-11.23913 1.145741,-1.619987 2.718837,-2.503774 4.304348,-2.600544 z m 0.08967,2.51087 c -1.083139,0.06572 -2.167919,0.644723 -2.959239,1.763587 -1.58264,2.237727 -1.44377,5.679734 0.298913,7.711956 1.742683,2.032221 4.425511,1.84914 6.008152,-0.388587 1.582642,-2.237727 1.443769,-5.649843 -0.298913,-7.682065 -0.871342,-1.016111 -1.965775,-1.470615 -3.048913,-1.404891 z m -16.4103263,8.698369 8.1603263,14.048913 -9.6847829,-9.625 1.8233696,-1.076087 0.5081522,-0.298913 -0.388587,-0.448369 -1.7336956,-1.853261 1.3152174,-0.747283 z"
       id="path-main" />
</defs>
<acyl-settings>
<linearGradient
     id="linearGradient4321">
    <stop
       style="stop-color:#FF6100;stop-opacity:1.0;"
       offset="0.0"
       id="stop1" />
  </linearGradient>
<linearGradient
     inkscape:collect="always"
     xlink:href="#linearGradient4321"
     id="acyl_gradient"
     x1="50.0%"
     y1="0.0%"
     x2="50.0%"
     y2="100.0%" />
<filter id="filter1111" x="-50%" y="-50%" width="200%" height="200%">
	<feImage
	id="feImage2"
	xlink:href="#1"
	result="result1" />
	<feComposite
	id="feComposite3633"
	in="result1"
	in2="SourceAlpha"
	operator="out" />
</filter>
<defs>
<use id="1" transform="translate(22.5,22.5) scale(1) translate(-22.5,-22.5)" style="stroke-opacity:1;stroke:url(#acyl_gradient);stroke-width:4" xlink:href="#path-main" />
</defs>
<use id="2" transform="translate(22.5,22.5) scale(1) translate(-22.5,-22.5)" style="fill:url(#acyl_gradient);filter:url(#filter1111)" xlink:href="#path-main" />
</acyl-settings>
</svg>
