<svg xmlns="http://www.w3.org/2000/svg" width="48" height="48">
<defs>
<defs
     id="defs4">
  </defs>
  <path
     id="path-main"
     d="m 31.887205,2.0000004 -18.338266,0.013945 c -1.195182,0 -2.161544,0.9663643 -2.161544,2.1615447 l 0,1.7989629 -8.06047,3.3887442 C 2.2250939,9.8262628 1.7063876,11.092296 2.1694527,12.194124 l 9.2179423,21.922246 0,5.285326 c 0,1.195181 0.966362,2.161544 2.161544,2.161544 l 0.962236,0 1.310873,3.109835 c 0.463065,1.101829 1.729095,1.620538 2.830926,1.157473 l 10.152287,-4.267308 11.393432,0 c 1.195181,0 2.147599,-0.966362 2.147599,-2.161544 l 0,-3.542145 0.878564,-0.362581 c 1.101833,-0.463064 1.606591,-1.715152 1.143527,-2.816981 L 42.360238,27.8967 42.388129,12.473033 31.887205,2.0000004 z M 29.028388,11.62236 c 0.79857,0.02202 1.606881,0.140469 2.412563,0.348637 0.02247,0.0058 0.03332,0.02194 0.05578,0.02789 5.750626,1.524776 9.180825,7.427825 7.656051,13.178449 -1.52477,5.750627 -7.427821,9.180824 -13.178449,7.656052 -1.179811,-0.312827 -2.259715,-0.821886 -3.221399,-1.464272 -0.02914,0.09875 -0.0512,0.179386 -0.08367,0.278909 -0.142684,0.437358 -0.323457,0.883663 -0.613599,1.269036 -0.290143,0.385372 -0.717795,0.704547 -1.269036,0.808836 -1.087838,0.205809 -1.968293,-0.433805 -2.705418,-1.031964 -0.737124,-0.598158 -1.397489,-1.172197 -1.966308,-1.241145 -0.692895,-0.08399 -1.006114,0.06485 -1.282981,0.251019 -0.276867,0.186169 -0.499616,0.491451 -0.962236,0.669381 L 13.54894,31.536461 c 0.151877,-0.05841 0.372413,-0.311006 0.780946,-0.585709 0.408532,-0.274703 1.029603,-0.481615 1.896581,-0.376527 0.991054,0.120128 1.707983,0.850687 2.412562,1.422436 0.704579,0.571749 1.319144,0.975749 1.980254,0.850672 0.323235,-0.06115 0.533753,-0.219909 0.725164,-0.474145 0.19141,-0.254235 0.345033,-0.608316 0.474145,-1.004072 0.05876,-0.180112 0.11435,-0.368842 0.167345,-0.557818 -3.214783,-2.589115 -4.793244,-6.91124 -3.667653,-11.15636 1.23404,-4.65413 5.346949,-7.800989 9.915215,-8.018633 0.263553,-0.01256 0.5287,-0.02128 0.79489,-0.01395 z m -2.830926,1.743182 c -0.293308,0.01865 -0.590295,0.08371 -0.878563,0.195236 -1.514503,0.585909 -2.273309,2.292605 -1.6874,3.807108 0.58591,1.514503 2.292604,2.259362 3.807108,1.673453 1.514507,-0.585909 2.273312,-2.292601 1.687399,-3.807107 -0.359328,-0.928818 -1.151008,-1.562024 -2.049981,-1.785018 -0.0089,-0.0022 -0.0051,-0.01183 -0.01394,-0.01394 -0.279743,-0.06663 -0.57131,-0.08838 -0.864618,-0.06973 z m 7.642106,1.966308 c -0.661786,-0.0055 -1.329883,0.205432 -1.882635,0.655436 -1.259326,1.025243 -1.443603,2.882476 -0.418364,4.141799 1.025243,1.259319 2.882477,1.457552 4.141799,0.432308 1.259325,-1.025243 1.443606,-2.882475 0.418363,-4.141798 -0.42051,-0.516522 -0.974672,-0.857405 -1.575836,-1.004072 -0.0068,-0.0017 -0.02112,0.0016 -0.02789,0 -0.214772,-0.05079 -0.43484,-0.08184 -0.655436,-0.08367 z m -11.79785,4.50438 c -1.621437,0.08922 -2.864373,1.474458 -2.775144,3.09589 0.08922,1.621436 1.474457,2.864372 3.095889,2.775144 1.621437,-0.08922 2.864373,-1.474453 2.775145,-3.095889 -0.0718,-1.304747 -0.990675,-2.373653 -2.189436,-2.691472 -0.01819,-0.0048 -0.03747,-0.0095 -0.05578,-0.01395 -0.274627,-0.06713 -0.553776,-0.08607 -0.850672,-0.06973 z m 6.707761,1.394545 c -0.526792,-0.0069 -1.002395,0.346293 -1.143527,0.878563 -0.166477,0.627859 0.208864,1.269904 0.836727,1.436382 0.627859,0.166477 1.26991,-0.208868 1.436382,-0.836727 0.166477,-0.627862 -0.208865,-1.269902 -0.836727,-1.436382 -0.01717,-0.0046 -0.0386,-0.0102 -0.05578,-0.01394 -0.07611,-0.01611 -0.161817,-0.0269 -0.237073,-0.02789 z m 5.299271,1.798963 c -0.894534,0.06154 -1.749796,0.528303 -2.273108,1.338763 -0.880871,1.364215 -0.485655,3.1912 0.878563,4.072071 1.364213,0.880871 3.177254,0.485655 4.058126,-0.878563 0.880875,-1.364215 0.485653,-3.191201 -0.878563,-4.072071 -0.266446,-0.172045 -0.545769,-0.285427 -0.836727,-0.362582 -0.01873,-0.005 -0.03699,-0.02331 -0.05578,-0.02789 -0.295883,-0.07219 -0.594331,-0.09024 -0.892509,-0.06973 z m -7.154016,2.775144 c -1.235251,0.07135 -2.343323,0.929001 -2.677526,2.189436 -0.416192,1.56965 0.522162,3.181733 2.091818,3.597926 1.56965,0.416192 3.181737,-0.522172 3.597926,-2.091817 0.416194,-1.569654 -0.522172,-3.181733 -2.091818,-3.597926 -0.01226,-0.0033 -0.02957,-0.01086 -0.04184,-0.01395 -0.0061,-0.0015 -0.0079,0.0015 -0.01395,0 -0.29102,-0.07128 -0.57956,-0.100138 -0.864618,-0.08367 z m 12.760087,9.538688 c 0.547357,4e-6 0.983151,0.176065 1.310872,0.543872 0.327716,0.366071 0.488087,0.861134 0.488091,1.478218 -3e-6,0.615344 -0.160377,1.110407 -0.488091,1.478218 -0.32772,0.366068 -0.763516,0.543872 -1.310872,0.543872 -0.549102,0 -0.995358,-0.177804 -1.324818,-0.543872 -0.327717,-0.366068 -0.488091,-0.861131 -0.488091,-1.478218 2e-6,-0.617084 0.160372,-1.112147 0.488091,-1.478218 0.329462,-0.367807 0.775714,-0.543868 1.324818,-0.543872 z m -14.824013,0.06973 0.557818,0 1.241145,3.277181 1.241145,-3.277181 0.543872,0 -1.492163,3.904726 -0.599654,0 -1.492163,-3.904726 z m 4.155744,0 0.515981,0 0,3.904726 -0.515981,0 0,-3.904726 z m 1.575836,0 1.087745,0 c 0.75654,4e-6 1.30564,0.158633 1.659508,0.474145 0.353864,0.313776 0.529923,0.794894 0.529927,1.464273 -2e-6,0.672869 -0.174321,1.176648 -0.529927,1.492163 -0.35561,0.315516 -0.906456,0.474145 -1.659508,0.474145 l -1.087745,0 0,-3.904726 z m 4.113907,0 2.468345,0 0,0.446254 -1.938418,0 0,1.157473 1.86869,0 0,0.432309 -1.86869,0 0,1.422435 1.9942,0 0,0.446255 -2.524127,0 0,-3.904726 z m 4.978526,0.348636 c -0.3835,4e-6 -0.693788,0.146431 -0.9204,0.432309 -0.22487,0.285885 -0.334692,0.6781 -0.334691,1.171418 1e-6,0.491579 0.10982,0.885537 0.334691,1.171418 0.226614,0.285882 0.536898,0.418364 0.9204,0.418363 0.383499,10e-7 0.683324,-0.132481 0.906454,-0.418363 0.224869,-0.285881 0.334687,-0.679839 0.334691,-1.171418 -2e-6,-0.493318 -0.109824,-0.885533 -0.334691,-1.171418 -0.223128,-0.285878 -0.522957,-0.432305 -0.906454,-0.432309 z m -8.562506,0.08367 0,3.040108 0.627545,0 c 0.538642,0 0.936085,-0.132481 1.185363,-0.376527 0.251017,-0.244045 0.376524,-0.63103 0.376527,-1.157472 -1e-6,-0.522952 -0.125512,-0.901222 -0.376527,-1.143527 -0.249276,-0.244042 -0.646722,-0.362578 -1.185363,-0.362582 l -0.627545,0 z" />
</defs>
<acyl-settings>
<linearGradient
     id="linearGradient4321">
    <stop
       style="stop-color:#FF6100;stop-opacity:1.0;"
       offset="0.0"
       id="stop1" />
  </linearGradient>
<linearGradient
     inkscape:collect="always"
     xlink:href="#linearGradient4321"
     id="acyl_gradient"
     x1="50.0%"
     y1="0.0%"
     x2="50.0%"
     y2="100.0%" />
<filter id="filter1111" x="-50%" y="-50%" width="200%" height="200%">
	<feImage
	id="feImage2"
	xlink:href="#1"
	result="result1" />
	<feComposite
	id="feComposite3633"
	in="result1"
	in2="SourceAlpha"
	operator="out" />
</filter>
<defs>
<use id="1" transform="translate(22.5,22.5) scale(1) translate(-22.5,-22.5)" style="stroke-opacity:1;stroke:url(#acyl_gradient);stroke-width:4" xlink:href="#path-main" />
</defs>
<use id="2" transform="translate(22.5,22.5) scale(1) translate(-22.5,-22.5)" style="fill:url(#acyl_gradient);filter:url(#filter1111)" xlink:href="#path-main" />
</acyl-settings>
</svg>
