<svg xmlns="http://www.w3.org/2000/svg" width="48" height="48">
<defs>
<defs
     id="defs1874">
  </defs>
  <path
     d="M 24,2 C 11.856,2 2,11.856034 2,24 2,36.143965 11.856,46 24,46 36.144,46 45.999999,36.143965 46,24 46,11.856035 36.143999,2 24,2 z m 0,3.4202899 c 5.743844,0.039671 -0.756401,10.4417411 3.867187,13.8550721 4.623588,3.413331 12.614284,-5.889013 14.351563,-0.405797 1.737278,5.483216 -10.1327,2.512317 -11.945313,7.971015 -1.812611,5.458697 9.482648,10.187088 4.8125,13.536232 -4.670145,3.349141 -5.513968,-8.887866 -11.257812,-8.927537 -5.743844,-0.03967 -6.748807,12.195941 -11.372396,8.782609 -4.623588,-3.41333 6.721654,-7.995045 4.984375,-13.478261 C 15.702825,21.270408 3.7967629,24.096378 5.609375,18.637681 7.421987,13.178983 15.29079,22.566534 19.960937,19.217391 24.631086,15.868249 18.256156,5.3806191 24,5.4202899 z"
     id="path-main"
      />
</defs>
<acyl-settings>
<linearGradient
     id="linearGradient4321">
    <stop
       style="stop-color:#FF6100;stop-opacity:1.0;"
       offset="0.0"
       id="stop1" />
  </linearGradient>
<linearGradient
     inkscape:collect="always"
     xlink:href="#linearGradient4321"
     id="acyl_gradient"
     x1="50.0%"
     y1="0.0%"
     x2="50.0%"
     y2="100.0%" />
<filter id="filter1111" x="-50%" y="-50%" width="200%" height="200%">
	<feImage
	id="feImage2"
	xlink:href="#1"
	result="result1" />
	<feComposite
	id="feComposite3633"
	in="result1"
	in2="SourceAlpha"
	operator="out" />
</filter>
<defs>
<use id="1" transform="translate(22.5,22.5) scale(1) translate(-22.5,-22.5)" style="stroke-opacity:1;stroke:url(#acyl_gradient);stroke-width:4" xlink:href="#path-main" />
</defs>
<use id="2" transform="translate(22.5,22.5) scale(1) translate(-22.5,-22.5)" style="fill:url(#acyl_gradient);filter:url(#filter1111)" xlink:href="#path-main" />
</acyl-settings>
</svg>
