<svg xmlns="http://www.w3.org/2000/svg" width="48" height="48">
<defs>
<defs
     id="defs4">
  </defs>
  <path
     id="path-main"
     d="M 9.4357955,1.9999997 C 8.1061128,1.9999997 7.031,3.0751149 7.031,4.4047952 l 0,39.2059238 C 7.031,44.940401 8.1061128,46 9.4357955,46 l 29.6488015,0 c 1.329681,0 2.404795,-1.059599 2.404795,-2.389281 L 41.535942,13.636107 29.85329,1.9999997 l -20.4174895,0 z m 1.0860365,7.7108604 15.080395,0 c 0.368365,0 0.651622,0.2987709 0.651622,0.6671369 l 0,7.276446 8.99859,0 c 0.368366,0 0.667137,0.298771 0.667137,0.667136 l 0,10.317349 c 0,0.368365 -0.298771,0.667137 -0.667137,0.667137 l -15.51481,0 c -0.368366,-2e-6 -0.651622,-0.298771 -0.651622,-0.667137 l 0,-6.15938 -8.564175,0 c -0.368366,0 -0.6671366,-0.298771 -0.6671366,-0.667136 l 0,-11.434415 c 0,-0.368366 0.2987706,-0.6671369 0.6671366,-0.6671369 z m 9.557123,29.4471089 3.67701,0 0,0.496474 -1.551481,0 0,3.847673 -0.589563,0 0,-3.847673 -1.535966,0 0,-0.496474 z m 4.235543,0 0.589563,0 0,1.784203 2.141043,0 0,-1.784203 0.589563,0 0,4.344147 -0.589563,0 0,-2.06347 -2.141043,0 0,2.06347 -0.589563,0 0,-4.344147 z m 4.48378,0 2.746121,0 0,0.496474 -2.156558,0 0,1.287729 2.063469,0 0,0.496474 -2.063469,0 0,1.566996 2.203103,0 0,0.496474 -2.792666,0 0,-4.344147 z m 3.770099,0 0.884344,0 1.101551,2.963329 1.117067,-2.963329 0.868829,0 0,4.344147 -0.574048,0 0,-3.816644 -1.117066,2.978844 -0.589563,0 -1.117066,-2.978844 0,3.816644 -0.574048,0 0,-4.344147 z m 5.150917,0 2.746121,0 0,0.496474 -2.172073,0 0,1.287729 2.078984,0 0,0.496474 -2.078984,0 0,1.566996 2.218617,0 0,0.496474 -2.792665,0 0,-4.344147 z" />
</defs>
<acyl-settings>
<linearGradient
     id="linearGradient4321">
    <stop
       style="stop-color:#FF6100;stop-opacity:1.0;"
       offset="0.0"
       id="stop1" />
  </linearGradient>
<linearGradient
     inkscape:collect="always"
     xlink:href="#linearGradient4321"
     id="acyl_gradient"
     x1="50.0%"
     y1="0.0%"
     x2="50.0%"
     y2="100.0%" />
<filter id="filter1111" x="-50%" y="-50%" width="200%" height="200%">
	<feImage
	id="feImage2"
	xlink:href="#1"
	result="result1" />
	<feComposite
	id="feComposite3633"
	in="result1"
	in2="SourceAlpha"
	operator="out" />
</filter>
<defs>
<use id="1" transform="translate(22.5,22.5) scale(1) translate(-22.5,-22.5)" style="stroke-opacity:1;stroke:url(#acyl_gradient);stroke-width:4" xlink:href="#path-main" />
</defs>
<use id="2" transform="translate(22.5,22.5) scale(1) translate(-22.5,-22.5)" style="fill:url(#acyl_gradient);filter:url(#filter1111)" xlink:href="#path-main" />
</acyl-settings>
</svg>
