<svg xmlns="http://www.w3.org/2000/svg" width="48" height="48">
<defs>
<defs
     id="defs4">
  </defs>
  <path
     id="path-main"
     d="M 9.918796,1.9999997 C 8.5891128,1.9999997 7.514,3.0751149 7.514,4.4047952 l 0,39.2059238 C 7.514,44.940401 8.5891128,46 9.918796,46 l 29.648801,0 c 1.329681,0 2.404795,-1.059599 2.404795,-2.389281 L 42.018942,13.636107 30.33629,1.9999997 l -20.417489,0 z m 16.399153,9.5571223 c 0.605604,1.6e-5 1.082385,0.103514 1.427363,0.325811 0.352625,0.214664 0.527493,0.508726 0.527503,0.884345 -1.1e-5,0.229994 -0.07156,0.428407 -0.217207,0.574048 -0.145665,0.145666 -0.320715,0.217219 -0.543018,0.217207 -0.168662,1.2e-5 -0.319435,-0.03175 -0.434415,-0.09309 -0.114997,-0.06898 -0.242224,-0.211904 -0.38787,-0.4189 l -0.04654,-0.06206 c -0.337309,-0.475275 -0.710958,-0.713667 -1.132581,-0.713681 -0.544287,1.4e-5 -1.021072,0.357419 -1.427362,1.055007 -0.398637,0.697616 -0.906996,2.152055 -1.504937,4.375176 l 2.125529,0 -0.186178,0.682652 -2.125529,0 -1.241184,4.732017 c -0.789596,3.020394 -1.647694,5.261375 -2.559944,6.717912 -0.919914,1.456529 -1.929151,2.187582 -3.025388,2.187588 -0.536612,-6e-6 -0.957906,-0.1192 -1.272214,-0.35684 -0.3143,-0.229983 -0.46544,-0.532078 -0.465444,-0.915374 3e-6,-0.222317 0.04801,-0.40485 0.170662,-0.527503 0.114994,-0.122657 0.281649,-0.18618 0.48096,-0.186178 0.160988,0 0.296066,0.03961 0.403385,0.108603 0.09966,0.06899 0.219039,0.243678 0.372355,0.511989 0.145658,0.252971 0.288765,0.419993 0.434415,0.511989 0.145655,0.09199 0.336222,0.139627 0.558533,0.139633 0.505954,-6e-6 0.950976,-0.341894 1.334273,-1.039492 0.3833,-0.697608 0.86008,-2.104038 1.427363,-4.204513 l 2.016925,-7.679831 -2.016925,0 0.186178,-0.682652 2.047955,0 c 0.505952,-2.000809 1.181696,-3.526617 2.047954,-4.576869 0.873916,-1.050224 1.883153,-1.56698 3.025388,-1.566996 z m 6.919605,10.131171 0.232723,0 c 0.312952,0.579557 0.543618,1.154132 0.698166,1.706629 0.154543,0.552508 0.23272,1.095935 0.232722,1.64457 0,0.737962 -0.101602,1.480661 -0.294781,2.218618 -0.193184,0.734099 -0.459104,1.410452 -0.822285,2.047955 -0.390231,0.676139 -0.851497,1.242928 -1.380818,1.691114 -0.529323,0.452045 -1.158591,0.803866 -1.861777,1.055007 l 0,-0.217207 c 0.691595,-0.28205 1.30523,-0.719953 1.815232,-1.334274 0.510005,-0.614323 0.95177,-1.431332 1.334274,-2.45134 0.23182,-0.602728 0.407728,-1.232058 0.527504,-1.877292 0.123636,-0.645227 0.186175,-1.262845 0.186177,-1.846262 -3e-6,-0.47136 -0.06248,-0.917053 -0.170663,-1.349789 C 33.625843,22.5433 33.461645,22.10944 33.237554,21.688293 z m -5.942172,0.01551 0,0.201693 c -0.687736,0.282055 -1.289717,0.731609 -1.799718,1.349788 -0.510003,0.618192 -0.947909,1.442988 -1.334273,2.466855 -0.227957,0.606597 -0.403867,1.220412 -0.527504,1.861777 -0.123639,0.641369 -0.186178,1.266714 -0.186177,1.846262 -2e-6,0.467502 0.04697,0.917058 0.155148,1.349789 0.108182,0.436591 0.284031,0.854936 0.511988,1.272214 l -0.232722,0 c -0.316822,-0.579553 -0.559136,-1.142476 -0.713681,-1.691114 -0.154548,-0.544777 -0.232722,-1.09593 -0.232722,-1.64457 0,-0.741819 0.101598,-1.480656 0.294781,-2.218618 0.197046,-0.74182 0.478477,-1.429825 0.8378,-2.063469 0.390228,-0.676135 0.839842,-1.231273 1.365303,-1.6756 0.529318,-0.448178 1.154723,-0.799998 1.861777,-1.055007 z m 0.589563,3.242595 c 0.09273,4e-6 0.190341,0.0547 0.263752,0.155148 0.07727,0.0966 0.182854,0.319411 0.325811,0.667137 0.05795,0.131369 0.116629,0.28778 0.186178,0.480959 0.07341,0.212504 0.139811,0.325814 0.186177,0.325811 0.01159,4e-6 0.02336,-0.0039 0.04654,-0.01552 0.02318,-0.01545 0.04274,-0.04274 0.06206,-0.06206 l 1.210155,-1.101551 c 0.166132,-0.150678 0.299062,-0.267913 0.403385,-0.341326 0.104313,-0.07341 0.194141,-0.1086 0.248237,-0.108604 0.06954,4e-6 0.112583,0.0352 0.139633,0.108604 0.03091,0.07341 0.04654,0.233629 0.04654,0.465444 -5e-6,0.340007 -0.0195,0.582441 -0.04654,0.744711 -0.02705,0.162277 -0.05838,0.24824 -0.108603,0.248237 -0.03864,2e-6 -0.07378,-0.01569 -0.09309,-0.06206 -0.01546,-0.05022 -0.01552,-0.151823 -0.01551,-0.294782 l 0,-0.418899 c -4e-6,-0.11977 -0.0079,-0.190218 -0.03103,-0.232723 -0.01932,-0.04249 -0.05838,-0.06206 -0.108603,-0.06206 -0.03864,3e-6 -0.08168,0.01957 -0.139633,0.06206 -0.05796,0.03864 -0.147787,0.101241 -0.248237,0.201693 l -0.806771,0.791255 c -0.03091,0.03091 -0.08168,0.07003 -0.139633,0.124119 -0.197049,0.193185 -0.294784,0.341628 -0.294781,0.4189 -5e-6,0.04637 0.03519,0.183218 0.108603,0.418899 0.07727,0.231821 0.167217,0.481984 0.279267,0.744711 0.119769,0.289778 0.205733,0.469611 0.248237,0.543019 0.04636,0.06955 0.08934,0.108604 0.124118,0.108603 0.05409,3e-6 0.09713,-0.03507 0.139634,-0.07757 0.04636,-0.0425 0.104978,-0.120675 0.170663,-0.232722 0.05022,-0.085 0.1089,-0.186717 0.186177,-0.325811 0.135225,-0.243411 0.232899,-0.372354 0.279267,-0.372355 0.01159,1e-6 0.01944,0.0039 0.03103,0.01551 0.01544,0.01159 0.03102,0.03496 0.03103,0.04655 -5e-6,0.06182 -0.04293,0.171326 -0.108603,0.341326 -0.06182,0.170002 -0.143982,0.377182 -0.263752,0.620592 -0.146823,0.297501 -0.260192,0.485185 -0.341326,0.574048 -0.08114,0.08886 -0.171027,0.139633 -0.263752,0.139633 -0.131366,0 -0.264236,-0.09387 -0.38787,-0.294781 -0.123638,-0.200911 -0.303474,-0.630846 -0.543018,-1.272214 l -0.12412,-0.341319 c -0.01932,-0.05409 -0.03496,-0.08928 -0.04654,-0.108604 -0.01159,-0.01932 -0.03496,-0.03103 -0.04654,-0.03103 -0.01546,1e-6 -0.03115,0.02337 -0.06206,0.04655 -0.02705,0.02319 -0.05832,0.05445 -0.09309,0.09309 l -0.992948,1.16361 c -0.212501,0.247277 -0.384608,0.431033 -0.543018,0.558534 -0.154547,0.123636 -0.279627,0.186177 -0.372355,0.186177 -0.08886,0 -0.159192,-0.03127 -0.201693,-0.09309 -0.0425,-0.06568 -0.06206,-0.155628 -0.06206,-0.279266 0,-0.340001 0.03133,-0.656628 0.108603,-0.946403 0.07727,-0.289773 0.159314,-0.434413 0.232723,-0.434415 0.02704,10e-7 0.05047,0.01177 0.06206,0.04654 0.01545,0.03091 0.01552,0.07003 0.01552,0.124119 0,0.05796 0.0039,0.128284 0,0.201692 -0.0039,0.06955 -0.0078,0.139935 -0.01552,0.217208 l -0.03103,0.372355 0,0.04654 c -1e-6,0.06955 0.01557,0.120376 0.03103,0.155149 0.01932,0.03091 0.03894,0.04654 0.07757,0.04654 0.03864,0 0.112828,-0.04684 0.201692,-0.124118 0.09273,-0.07727 0.206098,-0.18678 0.341326,-0.341326 l 1.086037,-1.2567 c 0.03864,-0.0425 0.05825,-0.09327 0.07757,-0.139633 0.02318,-0.05023 0.04654,-0.08934 0.04654,-0.124119 -2e-6,-0.085 -0.105463,-0.354779 -0.294781,-0.822285 l -0.04654,-0.124118 c -0.06955,-0.166135 -0.132088,-0.291215 -0.186178,-0.372355 -0.05409,-0.085 -0.104862,-0.124115 -0.139633,-0.124119 -0.04637,5e-6 -0.08941,0.03133 -0.139634,0.108604 -0.04637,0.07341 -0.12454,0.253187 -0.232722,0.527503 -0.01159,0.02705 -0.01944,0.05446 -0.03103,0.09309 -0.05409,0.150688 -0.112709,0.232725 -0.170663,0.232722 -0.03091,4e-6 -0.0466,-0.01557 -0.06206,-0.03103 -0.01545,-0.01931 -0.02717,-0.0428 -0.03103,-0.07757 -1e-6,-0.09659 0.08989,-0.358462 0.263752,-0.775741 l 0.03103,-0.07757 c 0.100455,-0.227952 0.202052,-0.392151 0.294782,-0.496474 0.09273,-0.108177 0.17881,-0.170659 0.279266,-0.170663 z M 26.907512,39.08039 c 0.25987,4e-6 0.50035,0.03879 0.729196,0.108604 0.23078,0.06788 0.449926,0.172606 0.651622,0.310296 l 0,0.620592 c -0.197817,-0.184235 -0.411146,-0.327747 -0.636107,-0.4189 -0.223029,-0.09114 -0.461568,-0.139629 -0.713681,-0.139633 -0.496476,4e-6 -0.884346,0.16097 -1.148096,0.465444 -0.263753,0.302542 -0.387871,0.729199 -0.38787,1.303244 -1e-6,0.572112 0.124117,1.014282 0.38787,1.318759 0.26375,0.302541 0.65162,0.44993 1.148096,0.44993 0.252113,0 0.490652,-0.03297 0.713681,-0.124119 0.224961,-0.09115 0.43829,-0.234658 0.636107,-0.4189 l 0,0.620593 c -0.205575,0.139633 -0.420842,0.240482 -0.651622,0.310296 -0.228846,0.06981 -0.473204,0.108603 -0.729196,0.108603 -0.657442,0 -1.173309,-0.203633 -1.551481,-0.605077 -0.378174,-0.403385 -0.574048,-0.963855 -0.574048,-1.660085 0,-0.698163 0.195874,-1.24312 0.574048,-1.64457 0.378172,-0.40338 0.894039,-0.605073 1.551481,-0.605077 z m 11.543019,0 c 0.25987,4e-6 0.515864,0.03879 0.74471,0.108604 0.23078,0.06788 0.434412,0.172606 0.636108,0.310296 l 0,0.620592 c -0.197818,-0.184235 -0.395632,-0.327747 -0.620593,-0.4189 -0.223028,-0.09114 -0.461568,-0.139629 -0.713681,-0.139633 -0.496476,4e-6 -0.884346,0.16097 -1.148096,0.465444 -0.263753,0.302542 -0.387871,0.729199 -0.38787,1.303244 -10e-7,0.572112 0.124117,1.014282 0.38787,1.318759 0.26375,0.302541 0.65162,0.44993 1.148096,0.44993 0.252113,0 0.490653,-0.03297 0.713681,-0.124119 0.224961,-0.09115 0.422775,-0.234658 0.620593,-0.4189 l 0,0.620593 c -0.205575,0.139633 -0.420843,0.240482 -0.651622,0.310296 -0.228847,0.06981 -0.473205,0.108603 -0.729196,0.108603 -0.657442,0 -1.173309,-0.203633 -1.551481,-0.605077 -0.378175,-0.403385 -0.558534,-0.963855 -0.558534,-1.660085 0,-0.698163 0.180359,-1.24312 0.558534,-1.64457 0.378172,-0.40338 0.894039,-0.605073 1.551481,-0.605077 z m -8.129761,0.07757 0.667137,0 1.64457,4.344147 -0.605078,0 -0.38787,-1.117067 -1.970381,0 -0.38787,1.117067 -0.620592,0 1.660084,-4.344147 z m 2.947814,0 0.589563,0 0,3.847673 2.110014,0 0,0.496474 -2.699577,0 0,-4.344147 z m -2.622003,0.574048 -0.791255,2.172073 1.598025,0 -0.80677,-2.172073 z" />
</defs>
<acyl-settings>
<linearGradient
     id="linearGradient4321">
    <stop
       style="stop-color:#FF6100;stop-opacity:1.0;"
       offset="0.0"
       id="stop1" />
  </linearGradient>
<linearGradient
     inkscape:collect="always"
     xlink:href="#linearGradient4321"
     id="acyl_gradient"
     x1="50.0%"
     y1="0.0%"
     x2="50.0%"
     y2="100.0%" />
<filter id="filter1111" x="-50%" y="-50%" width="200%" height="200%">
	<feImage
	id="feImage2"
	xlink:href="#1"
	result="result1" />
	<feComposite
	id="feComposite3633"
	in="result1"
	in2="SourceAlpha"
	operator="out" />
</filter>
<defs>
<use id="1" transform="translate(22.5,22.5) scale(1) translate(-22.5,-22.5)" style="stroke-opacity:1;stroke:url(#acyl_gradient);stroke-width:4" xlink:href="#path-main" />
</defs>
<use id="2" transform="translate(22.5,22.5) scale(1) translate(-22.5,-22.5)" style="fill:url(#acyl_gradient);filter:url(#filter1111)" xlink:href="#path-main" />
</acyl-settings>
</svg>
