<svg xmlns="http://www.w3.org/2000/svg" width="48" height="48">
<defs>
<defs
     id="defs4">
  </defs>
  <path
     id="path-main"
     d="M 10.501796,1.9999997 C 9.1721128,1.9999997 8.097,3.0751149 8.097,4.4047952 l 0,39.2059238 C 8.097,44.940401 9.1721128,46 10.501796,46 l 29.648801,0 c 1.329681,0 2.404795,-1.059599 2.404795,-2.389281 l 0.04655,-29.974612 -11.682652,-11.6361073 -20.417489,0 z m 5.135402,17.1904093 c 0.0087,-3.28e-4 0.02226,0 0.03103,0 l 3.863188,0 c 0.373991,0 0.667136,0.30866 0.667137,0.682651 l 0,0.729197 16.088857,0 c 0.747985,0 1.349788,0.601803 1.349789,1.349788 l 0,11.232722 c 1e-6,0.747985 -0.601805,1.349787 -1.349789,1.349789 l -21.488011,0 c -0.747985,0 -1.34979,-0.601805 -1.349789,-1.349789 l 0,-11.232722 c 0,-0.730546 0.579589,-1.322585 1.303244,-1.349788 0.0057,-2.15e-4 0.0098,1.42e-4 0.01552,0 0.01162,-2.94e-4 0.01934,0 0.03103,0 l 0.186178,0 0,-0.729197 c 0,-0.365227 0.289853,-0.668991 0.651622,-0.682651 z m 16.926657,2.358251 c -0.157119,0.01372 -0.279268,0.149493 -0.279267,0.310296 l 0,1.6756 c 0,0.169996 0.1403,0.310297 0.310296,0.310296 l 3.366714,0 c 0.169997,0 0.310295,-0.140301 0.310296,-0.310296 l 0,-1.6756 c 0,-0.169996 -0.1403,-0.310296 -0.310296,-0.310296 l -3.366714,0 c -0.0066,0 -0.0245,-4.13e-4 -0.03103,0 z m -7.152327,1.117066 c -2.651942,0.06696 -4.778561,2.234693 -4.778562,4.90268 0,2.710127 2.192556,4.918195 4.90268,4.918195 2.710125,0 4.918194,-2.20807 4.918195,-4.918195 0,-2.710126 -2.208068,-4.902679 -4.918195,-4.90268 -0.02117,0 -0.04095,-2.66e-4 -0.06206,0 -0.01047,1.33e-4 -0.02057,-1.97e-4 -0.03103,0 -0.01042,1.98e-4 -0.02063,-2.62e-4 -0.03103,0 z m 0.124118,1.753174 c 1.744645,1e-6 3.165021,1.40486 3.165021,3.149506 0,1.744645 -1.420375,3.165021 -3.165021,3.165021 -1.744647,0 -3.149506,-1.420375 -3.149506,-3.165021 0,-1.744647 1.40486,-3.149506 3.149506,-3.149506 z m 10.860367,14.661495 c 0.283142,4e-6 0.552712,0.03879 0.80677,0.108604 0.255991,0.06982 0.482895,0.174545 0.698166,0.310296 l 0,0.620592 c -0.217211,-0.184235 -0.438297,-0.325807 -0.682651,-0.4189 -0.244362,-0.09308 -0.506174,-0.139629 -0.775741,-0.139633 -0.531384,4e-6 -0.927011,0.153212 -1.19464,0.449929 -0.265692,0.296725 -0.403386,0.731139 -0.403385,1.318759 -10e-7,0.585686 0.137693,1.037556 0.403385,1.334274 0.267629,0.296722 0.663256,0.434415 1.19464,0.434415 0.207508,0 0.395625,-0.01162 0.558533,-0.04652 0.162902,-0.03684 0.304475,-0.09503 0.434415,-0.170663 l 0,-1.163611 -0.961918,0 0,-0.480959 1.535966,0 0,1.861777 c -0.226908,0.160967 -0.471266,0.288963 -0.744711,0.372356 -0.273452,0.08145 -0.558536,0.124118 -0.868829,0.124118 -0.678775,0 -1.214035,-0.209447 -1.598026,-0.605077 -0.382052,-0.397567 -0.574048,-0.952222 -0.574047,-1.660085 -10e-7,-0.7098 0.191995,-1.248939 0.574047,-1.64457 0.383991,-0.397563 0.919251,-0.605073 1.598026,-0.605077 z m -12.784203,0.07757 0.574048,0 0,4.344147 -0.574048,0 0,-4.344147 z m 1.753173,0 0.86883,0 1.117066,2.963329 1.117066,-2.963329 0.868829,0 0,4.344147 -0.574047,0 0,-3.816644 -1.117067,2.978844 -0.589563,0 -1.117066,-2.978844 0,3.816644 -0.574048,0 0,-4.344147 z m 6.267983,0 0.651622,0 1.660085,4.344147 -0.605078,0 -0.403385,-1.117067 -1.954866,0 -0.38787,1.117067 -0.620592,0 1.660084,-4.344147 z m 7.462624,0 2.746121,0 0,0.496474 -2.156558,0 0,1.287729 2.063469,0 0,0.496474 -2.063469,0 0,1.566996 2.203102,0 0,0.496474 -2.792665,0 0,-4.344147 z m -7.136813,0.574048 -0.791255,2.172073 1.582511,0 -0.791256,-2.172073 z" />
</defs>
<acyl-settings>
<linearGradient
     id="linearGradient4321">
    <stop
       style="stop-color:#FF6100;stop-opacity:1.0;"
       offset="0.0"
       id="stop1" />
  </linearGradient>
<linearGradient
     inkscape:collect="always"
     xlink:href="#linearGradient4321"
     id="acyl_gradient"
     x1="50.0%"
     y1="0.0%"
     x2="50.0%"
     y2="100.0%" />
<filter id="filter1111" x="-50%" y="-50%" width="200%" height="200%">
	<feImage
	id="feImage2"
	xlink:href="#1"
	result="result1" />
	<feComposite
	id="feComposite3633"
	in="result1"
	in2="SourceAlpha"
	operator="out" />
</filter>
<defs>
<use id="1" transform="translate(22.5,22.5) scale(1) translate(-22.5,-22.5)" style="stroke-opacity:1;stroke:url(#acyl_gradient);stroke-width:4" xlink:href="#path-main" />
</defs>
<use id="2" transform="translate(22.5,22.5) scale(1) translate(-22.5,-22.5)" style="fill:url(#acyl_gradient);filter:url(#filter1111)" xlink:href="#path-main" />
</acyl-settings>
</svg>
