<svg xmlns="http://www.w3.org/2000/svg" width="48" height="48">
<defs>
<defs
     id="defs4">
  </defs>
  <path
     id="path-main"
     d="M 10.401796,1.9999997 C 9.0721128,1.9999997 7.997,3.0751149 7.997,4.4047952 l 0,39.2059238 C 7.997,44.940401 9.0721128,46 10.401796,46 l 29.648801,0 c 1.329681,0 2.404795,-1.059599 2.404795,-2.389281 L 42.501942,13.636107 30.81929,1.9999997 l -20.417489,0 z m 3.087447,8.4400563 23.179125,0 c 0.523103,0 0.946404,0.4233 0.946404,0.946404 l 0,16.306065 c 0,0.523102 -0.4233,0.946403 -0.946404,0.946403 l -10.627644,0 0,6.779972 2.404795,0 0,1.675599 -6.035261,0 0,-1.675599 2.48237,0 0,-6.779972 -11.403385,0 c -0.523103,0 -0.946404,-0.4233 -0.946404,-0.946403 l 0,-16.306065 c 0,-0.523103 0.4233,-0.946404 0.946404,-0.946404 z m 25.61495,28.640339 c 0.20363,4e-6 0.409201,0.02522 0.620593,0.06206 0.211386,0.03685 0.430533,0.08146 0.651622,0.155148 l 0,0.574048 c -0.223029,-0.10666 -0.438296,-0.180356 -0.636107,-0.232722 -0.197816,-0.05236 -0.374298,-0.07757 -0.558534,-0.07757 -0.319994,4e-6 -0.57017,0.06206 -0.74471,0.186178 -0.172604,0.124122 -0.263753,0.298663 -0.263752,0.527503 -10e-7,0.191999 0.05624,0.335511 0.170663,0.434415 0.116359,0.09697 0.329688,0.172605 0.651622,0.232722 l 0.35684,0.07757 c 0.438291,0.0834 0.76992,0.223028 0.977433,0.434415 0.209447,0.209452 0.310293,0.500356 0.310297,0.853314 -4e-6,0.420841 -0.135758,0.744711 -0.4189,0.961918 -0.281209,0.217208 -0.696229,0.325811 -1.241185,0.325811 -0.205573,0 -0.434416,-0.03103 -0.667137,-0.07757 -0.230784,-0.04652 -0.465445,-0.110544 -0.713681,-0.201692 l 0,-0.605078 c 0.238539,0.133815 0.469322,0.226904 0.698166,0.294782 0.228843,0.06788 0.461564,0.108603 0.682652,0.108603 0.335506,0 0.593439,-0.06981 0.77574,-0.201692 0.182297,-0.131874 0.263749,-0.314174 0.263752,-0.558533 -3e-6,-0.213325 -0.05431,-0.391748 -0.186178,-0.511989 -0.129939,-0.120238 -0.352964,-0.20363 -0.651622,-0.263752 l -0.35684,-0.07757 c -0.438295,-0.08727 -0.75053,-0.217205 -0.946404,-0.403385 -0.195874,-0.186175 -0.294781,-0.444109 -0.294781,-0.77574 0,-0.383988 0.133815,-0.694284 0.403385,-0.915374 0.271508,-0.221082 0.641924,-0.325807 1.117066,-0.325811 z m -12.830747,0.07757 1.318759,0 c 0.486774,4e-6 0.853311,0.120244 1.101551,0.341326 0.250173,0.21915 0.372352,0.537203 0.372356,0.961918 -4e-6,0.428599 -0.122183,0.742774 -0.372356,0.961918 -0.24824,0.219149 -0.614777,0.341328 -1.101551,0.341326 l -0.744711,0 0,1.737659 -0.574048,0 0,-4.344147 z m 3.583921,0 1.334273,0 c 0.496472,4e-6 0.857191,0.10279 1.101552,0.310296 0.244355,0.207514 0.372352,0.527507 0.372355,0.946403 -3e-6,0.273452 -0.05818,0.502295 -0.186177,0.682652 -0.126061,0.180362 -0.316118,0.302541 -0.558533,0.372356 0.126055,0.04267 0.254052,0.12412 0.372355,0.263751 0.120237,0.139634 0.236598,0.345209 0.356841,0.589563 l 0.589562,1.179126 -0.620592,0 -0.558533,-1.117067 c -0.143515,-0.290899 -0.283148,-0.479018 -0.4189,-0.574048 -0.133818,-0.09503 -0.325813,-0.139631 -0.558533,-0.139633 l -0.636107,0 0,1.830748 -0.589563,0 0,-4.344147 z m 4.142454,0 2.746121,0 0,0.496474 -2.156558,0 0,1.287729 2.078984,0 0,0.496474 -2.078984,0 0,1.566996 2.218618,0 0,0.496474 -2.808181,0 0,-4.344147 z m -7.152327,0.480959 0,1.629055 0.744711,0 c 0.273446,2e-6 0.486774,-0.06012 0.636107,-0.201693 0.149327,-0.14157 0.217204,-0.343262 0.217207,-0.605077 -3e-6,-0.25987 -0.06788,-0.463502 -0.217207,-0.605078 -0.149333,-0.141569 -0.362661,-0.217203 -0.636107,-0.217207 l -0.744711,0 z m 3.599436,0 0,1.551481 0.74471,0 c 0.283144,2e-6 0.492593,-0.07175 0.636108,-0.201693 0.145448,-0.131873 0.217204,-0.31999 0.217207,-0.574048 -3e-6,-0.254051 -0.07176,-0.446047 -0.217207,-0.574047 -0.143515,-0.129933 -0.352964,-0.201689 -0.636108,-0.201693 l -0.74471,0 z" />
</defs>
<acyl-settings>
<linearGradient
     id="linearGradient4321">
    <stop
       style="stop-color:#FF6100;stop-opacity:1.0;"
       offset="0.0"
       id="stop1" />
  </linearGradient>
<linearGradient
     inkscape:collect="always"
     xlink:href="#linearGradient4321"
     id="acyl_gradient"
     x1="50.0%"
     y1="0.0%"
     x2="50.0%"
     y2="100.0%" />
<filter id="filter1111" x="-50%" y="-50%" width="200%" height="200%">
	<feImage
	id="feImage2"
	xlink:href="#1"
	result="result1" />
	<feComposite
	id="feComposite3633"
	in="result1"
	in2="SourceAlpha"
	operator="out" />
</filter>
<defs>
<use id="1" transform="translate(22.5,22.5) scale(1) translate(-22.5,-22.5)" style="stroke-opacity:1;stroke:url(#acyl_gradient);stroke-width:4" xlink:href="#path-main" />
</defs>
<use id="2" transform="translate(22.5,22.5) scale(1) translate(-22.5,-22.5)" style="fill:url(#acyl_gradient);filter:url(#filter1111)" xlink:href="#path-main" />
</acyl-settings>
</svg>
