<svg xmlns="http://www.w3.org/2000/svg" width="48" height="48">
<defs>
<defs
     id="defs1309">
  </defs>
  <path
     id="path-main"
     d="M 7.0989583,2 C 4.2759543,2 2,4.2759543 2,7.0989583 L 2,40.901042 C 2,43.724046 4.2759543,46 7.0989583,46 L 40.901042,46 C 43.724046,46 46,43.724045 46,40.901042 L 46,7.0989583 C 46,4.2759543 43.724045,2 40.901042,2 L 7.0989583,2 z m 1.03125,3.6666667 31.7395837,0 c 1.357771,0 2.463541,1.1057697 2.463541,2.4635413 l 0,31.739584 c -1e-6,1.357771 -1.105769,2.463541 -2.463541,2.463541 l -31.7395837,0 c -1.3577718,-1e-6 -2.4635416,-1.105769 -2.4635416,-2.463541 l 0,-31.739584 c 0,-1.3577715 1.1057697,-2.4635413 2.4635416,-2.4635413 z M 12.398438,8.1875 8.1875,12.398438 l 5.270833,5.270833 -5.270833,5.270833 14.752604,0 0,-14.752604 -5.270833,5.270833 L 12.398438,8.1875 z m 12.661458,16.872396 0,14.752604 5.270833,-5.270833 5.270833,5.270833 4.210938,-4.210938 -5.270833,-5.270833 5.270833,-5.270833 -14.752604,0 z" />
</defs>
<acyl-settings>
<linearGradient
     id="linearGradient4321">
    <stop
       style="stop-color:#FF6100;stop-opacity:1.0;"
       offset="0.0"
       id="stop1" />
  </linearGradient>
<linearGradient
     inkscape:collect="always"
     xlink:href="#linearGradient4321"
     id="acyl_gradient"
     x1="50.0%"
     y1="0.0%"
     x2="50.0%"
     y2="100.0%" />
<filter id="filter1111" x="-50%" y="-50%" width="200%" height="200%">
	<feImage
	id="feImage2"
	xlink:href="#1"
	result="result1" />
	<feComposite
	id="feComposite3633"
	in="result1"
	in2="SourceAlpha"
	operator="out" />
</filter>
<defs>
<use id="1" transform="translate(22.5,22.5) scale(1) translate(-22.5,-22.5)" style="stroke-opacity:1;stroke:url(#acyl_gradient);stroke-width:4" xlink:href="#path-main" />
</defs>
<use id="2" transform="translate(22.5,22.5) scale(1) translate(-22.5,-22.5)" style="fill:url(#acyl_gradient);filter:url(#filter1111)" xlink:href="#path-main" />
</acyl-settings>
</svg>
