<svg xmlns="http://www.w3.org/2000/svg" width="48" height="48">
<defs>
  <path
     d="M 5.125 8 C 3.391658 8 2 9.304406 2 10.9375 L 2.125 37.0625 C 2.125 38.695593 3.51666 39.999996 5.25 40 L 42.875 40 C 44.608342 40 46.000002 38.695593 46 37.0625 L 46 16.25 C 46 14.616907 44.608338 13.28125 42.875 13.28125 L 26.1875 13.28125 L 24.9375 10.9375 C 24.220631 9.042752 23.15482 7.9345843 21.8125 8 L 5.125 8 z M 23.21875 16.5 C 23.859816 16.5 24.475208 16.841419 24.78125 17.4375 L 32.53125 33.09375 L 32.5625 33.09375 L 32.5625 33.125 C 32.789465 33.678638 32.774332 34.297391 32.46875 34.84375 C 32.46285 34.85428 32.47485 34.89583 32.46875 34.90625 C 32.184037 35.465227 31.593056 35.781251 30.96875 35.78125 L 15.5 35.78125 C 14.897353 35.78125 14.371393 35.471839 14.0625 34.9375 C 13.732127 34.366007 13.707907 33.711845 13.96875 33.15625 L 13.96875 33.125 L 21.65625 17.5 L 21.6875 17.46875 C 21.989914 16.888547 22.539264 16.500001 23.21875 16.5 z M 23.21875 21.28125 C 23.15573 21.28125 23.101682 21.302637 23.0625 21.40625 L 17.59375 32.4375 C 17.4766 32.644732 17.61862 32.8125 17.8125 32.8125 L 28.75 32.8125 C 28.94388 32.812503 29.021752 32.644734 28.90625 32.4375 L 23.40625 21.40625 C 23.3485 21.302638 23.281765 21.28125 23.21875 21.28125 z M 22.25 24.9375 L 24.46875 24.96875 L 23.65625 28.25 L 23.0625 28.3125 L 22.25 24.9375 z M 23.21875 29.34375 C 23.31208 29.32288 23.402824 29.33079 23.5 29.34375 C 23.629569 29.36104 23.744755 29.393557 23.875 29.46875 C 24.395981 29.769537 24.509728 30.31632 24.21875 30.90625 C 23.914 31.434094 23.33348 31.644539 22.8125 31.34375 C 22.32873 31.064445 22.195251 30.465342 22.5 29.9375 C 22.684608 29.617749 22.938782 29.406333 23.21875 29.34375 z "
     id="path-main" />
</defs>
<acyl-settings>
<linearGradient
     id="linearGradient4321">
    <stop
       style="stop-color:#FF6100;stop-opacity:1.0;"
       offset="0.0"
       id="stop1" />
  </linearGradient>
<linearGradient
     inkscape:collect="always"
     xlink:href="#linearGradient4321"
     id="acyl_gradient"
     x1="50.0%"
     y1="0.0%"
     x2="50.0%"
     y2="100.0%" />
<filter id="filter1111" x="-50%" y="-50%" width="200%" height="200%">
	<feImage
	id="feImage2"
	xlink:href="#1"
	result="result1" />
	<feComposite
	id="feComposite3633"
	in="result1"
	in2="SourceAlpha"
	operator="out" />
</filter>
<defs>
<use id="1" transform="translate(22.5,22.5) scale(1) translate(-22.5,-22.5)" style="stroke-opacity:1;stroke:url(#acyl_gradient);stroke-width:4" xlink:href="#path-main" />
</defs>
<use id="2" transform="translate(22.5,22.5) scale(1) translate(-22.5,-22.5)" style="fill:url(#acyl_gradient);filter:url(#filter1111)" xlink:href="#path-main" />
</acyl-settings>
</svg>
