<svg xmlns="http://www.w3.org/2000/svg" width="48" height="48">
<defs>
  <path
     d="M 5.125 8 C 3.391658 8 2 9.304406 2 10.9375 L 2.125 37.0625 C 2.125 38.695593 3.51666 39.999996 5.25 40 L 42.875 40 C 44.608342 40 46.000002 38.695593 46 37.0625 L 46 16.25 C 46 14.616907 44.608338 13.28125 42.875 13.28125 L 26.1875 13.28125 L 24.9375 10.9375 C 24.220631 9.042752 23.15482 7.9345843 21.8125 8 L 5.125 8 z M 21.78125 15.96875 C 23.526261 15.766394 22.61491 17.791371 23.96875 18.59375 C 24.595639 18.60305 25.19962 18.66488 25.78125 18.8125 C 27.38616 18.363097 26.91271 15.926194 29 17.15625 C 30.99398 18.331271 28.88777 19.085334 29.03125 20.5625 C 29.61602 21.09157 30.11342 21.691124 30.5 22.375 C 31.83484 22.775952 33.06246 21.170164 33.625 23.34375 C 34.17619 25.473485 32.42531 24.719611 31.4375 25.625 C 31.4387 25.67691 31.43706 25.72907 31.4375 25.78125 C 31.4451 26.601652 31.28554 27.386895 31.03125 28.125 C 31.71368 29.306475 33.69001 29.056212 32.5625 30.96875 C 31.38781 32.96132 30.63516 30.88739 29.15625 31.03125 C 28.64292 31.516102 28.07773 31.920536 27.4375 32.25 C 26.74762 33.670501 28.70502 35.001038 26.40625 35.59375 C 24.04679 36.20211 25.208979 33.989691 23.75 33.125 C 23.107219 33.1175 22.501531 32.996526 21.90625 32.84375 C 20.32779 33.309273 20.82776 35.755669 18.75 34.53125 C 16.75612 33.35623 18.862219 32.602164 18.71875 31.125 C 18.114799 30.584135 17.58218 29.985769 17.1875 29.28125 C 15.86435 28.913594 14.65203 30.532153 14.09375 28.375 C 13.54256 26.245264 15.32469 26.99914 16.3125 26.09375 C 16.3101 26.034 16.312951 25.96637 16.3125 25.90625 C 16.3049 25.085847 16.40196 24.300606 16.65625 23.5625 C 15.97382 22.381025 14.05999 22.631291 15.1875 20.71875 C 16.36181 18.726831 17.084559 20.829845 18.5625 20.6875 C 19.085509 20.191237 19.657261 19.740392 20.3125 19.40625 C 20.96958 17.994495 19.057691 16.651934 21.34375 16.0625 C 21.51377 16.01866 21.64574 15.98447 21.78125 15.96875 z M 23.84375 22.96875 C 22.19619 22.98287 20.8603 24.292515 20.875 25.875 C 20.8897 27.457486 22.258681 28.73287 23.90625 28.71875 C 25.55381 28.70463 26.85845 27.394986 26.84375 25.8125 C 26.82904 24.230015 25.491309 22.95463 23.84375 22.96875 z "
     id="path-main" />
</defs>
<acyl-settings>
<linearGradient
     id="linearGradient4321">
    <stop
       style="stop-color:#FF6100;stop-opacity:1.0;"
       offset="0.0"
       id="stop1" />
  </linearGradient>
<linearGradient
     inkscape:collect="always"
     xlink:href="#linearGradient4321"
     id="acyl_gradient"
     x1="50.0%"
     y1="0.0%"
     x2="50.0%"
     y2="100.0%" />
<filter id="filter1111" x="-50%" y="-50%" width="200%" height="200%">
	<feImage
	id="feImage2"
	xlink:href="#1"
	result="result1" />
	<feComposite
	id="feComposite3633"
	in="result1"
	in2="SourceAlpha"
	operator="out" />
</filter>
<defs>
<use id="1" transform="translate(22.5,22.5) scale(1) translate(-22.5,-22.5)" style="stroke-opacity:1;stroke:url(#acyl_gradient);stroke-width:4" xlink:href="#path-main" />
</defs>
<use id="2" transform="translate(22.5,22.5) scale(1) translate(-22.5,-22.5)" style="fill:url(#acyl_gradient);filter:url(#filter1111)" xlink:href="#path-main" />
</acyl-settings>
</svg>
