<svg xmlns="http://www.w3.org/2000/svg" width="48" height="48">
<defs>
<defs
     id="defs3">
  </defs>
  <path
     d="M 4.5083836,7.2794958 C 3.1111395,7.2794958 2,8.5636695 2,10.142005 l 0,28.270959 c 0,1.578335 1.1111396,2.862508 2.5083836,2.862508 l 38.9832324,0 c 1.397244,0 2.508386,-1.284174 2.508384,-2.862508 L 46,10.142005 C 46,8.5636693 44.888862,7.279496 43.491616,7.2794958 l -38.9832324,0 z m 0.9443327,2.8329982 3.4822267,0 c 0.3394521,0 0.6197183,0.280266 0.6197183,0.619718 l 0,3.482227 c 0,0.339453 -0.2802658,0.619718 -0.6197183,0.619718 l -3.4822267,0 c -0.3394526,0 -0.6197183,-0.280265 -0.6197183,-0.619718 l 0,-3.482227 c 0,-0.339452 0.2802658,-0.619718 0.6197183,-0.619718 z m 8.5580147,2.301811 20.303152,0 c 0.406934,0 0.767271,0.21682 0.767271,0.501677 l 0,6.02012 5.784037,0 c 0.406935,10e-7 0.73776,0.216824 0.73776,0.501677 l 0,11.804158 -9.797451,-9.826961 c 0.70474,-2.369565 0.154863,-5.038966 -1.711603,-6.905433 -1.462428,-1.462427 -3.423129,-2.121126 -5.341382,-2.006707 -0.639418,0.03814 -1.277408,0.139894 -1.888665,0.354125 -0.160172,0.05104 -0.288146,0.19002 -0.324615,0.354125 -0.03647,0.164104 0.02407,0.328583 0.147552,0.442656 l 3.895373,3.895372 -1.062375,2.154259 -2.213279,1.121395 -3.895373,-3.895372 c -0.114916,-0.109026 -0.288306,-0.153661 -0.442655,-0.118042 -0.154349,0.03562 -0.269095,0.146746 -0.324615,0.295104 -0.869679,2.449557 -0.334335,5.302152 1.623072,7.259557 1.880994,1.880995 4.553713,2.412206 6.934943,1.682093 l 5.9611,5.9611 -12.600939,0 c -0.406935,2e-6 -0.73776,-0.216823 -0.73776,-0.501677 l 0,-6.020121 -5.813548,0 c -0.406936,-1e-6 -0.73776,-0.246334 -0.73776,-0.531187 l 0,-12.040241 c 0,-0.284857 0.330824,-0.501677 0.73776,-0.501677 z m 11.066398,1.180416 c 1.530948,-0.0248 3.145228,0.341739 4.367539,1.564051 1.696758,1.696759 2.158674,4.168109 1.416499,6.285714 -0.05776,0.165349 -0.0071,0.320115 0.118042,0.442656 l 0,0.02951 10.063045,10.063045 2.331321,2.331322 0.05902,0.05902 0.265593,0.265594 -0.324614,0.324614 -2.655936,2.655936 -0.324614,0.324614 -0.265594,-0.265593 -0.05902,-0.05902 -5.606975,-5.606975 -6.787391,-6.787391 c -0.122538,-0.125148 -0.306812,-0.175811 -0.472166,-0.118042 -2.123931,0.754072 -4.583064,0.286152 -6.285714,-1.416499 -1.230437,-1.230434 -1.600304,-2.829686 -1.564051,-4.367538 l 0.02951,-1.091885 0.796781,0.76727 2.714956,2.714957 c 0.138991,0.136657 0.328041,0.17709 0.501677,0.08853 l 2.626425,-1.298458 c 0.08626,-0.04335 0.163223,-0.120326 0.206573,-0.206572 l 1.327968,-2.655936 c 0.08856,-0.173639 0.04813,-0.362684 -0.08853,-0.501677 l -2.714956,-2.744466 -0.76727,-0.767271 1.091884,-0.02951 z m 1.327968,1.121395 1.741114,1.741113 c 0.418979,0.426133 0.537111,1.090707 0.265593,1.623072 l -1.327968,2.626425 C 26.94939,20.974221 26.731602,21.192 26.464118,21.326445 l -2.626425,1.298457 c -0.532365,0.271521 -1.196938,0.182897 -1.623072,-0.236083 l -1.741113,-1.741114 c 0.151912,0.875997 0.41596,1.714419 1.091884,2.390342 1.441351,1.441351 3.514519,1.818541 5.311872,1.180416 0.508928,-0.177805 1.068846,-0.06058 1.446009,0.324615 l 7.46613,7.46613 4.603622,4.603621 1.977196,-1.977196 -2.626425,-2.626425 -9.443327,-9.443327 c -0.385189,-0.377163 -0.502421,-0.93708 -0.324614,-1.446009 0.626722,-1.788189 0.227798,-3.844636 -1.209926,-5.282361 -0.672453,-0.672454 -1.488776,-0.962216 -2.360832,-1.121395 z m -20.9523807,2.006707 3.4822267,0 c 0.3394521,0 0.6197183,0.280265 0.6197183,0.619718 l 0,3.482227 c 0,0.339451 -0.2802658,0.619718 -0.6197183,0.619718 l -3.4822267,0 c -0.3394526,0 -0.6197183,-0.280266 -0.6197183,-0.619718 l 0,-3.482227 c 0,-0.339452 0.2802658,-0.619718 0.6197183,-0.619718 z m 0.6787391,21.719651 36.1207246,0 c 0.722989,0 1.298457,0.009 1.298457,0.02951 l 0,0.885312 c 0,0.02057 -0.575468,0.02951 -1.298457,0.02951 l -36.1207246,0 c -0.7229898,0 -1.2984574,-0.0089 -1.2984574,-0.02951 l 0,-0.885312 c 0,-0.02057 0.5754676,-0.02951 1.2984574,-0.02951 z"
     id="path-main"
      />
</defs>
<acyl-settings>
<linearGradient
     id="linearGradient4321">
    <stop
       style="stop-color:#FF6100;stop-opacity:1.0;"
       offset="0.0"
       id="stop1" />
  </linearGradient>
<linearGradient
     inkscape:collect="always"
     xlink:href="#linearGradient4321"
     id="acyl_gradient"
     x1="50.0%"
     y1="0.0%"
     x2="50.0%"
     y2="100.0%" />
<filter id="filter1111" x="-50%" y="-50%" width="200%" height="200%">
	<feImage
	id="feImage2"
	xlink:href="#1"
	result="result1" />
	<feComposite
	id="feComposite3633"
	in="result1"
	in2="SourceAlpha"
	operator="out" />
</filter>
<defs>
<use id="1" transform="translate(22.5,22.5) scale(1) translate(-22.5,-22.5)" style="stroke-opacity:1;stroke:url(#acyl_gradient);stroke-width:4" xlink:href="#path-main" />
</defs>
<use id="2" transform="translate(22.5,22.5) scale(1) translate(-22.5,-22.5)" style="fill:url(#acyl_gradient);filter:url(#filter1111)" xlink:href="#path-main" />
</acyl-settings>
</svg>
