<svg xmlns="http://www.w3.org/2000/svg" width="48" height="48">
<defs>
<defs
     id="defs3">
  </defs>
  <path
     d="M 8.8629554,2 C 5.9184963,2 3.469,4.3894041 3.469,7.2424242 l 0,33.5151518 C 3.469,43.610596 5.9184964,46 8.8629554,46 L 38.863044,46 C 41.807503,46 44.257,43.610597 44.257,40.757576 l 0,-33.5151518 C 44.257,4.3894041 41.807504,2 38.863044,2 L 8.8629554,2 z m 0,3.8484848 2.1818246,0 0,27.0606062 L 18.62056,24 l 7.363659,8.909091 0,-27.0606062 12.878825,0 c 0.83034,0 1.424247,0.5908108 1.424247,1.3939394 l 0,33.5151518 c 0,0.803132 -0.593911,1.393939 -1.424247,1.393939 l -30.0000886,0 c -0.8303366,0 -1.4242466,-0.59081 -1.4242466,-1.393939 l 0,-33.5151518 c 0,-0.8031286 0.59391,-1.3939394 1.4242466,-1.3939394 z"
     id="path-main" />
</defs>
<acyl-settings>
<linearGradient
     id="linearGradient4321">
    <stop
       style="stop-color:#FF6100;stop-opacity:1.0;"
       offset="0.0"
       id="stop1" />
  </linearGradient>
<linearGradient
     inkscape:collect="always"
     xlink:href="#linearGradient4321"
     id="acyl_gradient"
     x1="50.0%"
     y1="0.0%"
     x2="50.0%"
     y2="100.0%" />
<filter id="filter1111" x="-50%" y="-50%" width="200%" height="200%">
	<feImage
	id="feImage2"
	xlink:href="#1"
	result="result1" />
	<feComposite
	id="feComposite3633"
	in="result1"
	in2="SourceAlpha"
	operator="out" />
</filter>
<defs>
<use id="1" transform="translate(22.5,22.5) scale(1) translate(-22.5,-22.5)" style="stroke-opacity:1;stroke:url(#acyl_gradient);stroke-width:4" xlink:href="#path-main" />
</defs>
<use id="2" transform="translate(22.5,22.5) scale(1) translate(-22.5,-22.5)" style="fill:url(#acyl_gradient);filter:url(#filter1111)" xlink:href="#path-main" />
</acyl-settings>
</svg>
