<svg xmlns="http://www.w3.org/2000/svg" width="48" height="48">
<defs>
<defs
   id="defs15">
</defs>
	<path
   d="m 41.090674,32.741334 c -1.526687,-1.642667 -3.523124,-2.464 -5.754436,-2.464 -1.526687,0 -3.053374,0.469333 -4.345186,1.290666 L 27.82024,26.405334 C 31.225927,24.058667 35.923426,20.304 39.094237,14.672 43.674299,6.6933338 36.275738,2.1173338 36.275738,2.1173338 L 24.531991,21.008 12.788244,2.0000005 c 0,0 -7.3985608,4.576 -2.8184995,12.5546665 3.1708125,5.514667 7.9857485,9.504 11.3914355,11.733333 l -3.28825,5.28 c -1.291812,-0.821333 -2.701061,-1.290666 -4.345186,-1.290666 -2.231312,0 -4.3451868,0.938666 -5.7544365,2.464 -1.4092496,1.408 -2.1138744,3.402666 -2.1138744,5.397333 0,1.994667 0.7046248,3.989333 2.1138744,5.397333 C 9.4999946,45.178667 11.496432,46 13.727744,46 c 2.231312,0 4.345186,-0.938666 5.754436,-2.464 1.40925,-1.408 1.996437,-3.52 2.113874,-5.397333 0.117438,-1.877333 1.761562,-9.386667 1.761562,-9.386667 0,0 0.46975,-0.234666 1.291813,-0.704 0.704624,0.586667 1.056937,0.704 1.056937,0.704 0,0 1.644124,7.392 1.761562,9.386667 C 27.585365,40.016 28.172553,42.128 29.581802,43.536 31.108489,45.178667 33.104926,46 35.336238,46 c 2.231312,0 4.345187,-0.938666 5.754436,-2.464 1.40925,-1.408 2.113875,-3.402666 2.113875,-5.397333 0,-1.994667 -0.704625,-3.989333 -2.113875,-5.397333 z m -24.426993,9.504 c -0.46975,0.469333 -1.526687,1.408 -2.935937,1.408 -1.40925,0 -2.466187,-0.938667 -2.935937,-1.408 -0.9395,-1.056 -1.5266873,-2.464 -1.5266873,-3.989334 0,-1.525333 0.5871873,-2.933333 1.5266873,-3.989333 0.46975,-0.469333 1.526687,-1.408 2.935937,-1.408 1.40925,0 2.466187,0.938667 2.935937,1.408 0.939499,1.056 1.526687,2.464 1.526687,3.989333 0,1.525334 -0.587188,2.933334 -1.526687,3.989334 z M 38.272175,42.128 c -0.46975,0.469334 -1.526687,1.408 -2.935937,1.408 -1.409249,0 -2.466187,-0.938666 -2.935936,-1.408 -0.9395,-1.056 -1.526687,-2.464 -1.526687,-3.989333 0,-1.525333 0.587187,-2.933333 1.526687,-3.989333 0.469749,-0.469334 1.526687,-1.408 2.935936,-1.408 1.40925,0 2.466187,0.938666 2.935937,1.408 0.9395,1.056 1.526687,2.464 1.526687,3.989333 0,1.525333 -0.587187,2.933333 -1.526687,3.989333 z"
   id="path-main"
    />
</defs>
<acyl-settings>
<linearGradient
     id="linearGradient4321">
    <stop
       style="stop-color:#FF6100;stop-opacity:1.0;"
       offset="0.0"
       id="stop1" />
  </linearGradient>
<linearGradient
     inkscape:collect="always"
     xlink:href="#linearGradient4321"
     id="acyl_gradient"
     x1="50.0%"
     y1="0.0%"
     x2="50.0%"
     y2="100.0%" />
<filter id="filter1111" x="-50%" y="-50%" width="200%" height="200%">
	<feImage
	id="feImage2"
	xlink:href="#1"
	result="result1" />
	<feComposite
	id="feComposite3633"
	in="result1"
	in2="SourceAlpha"
	operator="out" />
</filter>
<defs>
<use id="1" transform="translate(22.5,22.5) scale(1) translate(-22.5,-22.5)" style="stroke-opacity:1;stroke:url(#acyl_gradient);stroke-width:4" xlink:href="#path-main" />
</defs>
<use id="2" transform="translate(22.5,22.5) scale(1) translate(-22.5,-22.5)" style="fill:url(#acyl_gradient);filter:url(#filter1111)" xlink:href="#path-main" />
</acyl-settings>
</svg>
