<svg xmlns="http://www.w3.org/2000/svg" width="48" height="48">
<defs>
<defs
     id="defs3">
  </defs>
  <g
     id="layer1" />
  <path
     id="path-main"
     d="m 42.008621,6.0000298 -30.393613,0.1478288 -2.0104733,0 0.6800133,1.8922095 c 0.22212,0.6305855 0.360188,1.2755874 0.41392,1.9217751 l -7.5392716,0 c -0.7140982,2e-7 -1.2211987,0.6452548 -1.1530651,1.3304598 l 2.8678799,30.393613 c 0.034791,0.349884 0.213339,0.612938 0.4434866,0.827842 0.2301476,0.214904 0.5299239,0.384355 0.8869731,0.384355 l 0.8278417,0 28.6196674,0 2.897446,0 c 0.388268,-2e-6 0.676362,-0.155672 0.946105,-0.354789 0.541751,-0.399914 0.728063,-0.703892 0.946104,-1.034802 0.63519,-0.964011 1.263597,-2.544825 1.89221,-4.434866 0.628612,-1.890041 1.260155,-4.083614 1.803512,-6.149681 1.074099,-4.084173 1.814887,-7.632454 1.833078,-7.716666 2.13e-4,-9.46e-4 0.02956,-0.0887 0.02956,-0.0887 l -0.05913,0 c 0.0741,-0.252511 0.04444,-0.543279 -0.118263,-0.709579 -0.183648,-0.187709 -0.425765,-0.266092 -0.680013,-0.266092 l -4.700958,0 c 1.605381,-3.410645 3.190912,-7.870401 2.986143,-14.7828857 l -0.02957,-1.3600255 -1.389591,0 z M 40.530333,8.8383439 C 40.477143,15.178364 38.890346,18.917286 37.278098,22.142941 l -25.160472,0 c -0.0011,0 -0.12765,0.01 -0.177395,0.02957 -0.04975,0.01959 -0.08855,0.0364 -0.118263,0.05913 -0.05941,0.04546 -0.09707,0.08759 -0.118263,0.118263 -0.04239,0.06135 -0.04606,0.08422 -0.05913,0.118264 -0.02615,0.06807 -0.04353,0.140028 -0.05913,0.20696 -0.03121,0.133864 -0.0535,0.286589 -0.0887,0.502618 -0.07038,0.432057 -0.162062,1.065637 -0.266092,1.803512 -0.208062,1.475752 -0.492028,3.445834 -0.857408,5.5288 -0.21425,1.221402 -0.4644475,2.468188 -0.7391445,3.666155 -0.3135917,0.0087 -1.6191906,0.05478 -1.7739463,0.05913 -0.4040629,-5.106304 1.2246774,-9.450017 2.9270118,-13.600256 1.58815,-3.871864 3.127621,-7.698792 2.513091,-11.6489142 L 40.530333,8.8383439 z" />
</defs>
<acyl-settings>
<linearGradient
     id="linearGradient4321">
    <stop
       style="stop-color:#FF6100;stop-opacity:1.0;"
       offset="0.0"
       id="stop1" />
  </linearGradient>
<linearGradient
     inkscape:collect="always"
     xlink:href="#linearGradient4321"
     id="acyl_gradient"
     x1="50.0%"
     y1="0.0%"
     x2="50.0%"
     y2="100.0%" />
<filter id="filter1111" x="-50%" y="-50%" width="200%" height="200%">
	<feImage
	id="feImage2"
	xlink:href="#1"
	result="result1" />
	<feComposite
	id="feComposite3633"
	in="result1"
	in2="SourceAlpha"
	operator="out" />
</filter>
<defs>
<use id="1" transform="translate(22.5,22.5) scale(1) translate(-22.5,-22.5)" style="stroke-opacity:1;stroke:url(#acyl_gradient);stroke-width:4" xlink:href="#path-main" />
</defs>
<use id="2" transform="translate(22.5,22.5) scale(1) translate(-22.5,-22.5)" style="fill:url(#acyl_gradient);filter:url(#filter1111)" xlink:href="#path-main" />
</acyl-settings>
</svg>
