<svg xmlns="http://www.w3.org/2000/svg" width="48" height="48">
<defs>
  <path
     d="M 23.987407,2 C 11.841307,2 2,11.860535 2,24.012472 2,36.16441 11.841307,46 23.987407,46 36.133506,46 46,36.16441 46,24.012472 46,11.860535 36.133506,2 23.987407,2 z m -0.390384,6.647392 c 0.841104,3.1e-5 1.555029,0.292917 2.140813,0.873016 0.600784,0.565284 0.894093,1.272328 0.894104,2.120182 -1.1e-5,0.862783 -0.29332,1.58756 -0.894104,2.182539 -0.600804,0.580155 -1.345227,0.87304 -2.216371,0.873016 -0.871159,2.4e-5 -1.582657,-0.282793 -2.153405,-0.848072 -0.570761,-0.580104 -0.85633,-1.307285 -0.856326,-2.170068 -4e-6,-0.892479 0.283139,-1.617256 0.868919,-2.18254 0.585768,-0.565224 1.330191,-0.848042 2.21637,-0.848073 z m 2.090441,8.842404 c 0.645844,2.1e-5 0.969651,0.320709 0.969663,0.960317 -1.2e-5,0.282648 -0.04842,0.704471 -0.138524,1.284581 -0.09013,0.565273 -0.125941,0.999568 -0.12593,1.297052 -1.1e-5,0.981775 -0.02034,2.461534 -0.05037,4.439909 -0.01503,1.963525 -0.0252,3.433215 -0.02519,4.414965 -1.1e-5,2.32053 0.03049,3.91389 0.07556,4.77665 0.06007,0.99663 0.411948,1.65574 1.057814,1.98299 0.585762,0.13388 1.174807,0.27529 1.775616,0.42403 0.600779,0.13388 0.906682,0.49244 0.906696,1.07257 -1.4e-5,0.80326 -1.277339,1.20975 -3.815684,1.20975 -2.763664,0 -5.104366,-0.0479 -7.026903,-0.13719 -0.946255,-0.0446 -1.423014,-0.40318 -1.423011,-1.07256 -3e-6,-0.59501 0.333971,-0.96123 0.994848,-1.10998 1.096446,-0.25287 1.685491,-0.40435 1.775616,-0.44898 0.660868,-0.37187 0.994842,-1.12445 0.994848,-2.26984 -6e-6,-0.84788 0.01016,-2.12296 0.02519,-3.80386 0.01501,-1.68087 0.02518,-2.94349 0.02519,-3.791379 -6e-6,-2.067627 -0.0305,-3.443846 -0.07556,-4.128118 -0.06009,-0.996615 -0.659297,-1.60012 -1.800802,-1.80839 -1.126493,-0.208233 -1.687466,-0.630056 -1.687464,-1.284581 -2e-6,-0.565234 0.341711,-0.895989 1.032628,-0.98526 -0.180242,0.02977 0.383158,0.03744 1.674871,0.03741 0.585769,2e-5 1.414407,-0.166786 2.480824,-0.52381 1.081422,-0.356981 1.869395,-0.53626 2.38008,-0.536281 z"
     id="path-main" />
</defs>
<acyl-settings>
<linearGradient
     id="linearGradient4321">
    <stop
       style="stop-color:#FF6100;stop-opacity:1.0;"
       offset="0.0"
       id="stop1" />
  </linearGradient>
<linearGradient
     inkscape:collect="always"
     xlink:href="#linearGradient4321"
     id="acyl_gradient"
     x1="50.0%"
     y1="0.0%"
     x2="50.0%"
     y2="100.0%" />
<filter id="filter1111" x="-50%" y="-50%" width="200%" height="200%">
	<feImage
	id="feImage2"
	xlink:href="#1"
	result="result1" />
	<feComposite
	id="feComposite3633"
	in="result1"
	in2="SourceAlpha"
	operator="out" />
</filter>
<defs>
<use id="1" transform="translate(22.5,22.5) scale(1) translate(-22.5,-22.5)" style="stroke-opacity:1;stroke:url(#acyl_gradient);stroke-width:4" xlink:href="#path-main" />
</defs>
<use id="2" transform="translate(22.5,22.5) scale(1) translate(-22.5,-22.5)" style="fill:url(#acyl_gradient);filter:url(#filter1111)" xlink:href="#path-main" />
</acyl-settings>
</svg>
