<svg xmlns="http://www.w3.org/2000/svg" width="48" height="48">
<defs>
<defs
     id="defs4">
  </defs>
  <path
     id="path-main"
     d="m 3.7763071,10.706817 17.1515549,17.122435 0.465917,-0.465916 c -0.02363,1.088933 0.127597,2.164419 0.436797,3.203176 l -0.902714,0.873594 -6.318994,-6.318994 -10.8325609,10.832561 21.6068829,0 c 1.981715,1.6757 4.599135,2.776917 7.658504,2.853739 l 0,6.173395 0,1.019193 0.757115,-0.669755 L 45.592323,35.05096 46,34.730642 l -0.378557,-0.349437 -5.736599,-5.241562 0,-13.074785 c 0.86824,-0.06563 1.770428,-0.108328 2.737261,-0.116479 l 0.02912,-0.931834 c -0.0104,-3.41e-4 -0.01873,3.35e-4 -0.02912,0 -0.947188,-0.03045 -1.859731,-0.02313 -2.737261,0 l 0,-2.533421 -2.67902,2.70814 c -1.558463,0.148396 -2.99943,0.382215 -4.309729,0.698875 l 5.183323,-5.183322 -34.3031109,0 z M 2,12.483124 2,34.148246 12.803441,23.315685 2,12.483124 z m 33.720715,4.164129 -6.668432,6.668432 3.989411,3.989411 c 0,1.360865 0,2.495659 0,2.911979 -0.258946,-0.0029 -0.510011,-0.03398 -0.757114,-0.05824 l -5.037724,-5.037723 -0.669755,0.640635 c -0.189277,-0.743435 -0.218767,-1.534927 -0.05824,-2.329583 0.134172,-0.664192 0.400503,-1.326543 0.815354,-1.980145 0.01779,-0.02803 0.03989,-0.0594 0.05824,-0.08736 l 2.300464,-2.271343 c 0.32743,-0.227554 0.6651,-0.458213 1.048312,-0.669755 1.312205,-0.724371 2.960896,-1.339364 4.979484,-1.776308 z m -5.56188,1.048313 c -2.666934,1.514447 -4.131042,3.524124 -4.542687,5.561879 -0.838018,4.148417 2.663752,8.165917 7.891463,7.949703 l 0.465916,0 0,-0.465917 c 0,0 0,-4.233626 0,-5.736598 l 10.628723,9.696889 -10.628723,9.230973 0,-5.56188 0,-0.465916 -0.495036,0 c -7.127643,0.06936 -11.676604,-5.635002 -11.123759,-11.211119 0.276422,-2.788058 1.803088,-5.552376 5.037723,-7.600264 0.808659,-0.511972 1.738021,-0.98999 2.76638,-1.39775 z" />
</defs>
<acyl-settings>
<linearGradient
     id="linearGradient4321">
    <stop
       style="stop-color:#FF6100;stop-opacity:1.0;"
       offset="0.0"
       id="stop1" />
  </linearGradient>
<linearGradient
     inkscape:collect="always"
     xlink:href="#linearGradient4321"
     id="acyl_gradient"
     x1="50.0%"
     y1="0.0%"
     x2="50.0%"
     y2="100.0%" />
<filter id="filter1111" x="-50%" y="-50%" width="200%" height="200%">
	<feImage
	id="feImage2"
	xlink:href="#1"
	result="result1" />
	<feComposite
	id="feComposite3633"
	in="result1"
	in2="SourceAlpha"
	operator="out" />
</filter>
<defs>
<use id="1" transform="translate(22.5,22.5) scale(1) translate(-22.5,-22.5)" style="stroke-opacity:1;stroke:url(#acyl_gradient);stroke-width:4" xlink:href="#path-main" />
</defs>
<use id="2" transform="translate(22.5,22.5) scale(1) translate(-22.5,-22.5)" style="fill:url(#acyl_gradient);filter:url(#filter1111)" xlink:href="#path-main" />
</acyl-settings>
</svg>
