<svg xmlns="http://www.w3.org/2000/svg" width="48" height="48">
<defs>
<defs
     id="defs7856" />
  <g
     id="layer1">
    <path
       d="M 20.28125,3.03125 C 19.511707,3.03125 18.901805,3.4409738 18.53125,3.9375 C 18.160695,4.4340262 18,5.0050708 18,5.53125 L 18,9 L 12.25,9 C 10.458149,9 9,10.458149 9,12.25 L 9,38.75 C 9,40.541851 10.458149,42 12.25,42 L 36.75,42 C 38.541851,42 40,40.541851 40,38.75 L 40,12.25 C 40,10.458149 38.541851,9 36.75,9 L 31,9 L 31,5.5625 C 31,5.0110297 30.80548,4.4372961 30.4375,3.96875 C 30.06952,3.5002039 29.499825,3.125 28.8125,3.125 L 20.28125,3.03125 z M 20.28125,4.03125 L 28.8125,4.125 C 29.132178,4.125 29.426578,4.3013104 29.65625,4.59375 C 29.885922,4.8861896 30,5.2913559 30,5.5625 L 30,9.3125 L 30,9.5625 L 30.1875,9.6875 L 30.375,9.84375 C 30.385166,9.8544463 30.395028,9.8651172 30.40625,9.875 L 32.84375,11.8125 C 32.841907,11.829508 32.845694,11.82555 32.84375,11.84375 C 32.839645,11.909317 32.822697,11.973911 32.8125,12.0625 C 32.794375,12.172643 32.772917,12.283054 32.75,12.375 C 32.744244,12.397647 32.75682,12.413392 32.75,12.4375 C 32.693239,12.638142 32.604689,12.815626 32.53125,12.90625 C 32.457811,12.996874 32.452668,13.00353 32.375,13 L 32.34375,13 L 16.75,13 C 16.741699,12.999585 16.724961,13.00056 16.71875,13 C 16.686143,12.997061 16.675988,12.980859 16.625,12.90625 C 16.5643,12.817429 16.509467,12.658776 16.46875,12.46875 C 16.462318,12.438731 16.473901,12.433909 16.46875,12.40625 C 16.432137,12.215137 16.412454,12.025246 16.40625,11.875 L 18.21875,10.3125 L 18.75,9.875 C 18.756906,9.8689183 18.743492,9.8501456 18.75,9.84375 L 18.8125,9.8125 L 19,9.65625 L 19,9.4375 L 19,5.53125 C 19,5.2444635 19.119271,4.8320409 19.34375,4.53125 C 19.568229,4.2304591 19.838366,4.03125 20.28125,4.03125 z M 14,13 L 15.59375,13 C 15.645818,13.160167 15.70273,13.308128 15.8125,13.46875 C 15.990635,13.729409 16.297439,13.980497 16.6875,14 L 16.71875,14 L 32.34375,14 C 32.752219,14.018567 33.102262,13.790686 33.3125,13.53125 C 33.451214,13.360076 33.55159,13.181143 33.625,13 L 35,13 L 35,15.3125 C 34.752869,15.735277 33.806188,17.357005 33.15625,18.46875 L 29.46875,16.21875 C 28.952631,15.918935 28.291106,15.955843 27.8125,16.3125 L 24.875,18.53125 L 21.875,15.46875 C 21.446979,15.034383 20.81216,14.88867 20.25,15.125 L 16.25,16.75 L 14,14.5 L 14,13 z"
       id="path-main"
        />
    <g
       transform="matrix(0.6855239,0,0,0.376205,8.0504513,23.178382)"
       id="g2043">
      <g
         id="g2036"
         style="display:inline">
        <g
           transform="matrix(1.052632,0,0,1.285713,-1.263158,-13.42854)"
           id="g3712"
           style="opacity:0.4" />
      </g>
    </g>
    <g
       transform="matrix(0.6855239,0,0,0.6771684,42.798767,17.981873)"
       id="g2285"
       style="display:inline" />
    <g
       transform="matrix(0.1279894,0,0,0.1264294,28.329208,57.002341)"
       id="g891" />
  </g>
</defs>
<acyl-settings>
<linearGradient
     id="linearGradient4321">
    <stop
       style="stop-color:#FF6100;stop-opacity:1.0;"
       offset="0.0"
       id="stop1" />
  </linearGradient>
<linearGradient
     inkscape:collect="always"
     xlink:href="#linearGradient4321"
     id="acyl_gradient"
     x1="50.0%"
     y1="0.0%"
     x2="50.0%"
     y2="100.0%" />
<filter id="filter1111" x="-50%" y="-50%" width="200%" height="200%">
	<feImage
	id="feImage2"
	xlink:href="#1"
	result="result1" />
	<feComposite
	id="feComposite3633"
	in="result1"
	in2="SourceAlpha"
	operator="out" />
</filter>
<defs>
<use id="1" transform="translate(22.5,22.5) scale(1) translate(-22.5,-22.5)" style="stroke-opacity:1;stroke:url(#acyl_gradient);stroke-width:4" xlink:href="#path-main" />
</defs>
<use id="2" transform="translate(22.5,22.5) scale(1) translate(-22.5,-22.5)" style="fill:url(#acyl_gradient);filter:url(#filter1111)" xlink:href="#path-main" />
</acyl-settings>
</svg>
