<svg xmlns="http://www.w3.org/2000/svg" width="48" height="48">
<defs>
<defs
     id="defs4">
  </defs>
  <g
     inkscape:label="Layer 1"
     inkscape:groupmode="layer"
     id="layer1">
    <path
         d="M 6.625 10 C 4.4437601 10 2.71875 11.855151 2.71875 14.0625 L 2.71875 26.90625 C 2.71875 26.980768 2.7461169 27.051342 2.75 27.125 C 2.7430289 27.304541 2.71875 27.475029 2.71875 27.65625 L 2.71875 40.53125 C 2.7187776 40.807381 2.9426191 41.031222 3.21875 41.03125 L 32.78125 41.03125 C 39.935792 41.03125 45.916472 35.308247 46.21875 28.21875 C 46.236818 28.270424 46.249994 28.317162 46.25 28.375 L 46.25 27.65625 C 46.25 27.833749 46.225834 28.011606 46.21875 28.1875 C 46.142839 28.008051 45.957098 27.875021 45.75 27.875 L 43.375 27.875 L 43.375 14.0625 C 43.375 11.855151 41.64999 10 39.46875 10 L 6.625 10 z M 6.625 12 L 39.46875 12 C 40.527421 12 41.375 12.881546 41.375 14.0625 L 41.375 27.875 L 39.84375 27.875 L 39.84375 14.5 C 39.843722 14.223869 39.619881 14.000028 39.34375 14 L 20.65625 14 C 20.645836 13.999674 20.635414 13.999674 20.625 14 C 20.361143 14.016548 20.155758 14.235625 20.15625 14.5 L 20.15625 18.40625 L 7.6875 18.40625 C 7.666687 18.404947 7.645813 18.404947 7.625 18.40625 C 7.3735219 18.437948 7.1855355 18.65279 7.1875 18.90625 L 7.1875 31.1875 C 6.2291193 32.049282 5.3968136 33.046045 4.71875 34.15625 L 4.71875 14.0625 C 4.71875 12.881546 5.5663292 12 6.625 12 z M 21.15625 15 L 38.84375 15 L 38.84375 27.875 L 26.59375 27.875 L 26.59375 26.34375 L 36.375 26.34375 L 36.375 25.34375 L 26.59375 25.34375 L 26.59375 23.71875 L 36.375 23.71875 L 36.375 22.71875 L 26.59375 22.71875 L 26.59375 20.90625 L 36.375 20.90625 L 36.375 19.90625 L 26.59375 19.90625 L 26.59375 18.90625 C 26.593739 18.798492 26.557986 18.706638 26.5 18.625 L 36.375 18.625 L 36.375 17.625 L 23.65625 17.625 L 23.65625 18.40625 L 21.15625 18.40625 L 21.15625 15 z M 8.1875 19.40625 L 25.59375 19.40625 L 25.59375 27.875 L 15.8125 27.875 C 12.930583 27.875 10.320988 28.832316 8.1875 30.40625 L 8.1875 19.40625 z M 10.75 20.84375 L 10.75 21.84375 L 23.5 21.84375 L 23.5 20.84375 L 10.75 20.84375 z M 10.875 23.46875 L 10.875 24.46875 L 23.625 24.46875 L 23.625 23.46875 L 10.875 23.46875 z M 10.875 26.28125 L 10.875 27.28125 L 23.625 27.28125 L 23.625 26.28125 L 10.875 26.28125 z "
       id="path-main" />
  </g>
</defs>
<acyl-settings>
<linearGradient
     id="linearGradient4321">
    <stop
       style="stop-color:#FF6100;stop-opacity:1.0;"
       offset="0.0"
       id="stop1" />
  </linearGradient>
<linearGradient
     inkscape:collect="always"
     xlink:href="#linearGradient4321"
     id="acyl_gradient"
     x1="50.0%"
     y1="0.0%"
     x2="50.0%"
     y2="100.0%" />
<filter id="filter1111" x="-50%" y="-50%" width="200%" height="200%">
	<feImage
	id="feImage2"
	xlink:href="#1"
	result="result1" />
	<feComposite
	id="feComposite3633"
	in="result1"
	in2="SourceAlpha"
	operator="out" />
</filter>
<defs>
<use id="1" transform="translate(22.5,22.5) scale(1) translate(-22.5,-22.5)" style="stroke-opacity:1;stroke:url(#acyl_gradient);stroke-width:4" xlink:href="#path-main" />
</defs>
<use id="2" transform="translate(22.5,22.5) scale(1) translate(-22.5,-22.5)" style="fill:url(#acyl_gradient);filter:url(#filter1111)" xlink:href="#path-main" />
</acyl-settings>
</svg>
