<svg xmlns="http://www.w3.org/2000/svg" width="48" height="48">
<defs>
<defs
     id="defs2385">
  </defs>
  <path
     id="path-main"
     d="m 18.576631,2.9963324 c -0.769163,0 -1.373666,0.6553585 -1.373666,1.4652442 l 0,31.2585434 c 0,0.809885 0.604503,1.465244 1.373666,1.465244 l 4.487311,0 0,3.14417 c -0.554802,0.245709 -1.005854,0.696761 -1.251563,1.251563 l -18.7734413,0 c -0.030509,-0.0015 -0.061069,-0.0015 -0.091578,0 -0.539488,0.02529 -0.971592,0.498393 -0.9463036,1.037881 0.025288,0.539488 0.4983934,0.941066 1.0378814,0.915778 l 18.7734415,0 C 22.191797,44.391468 23.04401,45 24.040771,45 c 0.996761,0 1.848975,-0.608532 2.228392,-1.465244 l 18.742916,0 c 0.35228,0.005 0.677131,-0.184135 0.854726,-0.488415 0.177593,-0.30428 0.177593,-0.67255 0,-0.976829 -0.177595,-0.30428 -0.502446,-0.493397 -0.854726,-0.488415 l -18.742916,0 c -0.245708,-0.554802 -0.69676,-1.005854 -1.251562,-1.251563 l 0,-3.14417 4.48731,0 c 0.769163,0 1.373666,-0.655359 1.373666,-1.465244 l 0,-31.2585434 c 0,-0.8098857 -0.604503,-1.4652442 -1.373666,-1.4652442 l -10.92828,0 z" />
</defs>
<acyl-settings>
<linearGradient
     id="linearGradient4321">
    <stop
       style="stop-color:#FF6100;stop-opacity:1.0;"
       offset="0.0"
       id="stop1" />
  </linearGradient>
<linearGradient
     inkscape:collect="always"
     xlink:href="#linearGradient4321"
     id="acyl_gradient"
     x1="50.0%"
     y1="0.0%"
     x2="50.0%"
     y2="100.0%" />
<filter id="filter1111" x="-50%" y="-50%" width="200%" height="200%">
	<feImage
	id="feImage2"
	xlink:href="#1"
	result="result1" />
	<feComposite
	id="feComposite3633"
	in="result1"
	in2="SourceAlpha"
	operator="out" />
</filter>
<defs>
<use id="1" transform="translate(22.5,22.5) scale(1) translate(-22.5,-22.5)" style="stroke-opacity:1;stroke:url(#acyl_gradient);stroke-width:4" xlink:href="#path-main" />
</defs>
<use id="2" transform="translate(22.5,22.5) scale(1) translate(-22.5,-22.5)" style="fill:url(#acyl_gradient);filter:url(#filter1111)" xlink:href="#path-main" />
</acyl-settings>
</svg>
